{"type":"FeatureCollection","features":[
{"type": "Feature", "geometry": {"type": "Point", "coordinates": [21.7568423, 46.2738935]}, "properties": {"OBJECTID": 1, "Data": 1589283007000, "REGIUNE_DEZVOLTARE": "VEST", "Den_diacritice": "Arad", "SIRUTA_judet": 29, "nr_cazuri_confirmate": 680, "pop_2020": 470093, "varstnici_2020": 81346}},
{"type": "Feature", "geometry": {"type": "Point", "coordinates": [24.8860557, 45.0456377]}, "properties": {"OBJECTID": 2, "Data": 1589283007000, "REGIUNE_DEZVOLTARE": "SUD MUNTENIA", "Den_diacritice": "Arge\u015f", "SIRUTA_judet": 38, "nr_cazuri_confirmate": 181, "pop_2020": 632124, "varstnici_2020": 81346}},
{"type": "Feature", "geometry": {"type": "Point", "coordinates": [26.7715912, 46.4222108]}, "properties": {"OBJECTID": 3, "Data": 1589283007000, "REGIUNE_DEZVOLTARE": "NORD EST", "Den_diacritice": "Bac\u0103u", "SIRUTA_judet": 47, "nr_cazuri_confirmate": 388, "pop_2020": 737629, "varstnici_2020": 112532}},
{"type": "Feature", "geometry": {"type": "Point", "coordinates": [22.2084411, 46.9443439]}, "properties": {"OBJECTID": 4, "Data": 1589283007000, "REGIUNE_DEZVOLTARE": "NORD VEST", "Den_diacritice": "Bihor", "SIRUTA_judet": 56, "nr_cazuri_confirmate": 489, "pop_2020": 616264, "varstnici_2020": 101085}},
{"type": "Feature", "geometry": {"type": "Point", "coordinates": [24.5208231, 47.2378863]}, "properties": {"OBJECTID": 5, "Data": 1589283007000, "REGIUNE_DEZVOLTARE": "NORD VEST", "Den_diacritice": "Bistri\u0163a N\u0103s\u0103ud", "SIRUTA_judet": 65, "nr_cazuri_confirmate": 272, "pop_2020": 327886, "varstnici_2020": 49412}},
{"type": "Feature", "geometry": {"type": "Point", "coordinates": [26.7610417, 47.8601483]}, "properties": {"OBJECTID": 6, "Data": 1589283007000, "REGIUNE_DEZVOLTARE": "NORD EST", "Den_diacritice": "Boto\u015fani", "SIRUTA_judet": 74, "nr_cazuri_confirmate": 622, "pop_2020": 456130, "varstnici_2020": 72370}},
{"type": "Feature", "geometry": {"type": "Point", "coordinates": [25.300204, 45.7657743]}, "properties": {"OBJECTID": 7, "Data": 1589283007000, "REGIUNE_DEZVOLTARE": "CENTRU", "Den_diacritice": "Bra\u015fov", "SIRUTA_judet": 83, "nr_cazuri_confirmate": 578, "pop_2020": 638000, "varstnici_2020": 106662}},
{"type": "Feature", "geometry": {"type": "Point", "coordinates": [27.6716638, 45.0882817]}, "properties": {"OBJECTID": 8, "Data": 1589283007000, "REGIUNE_DEZVOLTARE": "SUD EST", "Den_diacritice": "Br\u0103ila", "SIRUTA_judet": 92, "nr_cazuri_confirmate": 19, "pop_2020": 340804, "varstnici_2020": 65195}},
{"type": "Feature", "geometry": {"type": "Point", "coordinates": [26.7481999, 45.2465175]}, "properties": {"OBJECTID": 9, "Data": 1589283007000, "REGIUNE_DEZVOLTARE": "SUD EST", "Den_diacritice": "Buz\u0103u", "SIRUTA_judet": 109, "nr_cazuri_confirmate": 83, "pop_2020": 461039, "varstnici_2020": 89119}},
{"type": "Feature", "geometry": {"type": "Point", "coordinates": [22.0416058, 45.1526328]}, "properties": {"OBJECTID": 10, "Data": 1589283007000, "REGIUNE_DEZVOLTARE": "VEST", "Den_diacritice": "Cara\u015f Severin", "SIRUTA_judet": 118, "nr_cazuri_confirmate": 109, "pop_2020": 315473, "varstnici_2020": 58935}},
{"type": "Feature", "geometry": {"type": "Point", "coordinates": [28.2484265, 44.2465764]}, "properties": {"OBJECTID": 11, "Data": 1589283007000, "REGIUNE_DEZVOLTARE": "SUD EST", "Den_diacritice": "Constan\u0163a", "SIRUTA_judet": 136, "nr_cazuri_confirmate": 252, "pop_2020": 763549, "varstnici_2020": 123678}},
{"type": "Feature", "geometry": {"type": "Point", "coordinates": [25.9888343, 45.9385021]}, "properties": {"OBJECTID": 12, "Data": 1589283007000, "REGIUNE_DEZVOLTARE": "CENTRU", "Den_diacritice": "Covasna", "SIRUTA_judet": 145, "nr_cazuri_confirmate": 222, "pop_2020": 225743, "varstnici_2020": 36873}},
{"type": "Feature", "geometry": {"type": "Point", "coordinates": [23.6114502, 44.1423979]}, "properties": {"OBJECTID": 13, "Data": 1589283007000, "REGIUNE_DEZVOLTARE": "SUD VEST", "Den_diacritice": "Dolj", "SIRUTA_judet": 163, "nr_cazuri_confirmate": 150, "pop_2020": 686350, "varstnici_2020": 125012}},
{"type": "Feature", "geometry": {"type": "Point", "coordinates": [27.7556598, 45.7936553]}, "properties": {"OBJECTID": 14, "Data": 1589283007000, "REGIUNE_DEZVOLTARE": "SUD EST", "Den_diacritice": "Gala\u0163i", "SIRUTA_judet": 172, "nr_cazuri_confirmate": 519, "pop_2020": 628104, "varstnici_2020": 101631}},
{"type": "Feature", "geometry": {"type": "Point", "coordinates": [25.5563282, 46.5512203]}, "properties": {"OBJECTID": 15, "Data": 1589283007000, "REGIUNE_DEZVOLTARE": "CENTRU", "Den_diacritice": "Harghita", "SIRUTA_judet": 190, "nr_cazuri_confirmate": 24, "pop_2020": 330473, "varstnici_2020": 56439}},
{"type": "Feature", "geometry": {"type": "Point", "coordinates": [27.2542268, 44.6272502]}, "properties": {"OBJECTID": 16, "Data": 1589283007000, "REGIUNE_DEZVOLTARE": "SUD MUNTENIA", "Den_diacritice": "Ialomi\u0163a", "SIRUTA_judet": 216, "nr_cazuri_confirmate": 296, "pop_2020": 285100, "varstnici_2020": 49181}},
{"type": "Feature", "geometry": {"type": "Point", "coordinates": [23.9803325, 47.6716972]}, "properties": {"OBJECTID": 17, "Data": 1589283007000, "REGIUNE_DEZVOLTARE": "NORD VEST", "Den_diacritice": "Maramure\u015f", "SIRUTA_judet": 243, "nr_cazuri_confirmate": 71, "pop_2020": 520551, "varstnici_2020": 81960}},
{"type": "Feature", "geometry": {"type": "Point", "coordinates": [22.7837081, 44.5881936]}, "properties": {"OBJECTID": 18, "Data": 1589283007000, "REGIUNE_DEZVOLTARE": "SUD VEST", "Den_diacritice": "Mehedin\u0163i", "SIRUTA_judet": 252, "nr_cazuri_confirmate": 82, "pop_2020": 277017, "varstnici_2020": 49683}},
{"type": "Feature", "geometry": {"type": "Point", "coordinates": [24.6961213, 46.6106059]}, "properties": {"OBJECTID": 19, "Data": 1589283007000, "REGIUNE_DEZVOLTARE": "CENTRU", "Den_diacritice": "Mure\u015f", "SIRUTA_judet": 261, "nr_cazuri_confirmate": 608, "pop_2020": 590305, "varstnici_2020": 102153}},
{"type": "Feature", "geometry": {"type": "Point", "coordinates": [24.4384858, 44.2741273]}, "properties": {"OBJECTID": 20, "Data": 1589283007000, "REGIUNE_DEZVOLTARE": "SUD VEST", "Den_diacritice": "Olt", "SIRUTA_judet": 289, "nr_cazuri_confirmate": 51, "pop_2020": 431248, "varstnici_2020": 80888}},
{"type": "Feature", "geometry": {"type": "Point", "coordinates": [26.0137763, 45.1153019]}, "properties": {"OBJECTID": 21, "Data": 1589283007000, "REGIUNE_DEZVOLTARE": "SUD MUNTENIA", "Den_diacritice": "Prahova", "SIRUTA_judet": 298, "nr_cazuri_confirmate": 78, "pop_2020": 787529, "varstnici_2020": 146526}},
{"type": "Feature", "geometry": {"type": "Point", "coordinates": [22.8979327, 47.7064917]}, "properties": {"OBJECTID": 22, "Data": 1589283007000, "REGIUNE_DEZVOLTARE": "NORD VEST", "Den_diacritice": "Satu Mare", "SIRUTA_judet": 305, "nr_cazuri_confirmate": 54, "pop_2020": 386110, "varstnici_2020": 56489}},
{"type": "Feature", "geometry": {"type": "Point", "coordinates": [24.24388, 45.8596533]}, "properties": {"OBJECTID": 23, "Data": 1589283007000, "REGIUNE_DEZVOLTARE": "CENTRU", "Den_diacritice": "Sibiu", "SIRUTA_judet": 323, "nr_cazuri_confirmate": 424, "pop_2020": 469285, "varstnici_2020": 75335}},
{"type": "Feature", "geometry": {"type": "Point", "coordinates": [25.7467354, 47.5538994]}, "properties": {"OBJECTID": 24, "Data": 1589283007000, "REGIUNE_DEZVOLTARE": "NORD EST", "Den_diacritice": "Suceava", "SIRUTA_judet": 332, "nr_cazuri_confirmate": 3283, "pop_2020": 764123, "varstnici_2020": 111457}},
{"type": "Feature", "geometry": {"type": "Point", "coordinates": [25.1964872, 44.0286357]}, "properties": {"OBJECTID": 25, "Data": 1589283007000, "REGIUNE_DEZVOLTARE": "SUD MUNTENIA", "Den_diacritice": "Teleorman", "SIRUTA_judet": 341, "nr_cazuri_confirmate": 106, "pop_2020": 365976, "varstnici_2020": 84349}},
{"type": "Feature", "geometry": {"type": "Point", "coordinates": [21.3747611, 45.7449811]}, "properties": {"OBJECTID": 26, "Data": 1589283007000, "REGIUNE_DEZVOLTARE": "VEST", "Den_diacritice": "Timi\u015f", "SIRUTA_judet": 350, "nr_cazuri_confirmate": 472, "pop_2020": 758380, "varstnici_2020": 122873}},
{"type": "Feature", "geometry": {"type": "Point", "coordinates": [28.859078, 45.0492806]}, "properties": {"OBJECTID": 27, "Data": 1589283007000, "REGIUNE_DEZVOLTARE": "SUD EST", "Den_diacritice": "Tulcea", "SIRUTA_judet": 369, "nr_cazuri_confirmate": 90, "pop_2020": 234243, "varstnici_2020": 39073}},
{"type": "Feature", "geometry": {"type": "Point", "coordinates": [27.7675051, 46.5277954]}, "properties": {"OBJECTID": 28, "Data": 1589283007000, "REGIUNE_DEZVOLTARE": "NORD EST", "Den_diacritice": "Vaslui", "SIRUTA_judet": 378, "nr_cazuri_confirmate": 135, "pop_2020": 504879, "varstnici_2020": 70957}},
{"type": "Feature", "geometry": {"type": "Point", "coordinates": [24.1091288, 45.0979101]}, "properties": {"OBJECTID": 29, "Data": 1589283007000, "REGIUNE_DEZVOLTARE": "SUD VEST", "Den_diacritice": "V\u00e2lcea", "SIRUTA_judet": 387, "nr_cazuri_confirmate": 26, "pop_2020": 394725, "varstnici_2020": 81457}},
{"type": "Feature", "geometry": {"type": "Point", "coordinates": [26.9784897, 45.7885606]}, "properties": {"OBJECTID": 30, "Data": 1589283007000, "REGIUNE_DEZVOLTARE": "SUD EST", "Den_diacritice": "Vrancea", "SIRUTA_judet": 396, "nr_cazuri_confirmate": 465, "pop_2020": 382688, "varstnici_2020": 66276}},
{"type": "Feature", "geometry": {"type": "Point", "coordinates": [26.0875513, 44.4411146]}, "properties": {"OBJECTID": 31, "Data": 1589283007000, "REGIUNE_DEZVOLTARE": "BUCURESTI ILFOV", "Den_diacritice": "Bucure\u015fti", "SIRUTA_judet": 403, "nr_cazuri_confirmate": 1528, "pop_2020": 2151665, "varstnici_2020": 382994}},
{"type": "Feature", "geometry": {"type": "Point", "coordinates": [25.8799389, 44.1446384]}, "properties": {"OBJECTID": 32, "Data": 1589283007000, "REGIUNE_DEZVOLTARE": "SUD MUNTENIA", "Den_diacritice": "Giurgiu", "SIRUTA_judet": 528, "nr_cazuri_confirmate": 205, "pop_2020": 269221, "varstnici_2020": 49968}},
{"type": "Feature", "geometry": {"type": "Point", "coordinates": [25.4951567, 44.8658226]}, "properties": {"OBJECTID": 33, "Data": 1589283007000, "REGIUNE_DEZVOLTARE": "SUD MUNTENIA", "Den_diacritice": "D\u00e2mbovi\u0163a", "SIRUTA_judet": 154, "nr_cazuri_confirmate": 152, "pop_2020": 518645, "varstnici_2020": 88066}},
{"type": "Feature", "geometry": {"type": "Point", "coordinates": [23.3205744, 45.0044713]}, "properties": {"OBJECTID": 34, "Data": 1589283007000, "REGIUNE_DEZVOLTARE": "SUD VEST", "Den_diacritice": "Gorj", "SIRUTA_judet": 181, "nr_cazuri_confirmate": 82, "pop_2020": 355358, "varstnici_2020": 57026}},
{"type": "Feature", "geometry": {"type": "Point", "coordinates": [22.9370814, 45.754573]}, "properties": {"OBJECTID": 35, "Data": 1589283007000, "REGIUNE_DEZVOLTARE": "VEST", "Den_diacritice": "Hunedoara", "SIRUTA_judet": 207, "nr_cazuri_confirmate": 568, "pop_2020": 453431, "varstnici_2020": 83622}},
{"type": "Feature", "geometry": {"type": "Point", "coordinates": [23.4841325, 46.1741584]}, "properties": {"OBJECTID": 36, "Data": 1589283007000, "REGIUNE_DEZVOLTARE": "CENTRU", "Den_diacritice": "Alba", "SIRUTA_judet": 10, "nr_cazuri_confirmate": 250, "pop_2020": 373710, "varstnici_2020": 67124}},
{"type": "Feature", "geometry": {"type": "Point", "coordinates": [23.5347483, 46.8130102]}, "properties": {"OBJECTID": 37, "Data": 1589283007000, "REGIUNE_DEZVOLTARE": "NORD VEST", "Den_diacritice": "Cluj", "SIRUTA_judet": 127, "nr_cazuri_confirmate": 514, "pop_2020": 736945, "varstnici_2020": 131331}},
{"type": "Feature", "geometry": {"type": "Point", "coordinates": [23.105094, 47.1845723]}, "properties": {"OBJECTID": 38, "Data": 1589283007000, "REGIUNE_DEZVOLTARE": "NORD VEST", "Den_diacritice": "S\u0103laj", "SIRUTA_judet": 314, "nr_cazuri_confirmate": 51, "pop_2020": 243525, "varstnici_2020": 41240}},
{"type": "Feature", "geometry": {"type": "Point", "coordinates": [27.0193989, 44.3133217]}, "properties": {"OBJECTID": 39, "Data": 1589283007000, "REGIUNE_DEZVOLTARE": "SUD MUNTENIA", "Den_diacritice": "C\u0103l\u0103ra\u015fi", "SIRUTA_judet": 519, "nr_cazuri_confirmate": 64, "pop_2020": 306820, "varstnici_2020": 53537}},
{"type": "Feature", "geometry": {"type": "Point", "coordinates": [26.1467694, 44.522095]}, "properties": {"OBJECTID": 40, "Data": 1589283007000, "REGIUNE_DEZVOLTARE": "BUCURESTI ILFOV", "Den_diacritice": "Ilfov", "SIRUTA_judet": 234, "nr_cazuri_confirmate": 379, "pop_2020": 451839, "varstnici_2020": 57677}},
{"type": "Feature", "geometry": {"type": "Point", "coordinates": [27.2828811, 47.1995464]}, "properties": {"OBJECTID": 41, "Data": 1589283007000, "REGIUNE_DEZVOLTARE": "NORD EST", "Den_diacritice": "Ia\u015fi", "SIRUTA_judet": 225, "nr_cazuri_confirmate": 325, "pop_2020": 965634, "varstnici_2020": 129106}},
{"type": "Feature", "geometry": {"type": "Point", "coordinates": [26.3730746, 46.9699387]}, "properties": {"OBJECTID": 42, "Data": 1589283007000, "REGIUNE_DEZVOLTARE": "NORD EST", "Den_diacritice": "Neam\u0163", "SIRUTA_judet": 270, "nr_cazuri_confirmate": 773, "pop_2020": 566080, "varstnici_2020": 96649}}
]}