{"type":"FeatureCollection","features":[
{"type": "Feature", "geometry": {"type": "Point", "coordinates": [-8.516279, 39.5936358]}, "properties": {"OBJECTID": 1, "NUTS": "PT", "NAME": "Portugal", "POPULATION": 10293561, "MALES": 4874807, "FEMALES": 5418754, "HOUSEHOLDS": 4078496, "PERS_HH": 2.5, "POP_GROWTH": -2, "POP_DENSIT": 112, "DWELLINGS": 5889374, "AGE_0_14": 1440707, "AGE_15_29": 1645994, "AGE_30_44": 2154788, "AGE_45_59": 2226945, "AGE_60_": 2825127, "PP_CATEGOR": "6000 - 12000", "PP_GROWTH": "10 - 15", "GDP": 184384, "EMPLOYED": 4605000, "SQKM": 93132.09, "X": -8.51627903777923, "Y": 39.5936357843825, "Daily_New": 271, "Daily_Deaths": 13, "Daily_Recovered": 115, "Total_New": 30471, "Total_Deaths": 1302, "Total_Recovered": 7705, "Date": 1590262360000}},
{"type": "Feature", "geometry": {"type": "Point", "coordinates": [-3.6459899, 40.228378]}, "properties": {"OBJECTID": 2, "NUTS": "ES", "NAME": "Espa\u00f1a \u00a0", "POPULATION": 46475397, "MALES": 22808155, "FEMALES": 23667242, "HOUSEHOLDS": 18510060, "PERS_HH": 2.5, "POP_GROWTH": -1, "POP_DENSIT": 92, "DWELLINGS": 25600132, "AGE_0_14": 6993568, "AGE_15_29": 6991642, "AGE_30_44": 10621669, "AGE_45_59": 10406357, "AGE_60_": 11462161, "PP_CATEGOR": "12000 - 18000", "PP_GROWTH": "5 - 10", "GDP": 1121534, "EMPLOYED": 18342000, "SQKM": 510542.1, "X": -3.64598988210382, "Y": 40.2283780234768, "Daily_New": 466, "Daily_Deaths": 50, "Daily_Recovered": 0, "Total_New": 235290, "Total_Deaths": 28678, "Total_Recovered": 150376, "Date": 1590262360000}},
{"type": "Feature", "geometry": {"type": "Point", "coordinates": [-5.3486936, 36.1358231]}, "properties": {"OBJECTID": 3, "NUTS": "GI", "NAME": "Gibraltar", "POPULATION": 33839, "MALES": 17072, "FEMALES": 16767, "HOUSEHOLDS": 12416, "PERS_HH": 2.7, "POP_GROWTH": 5, "POP_DENSIT": 5123, "DWELLINGS": null, "AGE_0_14": 6131, "AGE_15_29": 6317, "AGE_30_44": 6905, "AGE_45_59": 6919, "AGE_60_": 7567, "PP_CATEGOR": "12000 - 18000", "PP_GROWTH": null, "GDP": null, "EMPLOYED": 26000, "SQKM": 6.74, "X": -5.34869357932074, "Y": 36.1358231383668, "Daily_New": 0, "Daily_Deaths": 0, "Daily_Recovered": 1, "Total_New": 148, "Total_Deaths": 0, "Total_Recovered": 145, "Date": 1589846400000}},
{"type": "Feature", "geometry": {"type": "Point", "coordinates": [-2.5202163, 49.4827675]}, "properties": {"OBJECTID": 4, "NUTS": "GG", "NAME": "Guernsey", "POPULATION": 63092, "MALES": null, "FEMALES": null, "HOUSEHOLDS": null, "PERS_HH": null, "POP_GROWTH": 0, "POP_DENSIT": 758, "DWELLINGS": null, "AGE_0_14": null, "AGE_15_29": null, "AGE_30_44": null, "AGE_45_59": null, "AGE_60_": null, "PP_CATEGOR": null, "PP_GROWTH": null, "GDP": null, "EMPLOYED": null, "SQKM": 82.38, "X": -2.52021633134534, "Y": 49.4827674651727, "Daily_New": 0, "Daily_Deaths": 0, "Daily_Recovered": 234, "Total_New": 252, "Total_Deaths": 13, "Total_Recovered": 234, "Date": 1589846400000}},
{"type": "Feature", "geometry": {"type": "Point", "coordinates": [-18.5807969, 64.9840008]}, "properties": {"OBJECTID": 5, "NUTS": "IS", "NAME": "\u00cdsland", "POPULATION": 335714, "MALES": 169701, "FEMALES": 166013, "HOUSEHOLDS": 129543, "PERS_HH": 2.6, "POP_GROWTH": 5, "POP_DENSIT": 3, "DWELLINGS": 137461, "AGE_0_14": 66296, "AGE_15_29": 72263, "AGE_30_44": 68280, "AGE_45_59": 63292, "AGE_60_": 65583, "PP_CATEGOR": "24000 - 30000", "PP_GROWTH": "35 and more", "GDP": 18082, "EMPLOYED": 190000, "SQKM": 103989.86, "X": -18.5807969043404, "Y": 64.9840008227316, "Daily_New": 1, "Daily_Deaths": 0, "Daily_Recovered": 0, "Total_New": 1804, "Total_Deaths": 10, "Total_Recovered": 1791, "Date": 1590262360000}},
{"type": "Feature", "geometry": {"type": "Point", "coordinates": [-8.1524038, 53.1789661]}, "properties": {"OBJECTID": 6, "NUTS": "IE", "NAME": "\u00c9ire", "POPULATION": 4799521, "MALES": 2372716, "FEMALES": 2426805, "HOUSEHOLDS": 1755035, "PERS_HH": 2.7, "POP_GROWTH": 5, "POP_DENSIT": 69, "DWELLINGS": 2040772, "AGE_0_14": 1067121, "AGE_15_29": 818402, "AGE_30_44": 1113043, "AGE_45_59": 916839, "AGE_60_": 884116, "PP_CATEGOR": "18000 - 24000", "PP_GROWTH": "10 - 15", "GDP": 275827, "EMPLOYED": 2020000, "SQKM": 69117.91, "X": -8.15240381000399, "Y": 53.1789661360204, "Daily_New": 76, "Daily_Deaths": 12, "Daily_Recovered": 0, "Total_New": 24582, "Total_Deaths": 1604, "Total_Recovered": 21060, "Date": 1590262360000}},
{"type": "Feature", "geometry": {"type": "Point", "coordinates": [-4.5391489, 54.2276745]}, "properties": {"OBJECTID": 7, "NUTS": "IM", "NAME": "Isle of Man", "POPULATION": 84001, "MALES": null, "FEMALES": null, "HOUSEHOLDS": null, "PERS_HH": null, "POP_GROWTH": 1, "POP_DENSIT": 146, "DWELLINGS": null, "AGE_0_14": null, "AGE_15_29": null, "AGE_30_44": null, "AGE_45_59": null, "AGE_60_": null, "PP_CATEGOR": null, "PP_GROWTH": null, "GDP": null, "EMPLOYED": null, "SQKM": 567.47, "X": -4.53914886374859, "Y": 54.2276744922497, "Daily_New": 0, "Daily_Deaths": 0, "Daily_Recovered": 4, "Total_New": 335, "Total_Deaths": 24, "Total_Recovered": 300, "Date": 1589846400000}},
{"type": "Feature", "geometry": {"type": "Point", "coordinates": [-2.8948111, 54.1541736]}, "properties": {"OBJECTID": 8, "NUTS": "GB", "NAME": "United Kingdom", "POPULATION": 66066441, "MALES": 32346671, "FEMALES": 33719770, "HOUSEHOLDS": 28724540, "PERS_HH": 2.3, "POP_GROWTH": 4, "POP_DENSIT": 271, "DWELLINGS": 28210458, "AGE_0_14": 11443182, "AGE_15_29": 12428662, "AGE_30_44": 12603448, "AGE_45_59": 13047348, "AGE_60_": 16543801, "PP_CATEGOR": "18000 - 24000", "PP_GROWTH": "5 - 10", "GDP": 2358173, "EMPLOYED": 31640000, "SQKM": 241131.7, "X": -2.89481112382612, "Y": 54.1541735999536, "Daily_New": 2960, "Daily_Deaths": 282, "Daily_Recovered": 0, "Total_New": 258504, "Total_Deaths": 36757, "Total_Recovered": 1142, "Date": 1590262360000}},
{"type": "Feature", "geometry": {"type": "Point", "coordinates": [1.5754264, 42.5452991]}, "properties": {"OBJECTID": 9, "NUTS": "AD", "NAME": "Andorra", "POPULATION": 77894, "MALES": 39765, "FEMALES": 38129, "HOUSEHOLDS": 31158, "PERS_HH": 2.5, "POP_GROWTH": 2, "POP_DENSIT": 167, "DWELLINGS": null, "AGE_0_14": 11165, "AGE_15_29": 12235, "AGE_30_44": 19925, "AGE_45_59": 19365, "AGE_60_": 15204, "PP_CATEGOR": "12000 - 18000", "PP_GROWTH": null, "GDP": 2584, "EMPLOYED": 37000, "SQKM": 467.76, "X": 1.57542642811043, "Y": 42.5452991141835, "Daily_New": 0, "Daily_Deaths": 0, "Daily_Recovered": 1, "Total_New": 762, "Total_Deaths": 51, "Total_Recovered": 653, "Date": 1590262360000}},
{"type": "Feature", "geometry": {"type": "Point", "coordinates": [-2.1334049, 49.213738]}, "properties": {"OBJECTID": 10, "NUTS": "JE", "NAME": "Jersey", "POPULATION": 104700, "MALES": null, "FEMALES": null, "HOUSEHOLDS": null, "PERS_HH": null, "POP_GROWTH": 6, "POP_DENSIT": 844, "DWELLINGS": null, "AGE_0_14": null, "AGE_15_29": null, "AGE_30_44": null, "AGE_45_59": null, "AGE_60_": null, "PP_CATEGOR": null, "PP_GROWTH": null, "GDP": null, "EMPLOYED": null, "SQKM": 122.72, "X": -2.13340489391502, "Y": 49.2137380140385, "Daily_New": 0, "Daily_Deaths": 0, "Daily_Recovered": 0, "Total_New": 302, "Total_Deaths": 27, "Total_Recovered": 226, "Date": 1589846400000}},
{"type": "Feature", "geometry": {"type": "Point", "coordinates": [2.5534085, 46.5583989]}, "properties": {"OBJECTID": 11, "NUTS": "FR", "NAME": "France", "POPULATION": 65062480, "MALES": 31533703, "FEMALES": 33528777, "HOUSEHOLDS": 28503689, "PERS_HH": 2.3, "POP_GROWTH": 2, "POP_DENSIT": 118, "DWELLINGS": 33841374, "AGE_0_14": 11870513, "AGE_15_29": 11497399, "AGE_30_44": 12383433, "AGE_45_59": 12942220, "AGE_60_": 16368915, "PP_CATEGOR": "18000 - 24000", "PP_GROWTH": "0 - 5", "GDP": 2228700, "EMPLOYED": 26583000, "SQKM": 545481.42, "X": 2.55340852461895, "Y": 46.5583988960277, "Daily_New": 3, "Daily_Deaths": 0, "Daily_Recovered": 0, "Total_New": 182018, "Total_Deaths": 28218, "Total_Recovered": 63986, "Date": 1590262360000}},
{"type": "Feature", "geometry": {"type": "Point", "coordinates": [12.076414, 42.7947047]}, "properties": {"OBJECTID": 12, "NUTS": "IT", "NAME": "Italia", "POPULATION": 60656294, "MALES": 29478211, "FEMALES": 31178083, "HOUSEHOLDS": 25778257, "PERS_HH": 2.4, "POP_GROWTH": 2, "POP_DENSIT": 201, "DWELLINGS": 29373755, "AGE_0_14": 8191746, "AGE_15_29": 9155012, "AGE_30_44": 12091854, "AGE_45_59": 13965518, "AGE_60_": 17252164, "PP_CATEGOR": "12000 - 18000", "PP_GROWTH": "5 - 10", "GDP": 1659242, "EMPLOYED": 22758000, "SQKM": 301911.79, "X": 12.0764139680355, "Y": 42.7947046575621, "Daily_New": 669, "Daily_Deaths": 119, "Daily_Recovered": 2120, "Total_New": 229327, "Total_Deaths": 32735, "Total_Recovered": 138840, "Date": 1590192000000}},
{"type": "Feature", "geometry": {"type": "Point", "coordinates": [12.5582288, 41.8174095]}, "properties": {"OBJECTID": 13, "NUTS": "VA", "NAME": "Citt\u00e0 del Vaticano", "POPULATION": 1000, "MALES": null, "FEMALES": null, "HOUSEHOLDS": null, "PERS_HH": null, "POP_GROWTH": null, "POP_DENSIT": 908, "DWELLINGS": null, "AGE_0_14": null, "AGE_15_29": null, "AGE_30_44": null, "AGE_45_59": null, "AGE_60_": null, "PP_CATEGOR": null, "PP_GROWTH": null, "GDP": null, "EMPLOYED": null, "SQKM": 1.1, "X": 12.5582287918677, "Y": 41.8174095278986, "Daily_New": 0, "Daily_Deaths": 0, "Daily_Recovered": 0, "Total_New": 12, "Total_Deaths": 0, "Total_Recovered": 2, "Date": 1590262360000}},
{"type": "Feature", "geometry": {"type": "Point", "coordinates": [7.4234021, 43.7366978]}, "properties": {"OBJECTID": 14, "NUTS": "MC", "NAME": "Monaco", "POPULATION": 37453, "MALES": 18220, "FEMALES": 19233, "HOUSEHOLDS": 17750, "PERS_HH": 2.1, "POP_GROWTH": 1, "POP_DENSIT": 18182, "DWELLINGS": 23452, "AGE_0_14": 4886, "AGE_15_29": 4869, "AGE_30_44": 7370, "AGE_45_59": 8143, "AGE_60_": 12185, "PP_CATEGOR": "30000 and more", "PP_GROWTH": null, "GDP": 5763, "EMPLOYED": 52000, "SQKM": 2.06, "X": 7.42340209851802, "Y": 43.7366978213223, "Daily_New": 0, "Daily_Deaths": 0, "Daily_Recovered": 0, "Total_New": 97, "Total_Deaths": 4, "Total_Recovered": 90, "Date": 1590262360000}},
{"type": "Feature", "geometry": {"type": "Point", "coordinates": [6.0923914, 49.7768275]}, "properties": {"OBJECTID": 15, "NUTS": "LU", "NAME": "Luxembourg", "POPULATION": 595749, "MALES": 299193, "FEMALES": 296556, "HOUSEHOLDS": 239468, "PERS_HH": 2.5, "POP_GROWTH": 12, "POP_DENSIT": 230, "DWELLINGS": 237760, "AGE_0_14": 96748, "AGE_15_29": 114429, "AGE_30_44": 137105, "AGE_45_59": 130929, "AGE_60_": 116538, "PP_CATEGOR": "30000 and more", "PP_GROWTH": "5 - 10", "GDP": 54622, "EMPLOYED": 260000, "SQKM": 2564.93, "X": 6.09239140514421, "Y": 49.7768275089937, "Daily_New": 9, "Daily_Deaths": 0, "Daily_Recovered": 10, "Total_New": 3990, "Total_Deaths": 109, "Total_Recovered": 3758, "Date": 1590262360000}},
{"type": "Feature", "geometry": {"type": "Point", "coordinates": [8.2311929, 46.8013502]}, "properties": {"OBJECTID": 16, "NUTS": "CH", "NAME": "Schweiz", "POPULATION": 8437512, "MALES": 4182251, "FEMALES": 4255261, "HOUSEHOLDS": 3769422, "PERS_HH": 2.2, "POP_GROWTH": 6, "POP_DENSIT": 204, "DWELLINGS": 4433349, "AGE_0_14": 1256345, "AGE_15_29": 1503843, "AGE_30_44": 1774552, "AGE_45_59": 1893889, "AGE_60_": 2008883, "PP_CATEGOR": "30000 and more", "PP_GROWTH": "10 - 15", "GDP": 593873, "EMPLOYED": 4677000, "SQKM": 41015.5, "X": 8.2311928867469, "Y": 46.8013502356854, "Daily_New": 18, "Daily_Deaths": 2, "Daily_Recovered": 100, "Total_New": 30725, "Total_Deaths": 1905, "Total_Recovered": 28000, "Date": 1590262360000}},
{"type": "Feature", "geometry": {"type": "Point", "coordinates": [9.5528775, 47.1412291]}, "properties": {"OBJECTID": 17, "NUTS": "LI", "NAME": "Liechtenstein", "POPULATION": 38022, "MALES": 18858, "FEMALES": 19164, "HOUSEHOLDS": 16264, "PERS_HH": 2.3, "POP_GROWTH": 3, "POP_DENSIT": 237, "DWELLINGS": null, "AGE_0_14": 5670, "AGE_15_29": 6723, "AGE_30_44": 7622, "AGE_45_59": 9361, "AGE_60_": 8646, "PP_CATEGOR": "30000 and more", "PP_GROWTH": null, "GDP": 5767, "EMPLOYED": 19000, "SQKM": 159.17, "X": 9.55287752632673, "Y": 47.1412290827601, "Daily_New": 0, "Daily_Deaths": 0, "Daily_Recovered": 0, "Total_New": 82, "Total_Deaths": 1, "Total_Recovered": 55, "Date": 1590262360000}},
{"type": "Feature", "geometry": {"type": "Point", "coordinates": [12.4633723, 43.9383115]}, "properties": {"OBJECTID": 18, "NUTS": "SM", "NAME": "San Marino", "POPULATION": 33164, "MALES": 16337, "FEMALES": 16827, "HOUSEHOLDS": 14183, "PERS_HH": 2.3, "POP_GROWTH": 3, "POP_DENSIT": 544, "DWELLINGS": null, "AGE_0_14": 4864, "AGE_15_29": 4765, "AGE_30_44": 6820, "AGE_45_59": 8347, "AGE_60_": 8368, "PP_CATEGOR": "18000 - 24000", "PP_GROWTH": null, "GDP": 1439, "EMPLOYED": 22000, "SQKM": 60.87, "X": 12.4633722715665, "Y": 43.9383115107539, "Daily_New": 4, "Daily_Deaths": 1, "Daily_Recovered": 12, "Total_New": 665, "Total_Deaths": 42, "Total_Recovered": 266, "Date": 1590262360000}},
{"type": "Feature", "geometry": {"type": "Point", "coordinates": [14.1412737, 47.5870735]}, "properties": {"OBJECTID": 19, "NUTS": "AT", "NAME": "Austria", "POPULATION": 8807573, "MALES": 4329069, "FEMALES": 4478504, "HOUSEHOLDS": 3874189, "PERS_HH": 2.3, "POP_GROWTH": 4, "POP_DENSIT": 105, "DWELLINGS": 4657978, "AGE_0_14": 1266414, "AGE_15_29": 1611633, "AGE_30_44": 1761104, "AGE_45_59": 2030254, "AGE_60_": 2138168, "PP_CATEGOR": "18000 - 24000", "PP_GROWTH": "5 - 10", "GDP": 346895, "EMPLOYED": 4220000, "SQKM": 83151.2, "X": 14.1412737440868, "Y": 47.5870734654419, "Daily_New": 47, "Daily_Deaths": 1, "Daily_Recovered": 32, "Total_New": 16453, "Total_Deaths": 606, "Total_Recovered": 15037, "Date": 1590235200000}},
{"type": "Feature", "geometry": {"type": "Point", "coordinates": [4.6611376, 50.6410527]}, "properties": {"OBJECTID": 20, "NUTS": "BE", "NAME": "Belgique-Belgi\u00eb", "POPULATION": 11421640, "MALES": 5616973, "FEMALES": 5804667, "HOUSEHOLDS": 4888126, "PERS_HH": 2.3, "POP_GROWTH": 3, "POP_DENSIT": 373, "DWELLINGS": 5089813, "AGE_0_14": 1937127, "AGE_15_29": 2058421, "AGE_30_44": 2223412, "AGE_45_59": 2396711, "AGE_60_": 2805969, "PP_CATEGOR": "18000 - 24000", "PP_GROWTH": "0 - 5", "GDP": 421129, "EMPLOYED": 4587000, "SQKM": 30270.96, "X": 4.66113760886192, "Y": 50.641052698408, "Daily_New": 27, "Daily_Deaths": 15, "Daily_Recovered": 27, "Total_New": 54492, "Total_Deaths": 9108, "Total_Recovered": 14687, "Date": 1589673600000}},
{"type": "Feature", "geometry": {"type": "Point", "coordinates": [5.6149061, 52.2476092]}, "properties": {"OBJECTID": 21, "NUTS": "NL", "NAME": "Nederland", "POPULATION": 17143505, "MALES": 8505842, "FEMALES": 8637663, "HOUSEHOLDS": 7770811, "PERS_HH": 2.2, "POP_GROWTH": 2, "POP_DENSIT": 490, "DWELLINGS": 7659748, "AGE_0_14": 2791920, "AGE_15_29": 3203380, "AGE_30_44": 3135648, "AGE_45_59": 3769403, "AGE_60_": 4243154, "PP_CATEGOR": "18000 - 24000", "PP_GROWTH": "5 - 10", "GDP": 689609, "EMPLOYED": 7406200, "SQKM": 34558.91, "X": 5.61490606489724, "Y": 52.2476091920824, "Daily_New": -219, "Daily_Deaths": -3, "Daily_Recovered": 0, "Total_New": 43776, "Total_Deaths": 5677, "Total_Recovered": 250, "Date": 1589760000000}},
{"type": "Feature", "geometry": {"type": "Point", "coordinates": [10.3909761, 51.1092212]}, "properties": {"OBJECTID": 22, "NUTS": "DE", "NAME": "Deutschland", "POPULATION": 82956079, "MALES": 40865069, "FEMALES": 42091010, "HOUSEHOLDS": 41458833, "PERS_HH": 2, "POP_GROWTH": 3, "POP_DENSIT": 232, "DWELLINGS": 42090376, "AGE_0_14": 11025993, "AGE_15_29": 14408398, "AGE_30_44": 15132927, "AGE_45_59": 19618137, "AGE_60_": 22770624, "PP_CATEGOR": "18000 - 24000", "PP_GROWTH": "5 - 10", "GDP": 3130301, "EMPLOYED": 43458100, "SQKM": 353119.8, "X": 10.3909760629832, "Y": 51.1092211775134, "Daily_New": 431, "Daily_Deaths": 31, "Daily_Recovered": null, "Total_New": 178281, "Total_Deaths": 8247, "Total_Recovered": null, "Date": 1590278400000}},
{"type": "Feature", "geometry": {"type": "Point", "coordinates": [10.0531457, 55.9591677]}, "properties": {"OBJECTID": 23, "NUTS": "DK", "NAME": "Danmark", "POPULATION": 5776036, "MALES": 2873837, "FEMALES": 2902199, "HOUSEHOLDS": 2682723, "PERS_HH": 2.2, "POP_GROWTH": 3, "POP_DENSIT": 134, "DWELLINGS": 2815548, "AGE_0_14": 963945, "AGE_15_29": 1122200, "AGE_30_44": 1063321, "AGE_45_59": 1181835, "AGE_60_": 1444735, "PP_CATEGOR": "18000 - 24000", "PP_GROWTH": "5 - 10", "GDP": 271076, "EMPLOYED": 2840000, "SQKM": 42540.12, "X": 10.053145681457, "Y": 55.959167718562, "Daily_New": 59, "Daily_Deaths": 0, "Daily_Recovered": 72, "Total_New": 11487, "Total_Deaths": 561, "Total_Recovered": 10034, "Date": 1590262360000}},
{"type": "Feature", "geometry": {"type": "Point", "coordinates": [14.4000205, 35.9225569]}, "properties": {"OBJECTID": 24, "NUTS": "MT", "NAME": "Malta", "POPULATION": 441223, "MALES": 219684, "FEMALES": 221539, "HOUSEHOLDS": 155050, "PERS_HH": 2.8, "POP_GROWTH": 5, "POP_DENSIT": 1394, "DWELLINGS": 230229, "AGE_0_14": 61766, "AGE_15_29": 85024, "AGE_30_44": 91804, "AGE_45_59": 83875, "AGE_60_": 118754, "PP_CATEGOR": "12000 - 18000", "PP_GROWTH": "20 - 25", "GDP": 9372, "EMPLOYED": 191000, "SQKM": 323.23, "X": 14.4000205135503, "Y": 35.9225569117622, "Daily_New": 9, "Daily_Deaths": 0, "Daily_Recovered": 4, "Total_New": 609, "Total_Deaths": 6, "Total_Recovered": 473, "Date": 1590262360000}},
{"type": "Feature", "geometry": {"type": "Point", "coordinates": [20.064554, 41.139731]}, "properties": {"OBJECTID": 25, "NUTS": "AL", "NAME": "Shqip\u00ebri", "POPULATION": 2853495, "MALES": 1441817, "FEMALES": 1411678, "HOUSEHOLDS": 736025, "PERS_HH": 3.9, "POP_GROWTH": 1, "POP_DENSIT": 99, "DWELLINGS": 1022046, "AGE_0_14": 517917, "AGE_15_29": 699664, "AGE_30_44": 515886, "AGE_45_59": 581747, "AGE_60_": 538281, "PP_CATEGOR": "below 3000", "PP_GROWTH": "20 - 25", "GDP": 10951, "EMPLOYED": 1021800, "SQKM": 28908.85, "X": 20.064553985499, "Y": 41.1397310258254, "Daily_New": 8, "Daily_Deaths": 0, "Daily_Recovered": 6, "Total_New": 989, "Total_Deaths": 31, "Total_Recovered": 783, "Date": 1590262360000}},
{"type": "Feature", "geometry": {"type": "Point", "coordinates": [20.8906803, 42.5813351]}, "properties": {"OBJECTID": 26, "NUTS": "XK", "NAME": "Kosovo", "POPULATION": 1748321, "MALES": 870483, "FEMALES": 877838, "HOUSEHOLDS": 298541, "PERS_HH": 5.9, "POP_GROWTH": -3, "POP_DENSIT": 160, "DWELLINGS": 409208, "AGE_0_14": 489958, "AGE_15_29": 480000, "AGE_30_44": 365372, "AGE_45_59": 242330, "AGE_60_": 170661, "PP_CATEGOR": "below 3000", "PP_GROWTH": "25 - 30", "GDP": 6015, "EMPLOYED": 334100, "SQKM": 10923.28, "X": 20.8906803285553, "Y": 42.5813351148492, "Daily_New": 1, "Daily_Deaths": 0, "Daily_Recovered": 0, "Total_New": 164, "Total_Deaths": 736, "Total_Recovered": 29, "Date": 1589238000000}},
{"type": "Feature", "geometry": {"type": "Point", "coordinates": [21.7008137, 41.6004459]}, "properties": {"OBJECTID": 27, "NUTS": "MK", "NAME": "Makedonija", "POPULATION": 2075061, "MALES": 1039395, "FEMALES": 1035666, "HOUSEHOLDS": 565006, "PERS_HH": 3.7, "POP_GROWTH": 1, "POP_DENSIT": 82, "DWELLINGS": 701771, "AGE_0_14": 344578, "AGE_15_29": 436928, "AGE_30_44": 471300, "AGE_45_59": 425264, "AGE_60_": 396991, "PP_CATEGOR": "3000 - 6000", "PP_GROWTH": "15 - 20", "GDP": 9396, "EMPLOYED": 724000, "SQKM": 25536.39, "X": 21.7008136783589, "Y": 41.6004459155589, "Daily_New": 20, "Daily_Deaths": 1, "Daily_Recovered": 24, "Total_New": 1941, "Total_Deaths": 113, "Total_Recovered": 1411, "Date": 1590262360000}},
{"type": "Feature", "geometry": {"type": "Point", "coordinates": [14.8216816, 46.1194672]}, "properties": {"OBJECTID": 28, "NUTS": "SI", "NAME": "Slovenija", "POPULATION": 2066977, "MALES": 1025659, "FEMALES": 1041318, "HOUSEHOLDS": 822173, "PERS_HH": 2.5, "POP_GROWTH": 0, "POP_DENSIT": 102, "DWELLINGS": 846827, "AGE_0_14": 308771, "AGE_15_29": 319851, "AGE_30_44": 450463, "AGE_45_59": 450698, "AGE_60_": 537194, "PP_CATEGOR": "6000 - 12000", "PP_GROWTH": "5 - 10", "GDP": 39519, "EMPLOYED": 822500, "SQKM": 20136.71, "X": 14.8216815909932, "Y": 46.1194672400792, "Daily_New": 0, "Daily_Deaths": 0, "Daily_Recovered": 0, "Total_New": 1468, "Total_Deaths": 106, "Total_Recovered": 1340, "Date": 1590262360000}},
{"type": "Feature", "geometry": {"type": "Point", "coordinates": [17.786147, 44.1686217]}, "properties": {"OBJECTID": 29, "NUTS": "BA", "NAME": "Bosne i Hercegovine", "POPULATION": 3504564, "MALES": 1716880, "FEMALES": 1787684, "HOUSEHOLDS": 1166430, "PERS_HH": 3, "POP_GROWTH": -2, "POP_DENSIT": 68, "DWELLINGS": 1604291, "AGE_0_14": 589719, "AGE_15_29": 700521, "AGE_30_44": 737076, "AGE_45_59": 775912, "AGE_60_": 701336, "PP_CATEGOR": "3000 - 6000", "PP_GROWTH": "10 - 15", "GDP": 14803, "EMPLOYED": 801000, "SQKM": 51091.18, "X": 17.7861469783082, "Y": 44.1686216850906, "Daily_New": 19, "Daily_Deaths": 0, "Daily_Recovered": 48, "Total_New": 2391, "Total_Deaths": 141, "Total_Recovered": 1662, "Date": 1590262360000}},
{"type": "Feature", "geometry": {"type": "Point", "coordinates": [16.4018458, 45.0374463]}, "properties": {"OBJECTID": 30, "NUTS": "HR", "NAME": "Hrvatska", "POPULATION": 4143038, "MALES": 1999356, "FEMALES": 2143682, "HOUSEHOLDS": 1458282, "PERS_HH": 2.8, "POP_GROWTH": -3, "POP_DENSIT": 73, "DWELLINGS": 2220148, "AGE_0_14": 607194, "AGE_15_29": 735126, "AGE_30_44": 842162, "AGE_45_59": 883893, "AGE_60_": 1074663, "PP_CATEGOR": "6000 - 12000", "PP_GROWTH": "10 - 15", "GDP": 45250, "EMPLOYED": 1589800, "SQKM": 56354.84, "X": 16.4018457895643, "Y": 45.03744634777, "Daily_New": 0, "Daily_Deaths": 0, "Daily_Recovered": 0, "Total_New": 3713, "Total_Deaths": 482, "Total_Recovered": 1655, "Date": 1590262360000}},
{"type": "Feature", "geometry": {"type": "Point", "coordinates": [15.33151, 49.739089]}, "properties": {"OBJECTID": 31, "NUTS": "CZ", "NAME": "Czechia", "POPULATION": 10592053, "MALES": 5207171, "FEMALES": 5384882, "HOUSEHOLDS": 4453920, "PERS_HH": 2.4, "POP_GROWTH": 1, "POP_DENSIT": 134, "DWELLINGS": 4792107, "AGE_0_14": 1649380, "AGE_15_29": 1700008, "AGE_30_44": 2496738, "AGE_45_59": 2041740, "AGE_60_": 2704187, "PP_CATEGOR": "6000 - 12000", "PP_GROWTH": "5 - 10", "GDP": 173536, "EMPLOYED": 5139000, "SQKM": 77934.2, "X": 15.3315100202733, "Y": 49.739089011489, "Daily_New": 40, "Daily_Deaths": 2, "Daily_Recovered": 13, "Total_New": 8853, "Total_Deaths": 314, "Total_Recovered": 6038, "Date": 1590262360000}},
{"type": "Feature", "geometry": {"type": "Point", "coordinates": [19.2487042, 42.7848844]}, "properties": {"OBJECTID": 32, "NUTS": "ME", "NAME": "Crna Gora", "POPULATION": 622625, "MALES": 307870, "FEMALES": 314755, "HOUSEHOLDS": 195611, "PERS_HH": 3.2, "POP_GROWTH": 0, "POP_DENSIT": 45, "DWELLINGS": 316745, "AGE_0_14": 113345, "AGE_15_29": 123065, "AGE_30_44": 132214, "AGE_45_59": 124055, "AGE_60_": 129946, "PP_CATEGOR": "3000 - 6000", "PP_GROWTH": "15 - 20", "GDP": 3812, "EMPLOYED": 224000, "SQKM": 13967.31, "X": 19.2487041873472, "Y": 42.78488440201, "Daily_New": 0, "Daily_Deaths": 0, "Daily_Recovered": 0, "Total_New": 324, "Total_Deaths": 9, "Total_Recovered": 314, "Date": 1590262360000}},
{"type": "Feature", "geometry": {"type": "Point", "coordinates": [20.794226, 44.230634]}, "properties": {"OBJECTID": 33, "NUTS": "RS", "NAME": "Srbija", "POPULATION": 7036033, "MALES": 3426775, "FEMALES": 3609258, "HOUSEHOLDS": 2435673, "PERS_HH": 2.9, "POP_GROWTH": -2, "POP_DENSIT": 91, "DWELLINGS": 2981307, "AGE_0_14": 1013369, "AGE_15_29": 1267475, "AGE_30_44": 1398749, "AGE_45_59": 1450744, "AGE_60_": 1905696, "PP_CATEGOR": "3000 - 6000", "PP_GROWTH": "10 - 15", "GDP": 33701, "EMPLOYED": 2719000, "SQKM": 77234.27, "X": 20.794225961826, "Y": 44.2306340045673, "Daily_New": 68, "Daily_Deaths": 1, "Daily_Recovered": 158, "Total_New": 11092, "Total_Deaths": 238, "Total_Recovered": 5699, "Date": 1590262360000}},
{"type": "Feature", "geometry": {"type": "Point", "coordinates": [19.4121914, 47.1653016]}, "properties": {"OBJECTID": 34, "NUTS": "HU", "NAME": "Magyarorsz\u00e1g", "POPULATION": 9810563, "MALES": 4674474, "FEMALES": 5136089, "HOUSEHOLDS": 4138818, "PERS_HH": 2.4, "POP_GROWTH": -1, "POP_DENSIT": 106, "DWELLINGS": 4426273, "AGE_0_14": 1421453, "AGE_15_29": 1752269, "AGE_30_44": 2221372, "AGE_45_59": 1955276, "AGE_60_": 2460193, "PP_CATEGOR": "6000 - 12000", "PP_GROWTH": "15 - 20", "GDP": 112729, "EMPLOYED": 4352000, "SQKM": 92214.1, "X": 19.4121913799337, "Y": 47.1653015772492, "Daily_New": 0, "Daily_Deaths": 0, "Daily_Recovered": 0, "Total_New": 3713, "Total_Deaths": 482, "Total_Recovered": 1655, "Date": 1590262360000}},
{"type": "Feature", "geometry": {"type": "Point", "coordinates": [19.4848262, 48.7075352]}, "properties": {"OBJECTID": 35, "NUTS": "SK", "NAME": "Slovensko", "POPULATION": 5439356, "MALES": 2653623, "FEMALES": 2785733, "HOUSEHOLDS": 2206473, "PERS_HH": 2.5, "POP_GROWTH": 1, "POP_DENSIT": 111, "DWELLINGS": 2140112, "AGE_0_14": 840897, "AGE_15_29": 1008109, "AGE_30_44": 1321397, "AGE_45_59": 1086866, "AGE_60_": 1182087, "PP_CATEGOR": "6000 - 12000", "PP_GROWTH": "15 - 20", "GDP": 80848, "EMPLOYED": 2492000, "SQKM": 48496.23, "X": 19.4848261969537, "Y": 48.7075352381791, "Daily_New": 1, "Daily_Deaths": 0, "Daily_Recovered": 24, "Total_New": 1504, "Total_Deaths": 28, "Total_Recovered": 1280, "Date": 1590262360000}},
{"type": "Feature", "geometry": {"type": "Point", "coordinates": [22.9853282, 39.042758]}, "properties": {"OBJECTID": 36, "NUTS": "GR", "NAME": "Ell\u00e1s", "POPULATION": 10705682, "MALES": 5186507, "FEMALES": 5519175, "HOUSEHOLDS": 4034798, "PERS_HH": 2.7, "POP_GROWTH": -3, "POP_DENSIT": 81, "DWELLINGS": 6268213, "AGE_0_14": 1545575, "AGE_15_29": 1674392, "AGE_30_44": 2308931, "AGE_45_59": 2260358, "AGE_60_": 2916426, "PP_CATEGOR": "6000 - 12000", "PP_GROWTH": "below 0", "GDP": 175444, "EMPLOYED": 3674000, "SQKM": 133923.92, "X": 22.9853282071817, "Y": 39.0427579821916, "Daily_New": 2, "Daily_Deaths": 2, "Daily_Recovered": 0, "Total_New": 2876, "Total_Deaths": 171, "Total_Recovered": 1374, "Date": 1590262360000}},
{"type": "Feature", "geometry": {"type": "Point", "coordinates": [25.235253, 42.757483]}, "properties": {"OBJECTID": 37, "NUTS": "BG", "NAME": "Bulgaria", "POPULATION": 7082933, "MALES": 3440738, "FEMALES": 3642195, "HOUSEHOLDS": 2890645, "PERS_HH": 2.5, "POP_GROWTH": -3, "POP_DENSIT": 64, "DWELLINGS": 3917393, "AGE_0_14": 998433, "AGE_15_29": 1122375, "AGE_30_44": 1534455, "AGE_45_59": 1467974, "AGE_60_": 1959696, "PP_CATEGOR": "3000 - 6000", "PP_GROWTH": "15 - 20", "GDP": 45169, "EMPLOYED": 3017000, "SQKM": 111069.57, "X": 25.2352529559222, "Y": 42.7574829532902, "Daily_New": 0, "Daily_Deaths": 0, "Daily_Recovered": 0, "Total_New": 2408, "Total_Deaths": 126, "Total_Recovered": 808, "Date": 1590262360000}},
{"type": "Feature", "geometry": {"type": "Point", "coordinates": [24.9848006, 45.8391103]}, "properties": {"OBJECTID": 38, "NUTS": "RO", "NAME": "Rom\u00e2nia", "POPULATION": 19573520, "MALES": 9552014, "FEMALES": 10021506, "HOUSEHOLDS": 7122409, "PERS_HH": 2.7, "POP_GROWTH": -2, "POP_DENSIT": 82, "DWELLINGS": 8773633, "AGE_0_14": 2887064, "AGE_15_29": 3520898, "AGE_30_44": 4730497, "AGE_45_59": 4041443, "AGE_60_": 4393618, "PP_CATEGOR": "3000 - 6000", "PP_GROWTH": "30 - 35", "GDP": 167738, "EMPLOYED": 8449000, "SQKM": 236936.03, "X": 24.9848005770116, "Y": 45.8391102924367, "Daily_New": 144, "Daily_Deaths": 17, "Daily_Recovered": 334, "Total_New": 17822, "Total_Deaths": 858, "Total_Recovered": 5788, "Date": 1590323436000}},
{"type": "Feature", "geometry": {"type": "Point", "coordinates": [28.464646, 47.2015004]}, "properties": {"OBJECTID": 39, "NUTS": "MD", "NAME": "Moldova", "POPULATION": 3330171, "MALES": 1601253, "FEMALES": 1728918, "HOUSEHOLDS": 1214675, "PERS_HH": 2.7, "POP_GROWTH": -1, "POP_DENSIT": 98, "DWELLINGS": 1277709, "AGE_0_14": 531731, "AGE_15_29": 753030, "AGE_30_44": 806754, "AGE_45_59": 666708, "AGE_60_": 571948, "PP_CATEGOR": "below 3000", "PP_GROWTH": "15 - 20", "GDP": 6023, "EMPLOYED": 1238000, "SQKM": 33537.19, "X": 28.4646459774069, "Y": 47.2015004438785, "Daily_New": 147, "Daily_Deaths": 5, "Daily_Recovered": 83, "Total_New": 6994, "Total_Deaths": 242, "Total_Recovered": 3452, "Date": 1590262360000}},
{"type": "Feature", "geometry": {"type": "Point", "coordinates": [19.4002233, 52.1269029]}, "properties": {"OBJECTID": 40, "NUTS": "PL", "NAME": "Polska", "POPULATION": 37967784, "MALES": 18368106, "FEMALES": 19599678, "HOUSEHOLDS": 14217355, "PERS_HH": 2.7, "POP_GROWTH": 0, "POP_DENSIT": 122, "DWELLINGS": 14112576, "AGE_0_14": 5703961, "AGE_15_29": 6897567, "AGE_30_44": 9051775, "AGE_45_59": 7369409, "AGE_60_": 8945072, "PP_CATEGOR": "6000 - 12000", "PP_GROWTH": "10 - 15", "GDP": 423790, "EMPLOYED": 16197000, "SQKM": 308190.44, "X": 19.4002232776685, "Y": 52.1269028911954, "Daily_New": 219, "Daily_Deaths": 8, "Daily_Recovered": 0, "Total_New": 20838, "Total_Deaths": 990, "Total_Recovered": 9022, "Date": 1590251156000}},
{"type": "Feature", "geometry": {"type": "Point", "coordinates": [16.7582672, 62.7726904]}, "properties": {"OBJECTID": 41, "NUTS": "SE", "NAME": "Sverige", "POPULATION": 10035922, "MALES": 5033779, "FEMALES": 5002143, "HOUSEHOLDS": 4483322, "PERS_HH": 2.2, "POP_GROWTH": 5, "POP_DENSIT": 22, "DWELLINGS": 4853128, "AGE_0_14": 1768237, "AGE_15_29": 1889175, "AGE_30_44": 1914183, "AGE_45_59": 1914860, "AGE_60_": 2549467, "PP_CATEGOR": "18000 - 24000", "PP_GROWTH": "0 - 5", "GDP": 460624, "EMPLOYED": 4910000, "SQKM": 452297.01, "X": 16.7582672119352, "Y": 62.7726903920163, "Daily_New": 379, "Daily_Deaths": 67, "Daily_Recovered": 0, "Total_New": 33188, "Total_Deaths": 3992, "Total_Recovered": 4971, "Date": 1590262360000}},
{"type": "Feature", "geometry": {"type": "Point", "coordinates": [14.0761048, 64.458966]}, "properties": {"OBJECTID": 42, "NUTS": "NO", "NAME": "Norge", "POPULATION": 5279858, "MALES": 2659969, "FEMALES": 2619889, "HOUSEHOLDS": 2358419, "PERS_HH": 2.2, "POP_GROWTH": 5, "POP_DENSIT": 16, "DWELLINGS": 2514454, "AGE_0_14": 941569, "AGE_15_29": 1040515, "AGE_30_44": 1067479, "AGE_45_59": 1053568, "AGE_60_": 1176727, "PP_CATEGOR": "30000 and more", "PP_GROWTH": "below 0", "GDP": 341993, "EMPLOYED": 2638000, "SQKM": 327927.03, "X": 14.0761048031671, "Y": 64.458966009055, "Daily_New": 8, "Daily_Deaths": 0, "Daily_Recovered": 0, "Total_New": 8340, "Total_Deaths": 235, "Total_Recovered": 7727, "Date": 1590262360000}},
{"type": "Feature", "geometry": {"type": "Point", "coordinates": [23.8993718, 55.3370869]}, "properties": {"OBJECTID": 43, "NUTS": "LT", "NAME": "Lietuva", "POPULATION": 2833163, "MALES": 1305411, "FEMALES": 1527752, "HOUSEHOLDS": 1208187, "PERS_HH": 2.3, "POP_GROWTH": -5, "POP_DENSIT": 44, "DWELLINGS": 1399518, "AGE_0_14": 419900, "AGE_15_29": 526260, "AGE_30_44": 530302, "AGE_45_59": 636966, "AGE_60_": 719735, "PP_CATEGOR": "6000 - 12000", "PP_GROWTH": "30 - 35", "GDP": 38314, "EMPLOYED": 1361000, "SQKM": 64081.5, "X": 23.8993718369532, "Y": 55.3370868862222, "Daily_New": 12, "Daily_Deaths": 2, "Daily_Recovered": 24, "Total_New": 1616, "Total_Deaths": 63, "Total_Recovered": 1135, "Date": 1590262360000}},
{"type": "Feature", "geometry": {"type": "Point", "coordinates": [24.9278037, 56.8539419]}, "properties": {"OBJECTID": 44, "NUTS": "LV", "NAME": "Latvija", "POPULATION": 1946490, "MALES": 893993, "FEMALES": 1052497, "HOUSEHOLDS": 810596, "PERS_HH": 2.4, "POP_GROWTH": -4, "POP_DENSIT": 30, "DWELLINGS": 994561, "AGE_0_14": 303036, "AGE_15_29": 324835, "AGE_30_44": 395092, "AGE_45_59": 413176, "AGE_60_": 510351, "PP_CATEGOR": "6000 - 12000", "PP_GROWTH": "25 - 30", "GDP": 25030, "EMPLOYED": 893000, "SQKM": 63845.94, "X": 24.9278037439513, "Y": 56.8539419443189, "Daily_New": 16, "Daily_Deaths": 0, "Daily_Recovered": 0, "Total_New": 1046, "Total_Deaths": 22, "Total_Recovered": 712, "Date": 1590262360000}},
{"type": "Feature", "geometry": {"type": "Point", "coordinates": [28.0483551, 53.5424517]}, "properties": {"OBJECTID": 45, "NUTS": "BY", "NAME": "Belarus", "POPULATION": 9432738, "MALES": 4392961, "FEMALES": 5039777, "HOUSEHOLDS": 3844176, "PERS_HH": 2.5, "POP_GROWTH": 0, "POP_DENSIT": 46, "DWELLINGS": 3570704, "AGE_0_14": 1567293, "AGE_15_29": 1731826, "AGE_30_44": 2102672, "AGE_45_59": 2049500, "AGE_60_": 1981447, "PP_CATEGOR": "below 3000", "PP_GROWTH": "5 - 10", "GDP": 43377, "EMPLOYED": 4417530, "SQKM": 204823.97, "X": 28.0483551104059, "Y": 53.5424517085661, "Daily_New": 941, "Daily_Deaths": 4, "Daily_Recovered": 695, "Total_New": 35244, "Total_Deaths": 194, "Total_Recovered": 13528, "Date": 1590262360000}},
{"type": "Feature", "geometry": {"type": "Point", "coordinates": [25.4789024, 58.6692788]}, "properties": {"OBJECTID": 46, "NUTS": "EE", "NAME": "Eesti", "POPULATION": 1289221, "MALES": 605156, "FEMALES": 684065, "HOUSEHOLDS": 586532, "PERS_HH": 2.2, "POP_GROWTH": 0, "POP_DENSIT": 30, "DWELLINGS": 655954, "AGE_0_14": 209622, "AGE_15_29": 222049, "AGE_30_44": 270324, "AGE_45_59": 256259, "AGE_60_": 330967, "PP_CATEGOR": "6000 - 12000", "PP_GROWTH": "25 - 30", "GDP": 21027, "EMPLOYED": 645000, "SQKM": 43357.12, "X": 25.478902400071, "Y": 58.6692787859711, "Daily_New": 14, "Daily_Deaths": 0, "Daily_Recovered": 18, "Total_New": 1821, "Total_Deaths": 64, "Total_Recovered": 1526, "Date": 1590262360000}},
{"type": "Feature", "geometry": {"type": "Point", "coordinates": [26.2217554, 64.4692732]}, "properties": {"OBJECTID": 47, "NUTS": "FI", "NAME": "Finland", "POPULATION": 5513850, "MALES": 2717481, "FEMALES": 2796369, "HOUSEHOLDS": 2654866, "PERS_HH": 2.1, "POP_GROWTH": 2, "POP_DENSIT": 16, "DWELLINGS": 2663513, "AGE_0_14": 895793, "AGE_15_29": 983435, "AGE_30_44": 1030011, "AGE_45_59": 1080115, "AGE_60_": 1524496, "PP_CATEGOR": "18000 - 24000", "PP_GROWTH": "5 - 10", "GDP": 214165, "EMPLOYED": 2448300, "SQKM": 342027.71, "X": 26.2217554320002, "Y": 64.4692732007905, "Daily_New": 31, "Daily_Deaths": 0, "Daily_Recovered": 0, "Total_New": 6568, "Total_Deaths": 306, "Total_Recovered": 4800, "Date": 1590262360000}},
{"type": "Feature", "geometry": {"type": "Point", "coordinates": [33.2260674, 35.0501143]}, "properties": {"OBJECTID": 48, "NUTS": "CY", "NAME": "K\u00fdpros", "POPULATION": 855798, "MALES": 416348, "FEMALES": 439450, "HOUSEHOLDS": 313330, "PERS_HH": 2.7, "POP_GROWTH": -1, "POP_DENSIT": 92, "DWELLINGS": 437179, "AGE_0_14": 140834, "AGE_15_29": 189964, "AGE_30_44": 187039, "AGE_45_59": 162322, "AGE_60_": 175639, "PP_CATEGOR": "6000 - 12000", "PP_GROWTH": "below 0", "GDP": 17852, "EMPLOYED": 367000, "SQKM": 9502.41, "X": 33.2260674159499, "Y": 35.0501142705084, "Daily_New": 0, "Daily_Deaths": 0, "Daily_Recovered": 33, "Total_New": 927, "Total_Deaths": 17, "Total_Recovered": 594, "Date": 1590262360000}},
{"type": "Feature", "geometry": {"type": "Point", "coordinates": [35.173047, 39.0612484]}, "properties": {"OBJECTID": 49, "NUTS": "TR", "NAME": "T\u00fcrkiye", "POPULATION": 79960213, "MALES": 40116847, "FEMALES": 39843366, "HOUSEHOLDS": 22216563, "PERS_HH": 3.6, "POP_GROWTH": 6, "POP_DENSIT": 102, "DWELLINGS": 20163306, "AGE_0_14": 18962950, "AGE_15_29": 19272805, "AGE_30_44": 18469060, "AGE_45_59": 13242029, "AGE_60_": 10013369, "PP_CATEGOR": "3000 - 6000", "PP_GROWTH": "below 0", "GDP": 657276, "EMPLOYED": 27216000, "SQKM": 789491.11, "X": 35.1730470034427, "Y": 39.0612483691807, "Daily_New": 1186, "Daily_Deaths": 32, "Daily_Recovered": 1491, "Total_New": 155686, "Total_Deaths": 4308, "Total_Recovered": 117602, "Date": 1590262360000}},
{"type": "Feature", "geometry": {"type": "Point", "coordinates": [31.4035369, 49.0034726]}, "properties": {"OBJECTID": 50, "NUTS": "UA", "NAME": "Ukrajina", "POPULATION": 35837420, "MALES": 16642915, "FEMALES": 19194505, "HOUSEHOLDS": 13288192, "PERS_HH": 2.7, "POP_GROWTH": -2, "POP_DENSIT": 60, "DWELLINGS": 16828882, "AGE_0_14": 5641994, "AGE_15_29": 6799022, "AGE_30_44": 8192673, "AGE_45_59": 7488010, "AGE_60_": 7715721, "PP_CATEGOR": "below 3000", "PP_GROWTH": "below 0", "GDP": 70380, "EMPLOYED": 15245533, "SQKM": 594601.75, "X": 31.4035368672799, "Y": 49.0034726418027, "Daily_New": 432, "Daily_Deaths": 17, "Daily_Recovered": 344, "Total_New": 20580, "Total_Deaths": 605, "Total_Recovered": 6929, "Date": 1590218100000}},
{"type": "Feature", "geometry": {"type": "Point", "coordinates": [43.5059154, 42.180218]}, "properties": {"OBJECTID": 51, "NUTS": "GE", "NAME": "Georgia", "POPULATION": 3718648, "MALES": 1781715, "FEMALES": 1936933, "HOUSEHOLDS": 978592, "PERS_HH": 3.8, "POP_GROWTH": -7, "POP_DENSIT": 53, "DWELLINGS": null, "AGE_0_14": 724187, "AGE_15_29": 724187, "AGE_30_44": 763892, "AGE_45_59": 748690, "AGE_60_": 757692, "PP_CATEGOR": "below 3000", "PP_GROWTH": null, "GDP": 13393, "EMPLOYED": 1763000, "SQKM": 69786.25, "X": 43.5059154100271, "Y": 42.180218040175, "Daily_New": 5, "Daily_Deaths": 0, "Daily_Recovered": 14, "Total_New": 728, "Total_Deaths": 12, "Total_Recovered": 509, "Date": 1590262360000}},
{"type": "Feature", "geometry": {"type": "Point", "coordinates": [47.5241631, 40.2934023]}, "properties": {"OBJECTID": 52, "NUTS": "AZ", "NAME": "Azerbaijan", "POPULATION": 9849658, "MALES": 4910973, "FEMALES": 4938685, "HOUSEHOLDS": null, "PERS_HH": null, "POP_GROWTH": 6, "POP_DENSIT": 114, "DWELLINGS": null, "AGE_0_14": 2228774, "AGE_15_29": 2457595, "AGE_30_44": 2234095, "AGE_45_59": 1919930, "AGE_60_": 1009264, "PP_CATEGOR": "below 3000", "PP_GROWTH": null, "GDP": 101354, "EMPLOYED": 4760000, "SQKM": 86874.89, "X": 47.5241630666209, "Y": 40.2934022545904, "Daily_New": 127, "Daily_Deaths": 3, "Daily_Recovered": 107, "Total_New": 3982, "Total_Deaths": 49, "Total_Recovered": 2506, "Date": 1590262360000}},
{"type": "Feature", "geometry": {"type": "Point", "coordinates": [45.6383969, 59.2511857]}, "properties": {"OBJECTID": 53, "NUTS": "RU", "NAME": "Rossiya", "POPULATION": 105921971, "MALES": 48909093, "FEMALES": 57012878, "HOUSEHOLDS": 40010868, "PERS_HH": 2.6, "POP_GROWTH": 0, "POP_DENSIT": 27, "DWELLINGS": 28449454, "AGE_0_14": 17437425, "AGE_15_29": 19816171, "AGE_30_44": 24071621, "AGE_45_59": 22429921, "AGE_60_": 22166833, "PP_CATEGOR": "3000 - 6000", "PP_GROWTH": "below 0", "GDP": 814793, "EMPLOYED": 52197565, "SQKM": 3952803.97, "X": 45.638396922852, "Y": 59.2511856613697, "Daily_New": 9434, "Daily_Deaths": 139, "Daily_Recovered": 8111, "Total_New": 335882, "Total_Deaths": 3388, "Total_Recovered": 107936, "Date": 1590262360000}},
{"type": "Feature", "geometry": {"type": "Point", "coordinates": [34.7996032, 31.1799936]}, "properties": {"OBJECTID": 54, "NUTS": "IL", "NAME": "Israel", "POPULATION": null, "MALES": null, "FEMALES": null, "HOUSEHOLDS": null, "PERS_HH": null, "POP_GROWTH": null, "POP_DENSIT": null, "DWELLINGS": null, "AGE_0_14": null, "AGE_15_29": null, "AGE_30_44": null, "AGE_45_59": null, "AGE_60_": null, "PP_CATEGOR": null, "PP_GROWTH": null, "GDP": null, "EMPLOYED": null, "SQKM": null, "X": null, "Y": null, "Daily_New": 7, "Daily_Deaths": 1, "Daily_Recovered": 46, "Total_New": 16650, "Total_Deaths": 277, "Total_Recovered": 13299, "Date": 1589846400000}},
{"type": "Feature", "geometry": {"type": "Point", "coordinates": [35.3594017, 31.8012335]}, "properties": {"OBJECTID": 55, "NUTS": "PS", "NAME": "Palestinian Territory", "POPULATION": null, "MALES": null, "FEMALES": null, "HOUSEHOLDS": null, "PERS_HH": null, "POP_GROWTH": null, "POP_DENSIT": null, "DWELLINGS": null, "AGE_0_14": null, "AGE_15_29": null, "AGE_30_44": null, "AGE_45_59": null, "AGE_60_": null, "PP_CATEGOR": null, "PP_GROWTH": null, "GDP": null, "EMPLOYED": null, "SQKM": null, "X": null, "Y": null, "Daily_New": 0, "Daily_Deaths": 1, "Daily_Recovered": 0, "Total_New": 423, "Total_Deaths": 3, "Total_Recovered": 346, "Date": 1590262360000}}
]}