{"type":"FeatureCollection","features":[
{"type": "Feature", "geometry": {"type": "Point", "coordinates": [34.842933, 31.8408049]}, "properties": {"OBJECTID": 432525, "Municipality": 28, "Municipality_desc": "\u05de\u05d6\u05db\u05e8\u05ea \u05d1\u05ea\u05d9\u05d4", "Isolations": 70, "Total_Pop2017": 14949, "Iso_per_1000": 4}},
{"type": "Feature", "geometry": {"type": "Point", "coordinates": [34.6248918, 31.3069002]}, "properties": {"OBJECTID": 432526, "Municipality": 31, "Municipality_desc": "\u05d0\u05d5\u05e4\u05e7\u05d9\u05dd", "Isolations": 68, "Total_Pop2017": 30185, "Iso_per_1000": 2}},
{"type": "Feature", "geometry": {"type": "Point", "coordinates": [34.6572666, 31.8089036]}, "properties": {"OBJECTID": 432527, "Municipality": 70, "Municipality_desc": "\u05d0\u05e9\u05d3\u05d5\u05d3", "Isolations": 501, "Total_Pop2017": 225073, "Iso_per_1000": 2}},
{"type": "Feature", "geometry": {"type": "Point", "coordinates": [35.1686835, 32.7056277]}, "properties": {"OBJECTID": 432528, "Municipality": 122, "Municipality_desc": "\u05e8\u05de\u05ea \u05d9\u05e9\u05d9", "Isolations": 5, "Total_Pop2017": 7236, "Iso_per_1000": 0}},
{"type": "Feature", "geometry": {"type": "Point", "coordinates": [34.9057225, 32.2422428]}, "properties": {"OBJECTID": 432529, "Municipality": 154, "Municipality_desc": "\u05ea\u05dc \u05de\u05d5\u05e0\u05d3", "Isolations": 36, "Total_Pop2017": 12593, "Iso_per_1000": 2}},
{"type": "Feature", "geometry": {"type": "Point", "coordinates": [34.7026732, 31.7874688]}, "properties": {"OBJECTID": 432530, "Municipality": 166, "Municipality_desc": "\u05d2\u05df \u05d9\u05d1\u05e0\u05d4", "Isolations": 59, "Total_Pop2017": 22410, "Iso_per_1000": 2}},
{"type": "Feature", "geometry": {"type": "Point", "coordinates": [34.9272244, 32.3220082]}, "properties": {"OBJECTID": 432531, "Municipality": 168, "Municipality_desc": "\u05db\u05e4\u05e8 \u05d9\u05d5\u05e0\u05d4", "Isolations": 38, "Total_Pop2017": 21301, "Iso_per_1000": 1}},
{"type": "Feature", "geometry": {"type": "Point", "coordinates": [34.9091474, 32.3075915]}, "properties": {"OBJECTID": 432532, "Municipality": 171, "Municipality_desc": "\u05e4\u05e8\u05d3\u05e1\u05d9\u05d4", "Isolations": 8, "Total_Pop2017": 6027, "Iso_per_1000": 1}},
{"type": "Feature", "geometry": {"type": "Point", "coordinates": [34.88377, 32.2679549]}, "properties": {"OBJECTID": 432533, "Municipality": 182, "Municipality_desc": "\u05d0\u05d1\u05df \u05d9\u05d4\u05d5\u05d3\u05d4", "Isolations": 65, "Total_Pop2017": 13263, "Iso_per_1000": 4}},
{"type": "Feature", "geometry": {"type": "Point", "coordinates": [34.9130354, 32.2829329]}, "properties": {"OBJECTID": 432534, "Municipality": 195, "Municipality_desc": "\u05e7\u05d3\u05d9\u05de\u05d4-\u05e6\u05d5\u05e8\u05df", "Isolations": 44, "Total_Pop2017": 20831, "Iso_per_1000": 2}},
{"type": "Feature", "geometry": {"type": "Point", "coordinates": [34.8740369, 32.0621998]}, "properties": {"OBJECTID": 432535, "Municipality": 229, "Municipality_desc": "\u05d2\u05e0\u05d9 \u05ea\u05e7\u05d5\u05d5\u05d4", "Isolations": 51, "Total_Pop2017": 18930, "Iso_per_1000": 2}},
{"type": "Feature", "geometry": {"type": "Point", "coordinates": [35.0940454, 32.6497327]}, "properties": {"OBJECTID": 432536, "Municipality": 240, "Municipality_desc": "\u05d9\u05e7\u05e0\u05e2\u05dd \u05e2\u05d9\u05dc\u05d9\u05ea", "Isolations": 22, "Total_Pop2017": 22711, "Iso_per_1000": 0}},
{"type": "Feature", "geometry": {"type": "Point", "coordinates": [34.5863833, 31.4213389]}, "properties": {"OBJECTID": 432537, "Municipality": 246, "Municipality_desc": "\u05e0\u05ea\u05d9\u05d1\u05d5\u05ea", "Isolations": 62, "Total_Pop2017": 36511, "Iso_per_1000": 1}},
{"type": "Feature", "geometry": {"type": "Point", "coordinates": [34.8298252, 31.9996451]}, "properties": {"OBJECTID": 432538, "Municipality": 466, "Municipality_desc": "\u05d1\u05d9\u05ea \u05d3\u05d2\u05df", "Isolations": 22, "Total_Pop2017": 6533, "Iso_per_1000": 3}},
{"type": "Feature", "geometry": {"type": "Point", "coordinates": [34.8214802, 31.8617953]}, "properties": {"OBJECTID": 432539, "Municipality": 469, "Municipality_desc": "\u05e7\u05e8\u05d9\u05ea \u05e2\u05e7\u05e8\u05d5\u05df", "Isolations": 10, "Total_Pop2017": 10600, "Iso_per_1000": 0}},
{"type": "Feature", "geometry": {"type": "Point", "coordinates": [35.1084759, 31.8068607]}, "properties": {"OBJECTID": 432540, "Municipality": 472, "Municipality_desc": "\u05d0\u05d1\u05d5 \u05d2\u05d5\u05e9", "Isolations": 13, "Total_Pop2017": 7792, "Iso_per_1000": 1}},
{"type": "Feature", "geometry": {"type": "Point", "coordinates": [35.1616704, 32.9639159]}, "properties": {"OBJECTID": 432541, "Municipality": 473, "Municipality_desc": "\u05d0\u05d1\u05d5 \u05e1\u05e0\u05d0\u05df", "Isolations": 8, "Total_Pop2017": 13164, "Iso_per_1000": 0}},
{"type": "Feature", "geometry": {"type": "Point", "coordinates": [35.3306539, 32.6735469]}, "properties": {"OBJECTID": 432542, "Municipality": 478, "Municipality_desc": "\u05d0\u05db\u05e1\u05d0\u05dc", "Isolations": 5, "Total_Pop2017": 14655, "Iso_per_1000": 0}},
{"type": "Feature", "geometry": {"type": "Point", "coordinates": [35.3807043, 32.9656574]}, "properties": {"OBJECTID": 432543, "Municipality": 480, "Municipality_desc": "\u05d1\u05d9\u05ea \u05d2'\u05df", "Isolations": 2, "Total_Pop2017": 11757, "Iso_per_1000": 0}},
{"type": "Feature", "geometry": {"type": "Point", "coordinates": [35.4119844, 32.8751056]}, "properties": {"OBJECTID": 432544, "Municipality": 481, "Municipality_desc": "\u05de\u05d2\u05d0\u05e8", "Isolations": 10, "Total_Pop2017": 22364, "Iso_per_1000": 0}},
{"type": "Feature", "geometry": {"type": "Point", "coordinates": [35.3695084, 32.8119959]}, "properties": {"OBJECTID": 432545, "Municipality": 482, "Municipality_desc": "\u05d1\u05d5\u05e2\u05d9\u05d9\u05e0\u05d4-\u05e0\u05d5\u05d2'\u05d9\u05d3\u05d0\u05ea", "Isolations": 5, "Total_Pop2017": 9974, "Iso_per_1000": 0}},
{"type": "Feature", "geometry": {"type": "Point", "coordinates": [35.2813448, 32.929245]}, "properties": {"OBJECTID": 432546, "Municipality": 483, "Municipality_desc": "\u05d1\u05e2\u05e0\u05d4", "Isolations": 12, "Total_Pop2017": 8355, "Iso_per_1000": 1}},
{"type": "Feature", "geometry": {"type": "Point", "coordinates": [35.1811622, 32.9407903]}, "properties": {"OBJECTID": 432547, "Municipality": 485, "Municipality_desc": "\u05d2'\u05d5\u05dc\u05e1", "Isolations": 4, "Total_Pop2017": 6147, "Iso_per_1000": 0}},
{"type": "Feature", "geometry": {"type": "Point", "coordinates": [35.3674137, 32.6892546]}, "properties": {"OBJECTID": 432548, "Municipality": 489, "Municipality_desc": "\u05d3\u05d1\u05d5\u05e8\u05d9\u05d4", "Isolations": 2, "Total_Pop2017": 10414, "Iso_per_1000": 0}},
{"type": "Feature", "geometry": {"type": "Point", "coordinates": [35.2675806, 32.9408958]}, "properties": {"OBJECTID": 432549, "Municipality": 490, "Municipality_desc": "\u05d3\u05d9\u05d9\u05e8 \u05d0\u05dc-\u05d0\u05e1\u05d3", "Isolations": 4, "Total_Pop2017": 12435, "Iso_per_1000": 0}},
{"type": "Feature", "geometry": {"type": "Point", "coordinates": [35.3683001, 32.8647155]}, "properties": {"OBJECTID": 432550, "Municipality": 492, "Municipality_desc": "\u05d3\u05d9\u05d9\u05e8 \u05d7\u05e0\u05d0", "Isolations": 4, "Total_Pop2017": 10567, "Iso_per_1000": 0}},
{"type": "Feature", "geometry": {"type": "Point", "coordinates": [35.0512015, 32.6938391]}, "properties": {"OBJECTID": 432551, "Municipality": 494, "Municipality_desc": "\u05d3\u05d0\u05dc\u05d9\u05ea \u05d0\u05dc-\u05db\u05e8\u05de\u05dc", "Isolations": 3, "Total_Pop2017": 16993, "Iso_per_1000": 0}},
{"type": "Feature", "geometry": {"type": "Point", "coordinates": [35.3461648, 33.0224354]}, "properties": {"OBJECTID": 432552, "Municipality": 496, "Municipality_desc": "\u05d7\u05d5\u05e8\u05e4\u05d9\u05e9", "Isolations": 1, "Total_Pop2017": 6288, "Iso_per_1000": 0}},
{"type": "Feature", "geometry": {"type": "Point", "coordinates": [35.3810111, 32.7762805]}, "properties": {"OBJECTID": 432553, "Municipality": 498, "Municipality_desc": "\u05d8\u05d5\u05e8\u05e2\u05d0\u05df", "Isolations": 4, "Total_Pop2017": 14398, "Iso_per_1000": 0}},
{"type": "Feature", "geometry": {"type": "Point", "coordinates": [35.2720805, 32.6831797]}, "properties": {"OBJECTID": 432554, "Municipality": 499, "Municipality_desc": "\u05d9\u05e4\u05d9\u05e2", "Isolations": 8, "Total_Pop2017": 19056, "Iso_per_1000": 0}},
{"type": "Feature", "geometry": {"type": "Point", "coordinates": [35.2103295, 32.9570629]}, "properties": {"OBJECTID": 432555, "Municipality": 502, "Municipality_desc": "\u05d9\u05e8\u05db\u05d0", "Isolations": 4, "Total_Pop2017": 15418, "Iso_per_1000": 0}},
{"type": "Feature", "geometry": {"type": "Point", "coordinates": [35.2060745, 32.872642]}, "properties": {"OBJECTID": 432556, "Municipality": 504, "Municipality_desc": "\u05db\u05d0\u05d1\u05d5\u05dc", "Isolations": 6, "Total_Pop2017": 12102, "Iso_per_1000": 0}},
{"type": "Feature", "geometry": {"type": "Point", "coordinates": [35.1606115, 32.9511538]}, "properties": {"OBJECTID": 432557, "Municipality": 507, "Municipality_desc": "\u05db\u05e4\u05e8 \u05d9\u05d0\u05e1\u05d9\u05e3", "Isolations": 9, "Total_Pop2017": 10577, "Iso_per_1000": 0}},
{"type": "Feature", "geometry": {"type": "Point", "coordinates": [35.3441974, 32.7544887]}, "properties": {"OBJECTID": 432558, "Municipality": 509, "Municipality_desc": "\u05db\u05e4\u05e8 \u05db\u05e0\u05d0", "Isolations": 13, "Total_Pop2017": 22449, "Iso_per_1000": 0}},
{"type": "Feature", "geometry": {"type": "Point", "coordinates": [35.2608416, 32.8060803]}, "properties": {"OBJECTID": 432559, "Municipality": 510, "Municipality_desc": "\u05db\u05e4\u05e8 \u05de\u05e0\u05d3\u05d0", "Isolations": 6, "Total_Pop2017": 20003, "Iso_per_1000": 0}},
{"type": "Feature", "geometry": {"type": "Point", "coordinates": [35.2424503, 32.9163775]}, "properties": {"OBJECTID": 432560, "Municipality": 516, "Municipality_desc": "\u05de\u05d2'\u05d3 \u05d0\u05dc-\u05db\u05e8\u05d5\u05dd", "Isolations": 13, "Total_Pop2017": 15275, "Iso_per_1000": 0}},
{"type": "Feature", "geometry": {"type": "Point", "coordinates": [35.3218947, 32.7502042]}, "properties": {"OBJECTID": 432561, "Municipality": 520, "Municipality_desc": "\u05de\u05e9\u05d4\u05d3", "Isolations": 2, "Total_Pop2017": 8649, "Iso_per_1000": 0}},
{"type": "Feature", "geometry": {"type": "Point", "coordinates": [35.3130769, 32.9349656]}, "properties": {"OBJECTID": 432562, "Municipality": 522, "Municipality_desc": "\u05e0\u05d7\u05e3", "Isolations": 2, "Total_Pop2017": 13167, "Iso_per_1000": 0}},
{"type": "Feature", "geometry": {"type": "Point", "coordinates": [35.1793744, 32.8291581]}, "properties": {"OBJECTID": 432563, "Municipality": 529, "Municipality_desc": "\u05d0\u05e2\u05d1\u05dc\u05d9\u05df", "Isolations": 10, "Total_Pop2017": 13062, "Iso_per_1000": 0}},
{"type": "Feature", "geometry": {"type": "Point", "coordinates": [35.4006965, 32.8416122]}, "properties": {"OBJECTID": 432564, "Municipality": 530, "Municipality_desc": "\u05e2\u05d9\u05d9\u05dc\u05d1\u05d5\u05df", "Isolations": 3, "Total_Pop2017": 5677, "Iso_per_1000": 0}},
{"type": "Feature", "geometry": {"type": "Point", "coordinates": [35.339458, 32.8538956]}, "properties": {"OBJECTID": 432565, "Municipality": 531, "Municipality_desc": "\u05e2\u05e8\u05d0\u05d1\u05d4", "Isolations": 17, "Total_Pop2017": 25876, "Iso_per_1000": 0}},
{"type": "Feature", "geometry": {"type": "Point", "coordinates": [35.3549286, 32.7187761]}, "properties": {"OBJECTID": 432566, "Municipality": 532, "Municipality_desc": "\u05e2\u05d9\u05df \u05de\u05d0\u05d4\u05dc", "Isolations": 6, "Total_Pop2017": 13388, "Iso_per_1000": 0}},
{"type": "Feature", "geometry": {"type": "Point", "coordinates": [35.0632563, 32.7175881]}, "properties": {"OBJECTID": 432567, "Municipality": 534, "Municipality_desc": "\u05e2\u05e1\u05e4\u05d9\u05d0", "Isolations": 2, "Total_Pop2017": 12141, "Iso_per_1000": 0}},
{"type": "Feature", "geometry": {"type": "Point", "coordinates": [35.3269322, 32.9727267]}, "properties": {"OBJECTID": 432568, "Municipality": 536, "Municipality_desc": "\u05e4\u05e7\u05d9\u05e2\u05d9\u05df (\u05d1\u05d5\u05e7\u05d9\u05d9\u05e2\u05d4)", "Isolations": 2, "Total_Pop2017": 5851, "Iso_per_1000": 0}},
{"type": "Feature", "geometry": {"type": "Point", "coordinates": [34.9519897, 32.5978286]}, "properties": {"OBJECTID": 432569, "Municipality": 537, "Municipality_desc": "\u05e4\u05d5\u05e8\u05d9\u05d9\u05d3\u05d9\u05e1", "Isolations": 11, "Total_Pop2017": 13133, "Iso_per_1000": 0}},
{"type": "Feature", "geometry": {"type": "Point", "coordinates": [34.9074537, 32.5368141]}, "properties": {"OBJECTID": 432570, "Municipality": 541, "Municipality_desc": "\u05d2'\u05e1\u05e8 \u05d0-\u05d6\u05e8\u05e7\u05d0", "Isolations": 2, "Total_Pop2017": 14732, "Iso_per_1000": 0}},
{"type": "Feature", "geometry": {"type": "Point", "coordinates": [35.305775, 32.7287043]}, "properties": {"OBJECTID": 432571, "Municipality": 542, "Municipality_desc": "\u05e8\u05d9\u05d9\u05e0\u05d4", "Isolations": 8, "Total_Pop2017": 16614, "Iso_per_1000": 0}},
{"type": "Feature", "geometry": {"type": "Point", "coordinates": [35.3718939, 32.9331169]}, "properties": {"OBJECTID": 432572, "Municipality": 543, "Municipality_desc": "\u05e8\u05d0\u05de\u05d4", "Isolations": 6, "Total_Pop2017": 8243, "Iso_per_1000": 0}},
{"type": "Feature", "geometry": {"type": "Point", "coordinates": [34.8076814, 32.02322]}, "properties": {"OBJECTID": 432573, "Municipality": 565, "Municipality_desc": "\u05d0\u05d6\u05d5\u05e8", "Isolations": 24, "Total_Pop2017": 11819, "Iso_per_1000": 2}},
{"type": "Feature", "geometry": {"type": "Point", "coordinates": [34.9486772, 32.1496242]}, "properties": {"OBJECTID": 432574, "Municipality": 627, "Municipality_desc": "\u05d2'\u05dc\u05d2'\u05d5\u05dc\u05d9\u05d4", "Isolations": 4, "Total_Pop2017": 10011, "Iso_per_1000": 0}},
{"type": "Feature", "geometry": {"type": "Point", "coordinates": [35.029525, 32.4019991]}, "properties": {"OBJECTID": 432575, "Municipality": 628, "Municipality_desc": "\u05d2'\u05ea", "Isolations": 23, "Total_Pop2017": 11910, "Iso_per_1000": 1}},
{"type": "Feature", "geometry": {"type": "Point", "coordinates": [34.9671584, 32.1171793]}, "properties": {"OBJECTID": 432576, "Municipality": 634, "Municipality_desc": "\u05db\u05e4\u05e8 \u05e7\u05d0\u05e1\u05dd", "Isolations": 31, "Total_Pop2017": 23517, "Iso_per_1000": 1}},
{"type": "Feature", "geometry": {"type": "Point", "coordinates": [35.092163, 32.5015511]}, "properties": {"OBJECTID": 432577, "Municipality": 637, "Municipality_desc": "\u05e2\u05e8\u05e2\u05e8\u05d4", "Isolations": 24, "Total_Pop2017": 19667, "Iso_per_1000": 1}},
{"type": "Feature", "geometry": {"type": "Point", "coordinates": [34.977132, 32.292474]}, "properties": {"OBJECTID": 432578, "Municipality": 638, "Municipality_desc": "\u05e7\u05dc\u05e0\u05e1\u05d5\u05d5\u05d4", "Isolations": 19, "Total_Pop2017": 22740, "Iso_per_1000": 0}},
{"type": "Feature", "geometry": {"type": "Point", "coordinates": [35.0478208, 32.5051833]}, "properties": {"OBJECTID": 432579, "Municipality": 654, "Municipality_desc": "\u05db\u05e4\u05e8 \u05e7\u05e8\u05e2", "Isolations": 16, "Total_Pop2017": 18820, "Iso_per_1000": 0}},
{"type": "Feature", "geometry": {"type": "Point", "coordinates": [34.8479513, 31.2756395]}, "properties": {"OBJECTID": 432580, "Municipality": 666, "Municipality_desc": "\u05e2\u05d5\u05de\u05e8", "Isolations": 54, "Total_Pop2017": 8016, "Iso_per_1000": 6}},
{"type": "Feature", "geometry": {"type": "Point", "coordinates": [34.8517719, 32.076993]}, "properties": {"OBJECTID": 432581, "Municipality": 681, "Municipality_desc": "\u05d2\u05d1\u05e2\u05ea \u05e9\u05de\u05d5\u05d0\u05dc", "Isolations": 44, "Total_Pop2017": 24538, "Iso_per_1000": 1}},
{"type": "Feature", "geometry": {"type": "Point", "coordinates": [35.1470798, 33.0716666]}, "properties": {"OBJECTID": 432582, "Municipality": 812, "Municipality_desc": "\u05e9\u05dc\u05d5\u05de\u05d9", "Isolations": 143, "Total_Pop2017": 6478, "Iso_per_1000": 22}},
{"type": "Feature", "geometry": {"type": "Point", "coordinates": [34.9193959, 30.9893922]}, "properties": {"OBJECTID": 432583, "Municipality": 831, "Municipality_desc": "\u05d9\u05e8\u05d5\u05d7\u05dd", "Isolations": 2, "Total_Pop2017": 10126, "Iso_per_1000": 0}},
{"type": "Feature", "geometry": {"type": "Point", "coordinates": [35.2440083, 32.6816459]}, "properties": {"OBJECTID": 432584, "Municipality": 874, "Municipality_desc": "\u05de\u05d2\u05d3\u05dc \u05d4\u05e2\u05de\u05e7", "Isolations": 14, "Total_Pop2017": 26058, "Iso_per_1000": 0}},
{"type": "Feature", "geometry": {"type": "Point", "coordinates": [35.398358, 32.6869892]}, "properties": {"OBJECTID": 432585, "Municipality": 913, "Municipality_desc": "\u05e9\u05d1\u05dc\u05d9 - \u05d0\u05d5\u05dd \u05d0\u05dc-\u05d2\u05e0\u05dd", "Isolations": 3, "Total_Pop2017": 6367, "Iso_per_1000": 0}},
{"type": "Feature", "geometry": {"type": "Point", "coordinates": [35.1089347, 32.749605]}, "properties": {"OBJECTID": 432586, "Municipality": 922, "Municipality_desc": "\u05e8\u05db\u05e1\u05d9\u05dd", "Isolations": 21, "Total_Pop2017": 11841, "Iso_per_1000": 1}},
{"type": "Feature", "geometry": {"type": "Point", "coordinates": [34.8193198, 31.2030265]}, "properties": {"OBJECTID": 432587, "Municipality": 939, "Municipality_desc": "\u05de\u05e1\u05e2\u05d5\u05d3\u05d9\u05df \u05d0\u05dc-\u05e2\u05d6\u05d0\u05d6\u05de\u05d4", "Isolations": 1, "Total_Pop2017": 16644, "Iso_per_1000": 0}},
{"type": "Feature", "geometry": {"type": "Point", "coordinates": [35.1472929, 32.740697]}, "properties": {"OBJECTID": 432588, "Municipality": 944, "Municipality_desc": "\u05d1\u05e1\u05de\u05ea \u05d8\u05d1\u05e2\u05d5\u05df", "Isolations": 3, "Total_Pop2017": 7833, "Iso_per_1000": 0}},
{"type": "Feature", "geometry": {"type": "Point", "coordinates": [34.8621722, 31.2596417]}, "properties": {"OBJECTID": 432589, "Municipality": 961, "Municipality_desc": "\u05d0\u05d1\u05d5 \u05e8\u05d5\u05e7\u05d9\u05d9\u05e7 (\u05e9\u05d1\u05d8)", "Isolations": 4, "Total_Pop2017": 9696, "Iso_per_1000": 0}},
{"type": "Feature", "geometry": {"type": "Point", "coordinates": [35.5909024, 32.9648843]}, "properties": {"OBJECTID": 432590, "Municipality": 962, "Municipality_desc": "\u05d8\u05d5\u05d1\u05d0-\u05d6\u05e0\u05d2\u05e8\u05d9\u05d4", "Isolations": 2, "Total_Pop2017": 6648, "Iso_per_1000": 0}},
{"type": "Feature", "geometry": {"type": "Point", "coordinates": [34.896976, 31.2967675]}, "properties": {"OBJECTID": 432591, "Municipality": 963, "Municipality_desc": "\u05d0\u05e2\u05e6\u05dd (\u05e9\u05d1\u05d8)", "Isolations": 2, "Total_Pop2017": 10149, "Iso_per_1000": 0}},
{"type": "Feature", "geometry": {"type": "Point", "coordinates": [35.0842629, 31.2144879]}, "properties": {"OBJECTID": 432592, "Municipality": 968, "Municipality_desc": "\u05d0\u05d1\u05d5 \u05e7\u05d5\u05e8\u05d9\u05e0\u05d0\u05ea (\u05e9\u05d1\u05d8)", "Isolations": 1, "Total_Pop2017": 6235, "Iso_per_1000": 0}},
{"type": "Feature", "geometry": {"type": "Point", "coordinates": [35.2229748, 32.7257948]}, "properties": {"OBJECTID": 432593, "Municipality": 975, "Municipality_desc": "\u05d6\u05e8\u05d6\u05d9\u05e8", "Isolations": 2, "Total_Pop2017": 8385, "Iso_per_1000": 0}},
{"type": "Feature", "geometry": {"type": "Point", "coordinates": [35.1831276, 32.7505207]}, "properties": {"OBJECTID": 432594, "Municipality": 978, "Municipality_desc": "\u05db\u05e2\u05d1\u05d9\u05d4-\u05d8\u05d1\u05d0\u05e9-\u05d7\u05d2'\u05d0\u05d2'\u05e8\u05d4", "Isolations": 6, "Total_Pop2017": 5780, "Iso_per_1000": 1}},
{"type": "Feature", "geometry": {"type": "Point", "coordinates": [35.2231601, 32.7845299]}, "properties": {"OBJECTID": 432595, "Municipality": 998, "Municipality_desc": "\u05d1\u05d9\u05e8 \u05d0\u05dc-\u05de\u05db\u05e1\u05d5\u05e8", "Isolations": 1, "Total_Pop2017": 9866, "Iso_per_1000": 0}},
{"type": "Feature", "geometry": {"type": "Point", "coordinates": [35.1505592, 31.7988716]}, "properties": {"OBJECTID": 432596, "Municipality": 1015, "Municipality_desc": "\u05de\u05d1\u05e9\u05e8\u05ea \u05e6\u05d9\u05d5\u05df", "Isolations": 160, "Total_Pop2017": 23093, "Iso_per_1000": 6}},
{"type": "Feature", "geometry": {"type": "Point", "coordinates": [34.9219498, 32.5065326]}, "properties": {"OBJECTID": 432597, "Municipality": 1020, "Municipality_desc": "\u05d0\u05d5\u05e8 \u05e2\u05e7\u05d9\u05d1\u05d0", "Isolations": 47, "Total_Pop2017": 18893, "Iso_per_1000": 2}},
{"type": "Feature", "geometry": {"type": "Point", "coordinates": [34.595834, 31.5287111]}, "properties": {"OBJECTID": 432598, "Municipality": 1031, "Municipality_desc": "\u05e9\u05d3\u05e8\u05d5\u05ea", "Isolations": 80, "Total_Pop2017": 25891, "Iso_per_1000": 3}},
{"type": "Feature", "geometry": {"type": "Point", "coordinates": [34.748671, 31.7294204]}, "properties": {"OBJECTID": 432599, "Municipality": 1034, "Municipality_desc": "\u05e7\u05e8\u05d9\u05ea \u05de\u05dc\u05d0\u05db\u05d9", "Isolations": 40, "Total_Pop2017": 23691, "Iso_per_1000": 1}},
{"type": "Feature", "geometry": {"type": "Point", "coordinates": [34.8670089, 31.248857]}, "properties": {"OBJECTID": 432600, "Municipality": 1054, "Municipality_desc": "\u05ea\u05dc \u05e9\u05d1\u05e2", "Isolations": 3, "Total_Pop2017": 19850, "Iso_per_1000": 0}},
{"type": "Feature", "geometry": {"type": "Point", "coordinates": [35.0852024, 31.2419273]}, "properties": {"OBJECTID": 432601, "Municipality": 1059, "Municipality_desc": "\u05db\u05e1\u05d9\u05e4\u05d4", "Isolations": 4, "Total_Pop2017": 16957, "Iso_per_1000": 0}},
{"type": "Feature", "geometry": {"type": "Point", "coordinates": [34.8699649, 31.3218233]}, "properties": {"OBJECTID": 432602, "Municipality": 1060, "Municipality_desc": "\u05dc\u05e7\u05d9\u05d4", "Isolations": 8, "Total_Pop2017": 14695, "Iso_per_1000": 0}},
{"type": "Feature", "geometry": {"type": "Point", "coordinates": [35.3464621, 32.7182999]}, "properties": {"OBJECTID": 432603, "Municipality": 1061, "Municipality_desc": "\u05e0\u05d5\u05e3 \u05d4\u05d2\u05dc\u05d9\u05dc", "Isolations": 22, "Total_Pop2017": 43811, "Iso_per_1000": 0}},
{"type": "Feature", "geometry": {"type": "Point", "coordinates": [35.2762859, 33.0126856]}, "properties": {"OBJECTID": 432604, "Municipality": 1063, "Municipality_desc": "\u05de\u05e2\u05dc\u05d5\u05ea-\u05ea\u05e8\u05e9\u05d9\u05d7\u05d0", "Isolations": 13, "Total_Pop2017": 22261, "Iso_per_1000": 0}},
{"type": "Feature", "geometry": {"type": "Point", "coordinates": [34.7610564, 31.7911028]}, "properties": {"OBJECTID": 432605, "Municipality": 1066, "Municipality_desc": "\u05d1\u05e0\u05d9 \u05e2\u05d9\"\u05e9", "Isolations": 6, "Total_Pop2017": 6837, "Iso_per_1000": 0}},
{"type": "Feature", "geometry": {"type": "Point", "coordinates": [35.0996246, 31.8033884]}, "properties": {"OBJECTID": 432606, "Municipality": 1137, "Municipality_desc": "\u05e7\u05e8\u05d9\u05ea \u05d9\u05e2\u05e8\u05d9\u05dd", "Isolations": 18, "Total_Pop2017": 5713, "Iso_per_1000": 3}},
{"type": "Feature", "geometry": {"type": "Point", "coordinates": [35.3055391, 32.9133894]}, "properties": {"OBJECTID": 432607, "Municipality": 1139, "Municipality_desc": "\u05db\u05e8\u05de\u05d9\u05d0\u05dc", "Isolations": 33, "Total_Pop2017": 46596, "Iso_per_1000": 0}},
{"type": "Feature", "geometry": {"type": "Point", "coordinates": [34.7590167, 31.3901784]}, "properties": {"OBJECTID": 432608, "Municipality": 1161, "Municipality_desc": "\u05e8\u05d4\u05d8", "Isolations": 52, "Total_Pop2017": 64649, "Iso_per_1000": 0}},
{"type": "Feature", "geometry": {"type": "Point", "coordinates": [35.0185668, 31.1554379]}, "properties": {"OBJECTID": 432609, "Municipality": 1192, "Municipality_desc": "\u05e2\u05e8\u05e2\u05e8\u05d4-\u05d1\u05e0\u05d2\u05d1", "Isolations": 13, "Total_Pop2017": 17465, "Iso_per_1000": 0}},
{"type": "Feature", "geometry": {"type": "Point", "coordinates": [34.9899181, 31.8969751]}, "properties": {"OBJECTID": 432610, "Municipality": 1200, "Municipality_desc": "\u05de\u05d5\u05d3\u05d9\u05e2\u05d9\u05df-\u05de\u05db\u05d1\u05d9\u05dd-\u05e8\u05e2\u05d5\u05ea", "Isolations": 171, "Total_Pop2017": 87108, "Iso_per_1000": 1}},
{"type": "Feature", "geometry": {"type": "Point", "coordinates": [34.9947651, 32.2212953]}, "properties": {"OBJECTID": 432611, "Municipality": 1224, "Municipality_desc": "\u05db\u05d5\u05db\u05d1 \u05d9\u05d0\u05d9\u05e8", "Isolations": 18, "Total_Pop2017": 9143, "Iso_per_1000": 1}},
{"type": "Feature", "geometry": {"type": "Point", "coordinates": [35.0576135, 32.4633679]}, "properties": {"OBJECTID": 432612, "Municipality": 1247, "Municipality_desc": "\u05d7\u05e8\u05d9\u05e9", "Isolations": 19, "Total_Pop2017": 8737, "Iso_per_1000": 2}},
{"type": "Feature", "geometry": {"type": "Point", "coordinates": [35.2602637, 32.9985212]}, "properties": {"OBJECTID": 432613, "Municipality": 1263, "Municipality_desc": "\u05db\u05e4\u05e8 \u05d5\u05e8\u05d3\u05d9\u05dd", "Isolations": 10, "Total_Pop2017": 5599, "Iso_per_1000": 1}},
{"type": "Feature", "geometry": {"type": "Point", "coordinates": [34.9607523, 31.3280307]}, "properties": {"OBJECTID": 432614, "Municipality": 1268, "Municipality_desc": "\u05de\u05d9\u05ea\u05e8", "Isolations": 177, "Total_Pop2017": 9043, "Iso_per_1000": 19}},
{"type": "Feature", "geometry": {"type": "Point", "coordinates": [34.8123458, 31.363147]}, "properties": {"OBJECTID": 432615, "Municipality": 1271, "Municipality_desc": "\u05dc\u05d4\u05d1\u05d9\u05dd", "Isolations": 239, "Total_Pop2017": 6178, "Iso_per_1000": 38}},
{"type": "Feature", "geometry": {"type": "Point", "coordinates": [34.8397929, 31.1996197]}, "properties": {"OBJECTID": 432616, "Municipality": 1286, "Municipality_desc": "\u05e9\u05d2\u05d1-\u05e9\u05dc\u05d5\u05dd", "Isolations": 8, "Total_Pop2017": 10310, "Iso_per_1000": 0}},
{"type": "Feature", "geometry": {"type": "Point", "coordinates": [35.0332575, 32.3637888]}, "properties": {"OBJECTID": 432617, "Municipality": 1290, "Municipality_desc": "\u05d6\u05de\u05e8", "Isolations": 5, "Total_Pop2017": 6926, "Iso_per_1000": 0}},
{"type": "Feature", "geometry": {"type": "Point", "coordinates": [35.1424004, 32.9326252]}, "properties": {"OBJECTID": 432618, "Municipality": 1292, "Municipality_desc": "\u05d2'\u05d3\u05d9\u05d9\u05d3\u05d4-\u05de\u05db\u05e8", "Isolations": 6, "Total_Pop2017": 20524, "Iso_per_1000": 0}},
{"type": "Feature", "geometry": {"type": "Point", "coordinates": [35.2434097, 32.9792875]}, "properties": {"OBJECTID": 432619, "Municipality": 1295, "Municipality_desc": "\u05d9\u05d0\u05e0\u05d5\u05d7-\u05d2'\u05ea", "Isolations": 1, "Total_Pop2017": 6514, "Iso_per_1000": 0}},
{"type": "Feature", "geometry": {"type": "Point", "coordinates": [35.2962352, 32.9697523]}, "properties": {"OBJECTID": 432620, "Municipality": 1296, "Municipality_desc": "\u05db\u05e1\u05e8\u05d0-\u05e1\u05de\u05d9\u05e2", "Isolations": 53, "Total_Pop2017": 8550, "Iso_per_1000": 6}},
{"type": "Feature", "geometry": {"type": "Point", "coordinates": [34.937479, 31.2974821]}, "properties": {"OBJECTID": 432621, "Municipality": 1303, "Municipality_desc": "\u05d7\u05d5\u05e8\u05d4", "Isolations": 3, "Total_Pop2017": 16983, "Iso_per_1000": 0}},
{"type": "Feature", "geometry": {"type": "Point", "coordinates": [34.9517401, 31.9992582]}, "properties": {"OBJECTID": 432622, "Municipality": 1304, "Municipality_desc": "\u05e9\u05d5\u05d4\u05dd", "Isolations": 54, "Total_Pop2017": 20041, "Iso_per_1000": 2}},
{"type": "Feature", "geometry": {"type": "Point", "coordinates": [34.9564184, 32.0517719]}, "properties": {"OBJECTID": 432623, "Municipality": 1309, "Municipality_desc": "\u05d0\u05dc\u05e2\u05d3", "Isolations": 49, "Total_Pop2017": 46760, "Iso_per_1000": 1}},
{"type": "Feature", "geometry": {"type": "Point", "coordinates": [35.1016977, 32.5169561]}, "properties": {"OBJECTID": 432624, "Municipality": 1326, "Municipality_desc": "\u05d1\u05e1\u05de\"\u05d4", "Isolations": 8, "Total_Pop2017": 10532, "Iso_per_1000": 0}},
{"type": "Feature", "geometry": {"type": "Point", "coordinates": [35.1664457, 32.5507331]}, "properties": {"OBJECTID": 432625, "Municipality": 1327, "Municipality_desc": "\u05de\u05e2\u05dc\u05d4 \u05e2\u05d9\u05e8\u05d5\u05df", "Isolations": 15, "Total_Pop2017": 14861, "Iso_per_1000": 1}},
{"type": "Feature", "geometry": {"type": "Point", "coordinates": [35.5418948, 32.9848217]}, "properties": {"OBJECTID": 432626, "Municipality": 2034, "Municipality_desc": "\u05d7\u05e6\u05d5\u05e8 \u05d4\u05d2\u05dc\u05d9\u05dc\u05d9\u05ea", "Isolations": 8, "Total_Pop2017": 9722, "Iso_per_1000": 0}},
{"type": "Feature", "geometry": {"type": "Point", "coordinates": [34.9659998, 32.7651093]}, "properties": {"OBJECTID": 432627, "Municipality": 2100, "Municipality_desc": "\u05d8\u05d9\u05e8\u05ea \u05db\u05e8\u05de\u05dc", "Isolations": 10, "Total_Pop2017": 22243, "Iso_per_1000": 0}},
{"type": "Feature", "geometry": {"type": "Point", "coordinates": [35.0801861, 31.0551806]}, "properties": {"OBJECTID": 432628, "Municipality": 2200, "Municipality_desc": "\u05d3\u05d9\u05de\u05d5\u05e0\u05d4", "Isolations": 27, "Total_Pop2017": 35377, "Iso_per_1000": 0}},
{"type": "Feature", "geometry": {"type": "Point", "coordinates": [35.1223323, 32.7137383]}, "properties": {"OBJECTID": 432629, "Municipality": 2300, "Municipality_desc": "\u05e7\u05e8\u05d9\u05ea \u05d8\u05d1\u05e2\u05d5\u05df", "Isolations": 21, "Total_Pop2017": 15831, "Iso_per_1000": 1}},
{"type": "Feature", "geometry": {"type": "Point", "coordinates": [34.8517552, 32.0283378]}, "properties": {"OBJECTID": 432630, "Municipality": 2400, "Municipality_desc": "\u05d0\u05d5\u05e8 \u05d9\u05d4\u05d5\u05d3\u05d4", "Isolations": 75, "Total_Pop2017": 34843, "Iso_per_1000": 2}},
{"type": "Feature", "geometry": {"type": "Point", "coordinates": [35.0429989, 32.7656715]}, "properties": {"OBJECTID": 432631, "Municipality": 2500, "Municipality_desc": "\u05e0\u05e9\u05e8", "Isolations": 34, "Total_Pop2017": 22032, "Iso_per_1000": 1}},
{"type": "Feature", "geometry": {"type": "Point", "coordinates": [34.8403765, 31.9444319]}, "properties": {"OBJECTID": 432632, "Municipality": 2530, "Municipality_desc": "\u05d1\u05d0\u05e8 \u05d9\u05e2\u05e7\u05d1", "Isolations": 49, "Total_Pop2017": 24216, "Iso_per_1000": 2}},
{"type": "Feature", "geometry": {"type": "Point", "coordinates": [34.7772952, 31.8148594]}, "properties": {"OBJECTID": 432633, "Municipality": 2550, "Municipality_desc": "\u05d2\u05d3\u05e8\u05d4", "Isolations": 44, "Total_Pop2017": 24633, "Iso_per_1000": 1}},
{"type": "Feature", "geometry": {"type": "Point", "coordinates": [35.2019503, 31.2614862]}, "properties": {"OBJECTID": 432634, "Municipality": 2560, "Municipality_desc": "\u05e2\u05e8\u05d3", "Isolations": 29, "Total_Pop2017": 26763, "Iso_per_1000": 1}},
{"type": "Feature", "geometry": {"type": "Point", "coordinates": [34.9380892, 29.5805441]}, "properties": {"OBJECTID": 432635, "Municipality": 2600, "Municipality_desc": "\u05d0\u05d9\u05dc\u05ea", "Isolations": 62, "Total_Pop2017": 56568, "Iso_per_1000": 1}},
{"type": "Feature", "geometry": {"type": "Point", "coordinates": [34.9824022, 31.7269061]}, "properties": {"OBJECTID": 432636, "Municipality": 2610, "Municipality_desc": "\u05d1\u05d9\u05ea \u05e9\u05de\u05e9", "Isolations": 171, "Total_Pop2017": 120812, "Iso_per_1000": 1}},
{"type": "Feature", "geometry": {"type": "Point", "coordinates": [34.8579861, 32.0570595]}, "properties": {"OBJECTID": 432637, "Municipality": 2620, "Municipality_desc": "\u05e7\u05e8\u05d9\u05ea \u05d0\u05d5\u05e0\u05d5", "Isolations": 168, "Total_Pop2017": 37112, "Iso_per_1000": 4}},
{"type": "Feature", "geometry": {"type": "Point", "coordinates": [34.7747134, 31.6070432]}, "properties": {"OBJECTID": 432638, "Municipality": 2630, "Municipality_desc": "\u05e7\u05e8\u05d9\u05ea \u05d2\u05ea", "Isolations": 423, "Total_Pop2017": 55400, "Iso_per_1000": 7}},
{"type": "Feature", "geometry": {"type": "Point", "coordinates": [34.9631144, 32.0933483]}, "properties": {"OBJECTID": 432639, "Municipality": 2640, "Municipality_desc": "\u05e8\u05d0\u05e9 \u05d4\u05e2\u05d9\u05df", "Isolations": 102, "Total_Pop2017": 53965, "Iso_per_1000": 1}},
{"type": "Feature", "geometry": {"type": "Point", "coordinates": [34.8344619, 32.1356517]}, "properties": {"OBJECTID": 432640, "Municipality": 2650, "Municipality_desc": "\u05e8\u05de\u05ea \u05d4\u05e9\u05e8\u05d5\u05df", "Isolations": 82, "Total_Pop2017": 44896, "Iso_per_1000": 1}},
{"type": "Feature", "geometry": {"type": "Point", "coordinates": [34.7327872, 31.8742193]}, "properties": {"OBJECTID": 432641, "Municipality": 2660, "Municipality_desc": "\u05d9\u05d1\u05e0\u05d4", "Isolations": 268, "Total_Pop2017": 45555, "Iso_per_1000": 5}},
{"type": "Feature", "geometry": {"type": "Point", "coordinates": [35.1516304, 32.5290166]}, "properties": {"OBJECTID": 432642, "Municipality": 2710, "Municipality_desc": "\u05d0\u05d5\u05dd \u05d0\u05dc-\u05e4\u05d7\u05dd", "Isolations": 55, "Total_Pop2017": 55324, "Iso_per_1000": 0}},
{"type": "Feature", "geometry": {"type": "Point", "coordinates": [34.9613864, 32.2334689]}, "properties": {"OBJECTID": 432643, "Municipality": 2720, "Municipality_desc": "\u05d8\u05d9\u05e8\u05d4", "Isolations": 13, "Total_Pop2017": 26184, "Iso_per_1000": 0}},
{"type": "Feature", "geometry": {"type": "Point", "coordinates": [34.9995815, 32.2624547]}, "properties": {"OBJECTID": 432644, "Municipality": 2730, "Municipality_desc": "\u05d8\u05d9\u05d9\u05d1\u05d4", "Isolations": 22, "Total_Pop2017": 43144, "Iso_per_1000": 0}},
{"type": "Feature", "geometry": {"type": "Point", "coordinates": [35.5740487, 33.2126327]}, "properties": {"OBJECTID": 432645, "Municipality": 2800, "Municipality_desc": "\u05e7\u05e8\u05d9\u05ea \u05e9\u05de\u05d5\u05e0\u05d4", "Isolations": 21, "Total_Pop2017": 22152, "Iso_per_1000": 0}},
{"type": "Feature", "geometry": {"type": "Point", "coordinates": [35.2051482, 31.7784771]}, "properties": {"OBJECTID": 432646, "Municipality": 3000, "Municipality_desc": "\u05d9\u05e8\u05d5\u05e9\u05dc\u05d9\u05dd", "Isolations": 2766, "Total_Pop2017": 914559, "Iso_per_1000": 3}},
{"type": "Feature", "geometry": {"type": "Point", "coordinates": [35.1890869, 32.1043091]}, "properties": {"OBJECTID": 432647, "Municipality": 3570, "Municipality_desc": "\u05d0\u05e8\u05d9\u05d0\u05dc", "Isolations": 33, "Total_Pop2017": 18251, "Iso_per_1000": 1}},
{"type": "Feature", "geometry": {"type": "Point", "coordinates": [35.2235044, 31.9391297]}, "properties": {"OBJECTID": 432648, "Municipality": 3574, "Municipality_desc": "\u05d1\u05d9\u05ea \u05d0\u05dc", "Isolations": 10, "Total_Pop2017": 5767, "Iso_per_1000": 1}},
{"type": "Feature", "geometry": {"type": "Point", "coordinates": [35.1174764, 31.5289134]}, "properties": {"OBJECTID": 432649, "Municipality": 3611, "Municipality_desc": "\u05e7\u05e8\u05d9\u05ea \u05d0\u05e8\u05d1\u05e2", "Isolations": 9, "Total_Pop2017": 7364, "Iso_per_1000": 1}},
{"type": "Feature", "geometry": {"type": "Point", "coordinates": [35.3308138, 31.7924445]}, "properties": {"OBJECTID": 432650, "Municipality": 3616, "Municipality_desc": "\u05de\u05e2\u05dc\u05d4 \u05d0\u05d3\u05d5\u05de\u05d9\u05dd", "Isolations": 40, "Total_Pop2017": 37469, "Iso_per_1000": 1}},
{"type": "Feature", "geometry": {"type": "Point", "coordinates": [35.1003579, 32.1744606]}, "properties": {"OBJECTID": 432651, "Municipality": 3640, "Municipality_desc": "\u05e7\u05e8\u05e0\u05d9 \u05e9\u05d5\u05de\u05e8\u05d5\u05df", "Isolations": 15, "Total_Pop2017": 7906, "Iso_per_1000": 1}},
{"type": "Feature", "geometry": {"type": "Point", "coordinates": [35.1492039, 31.6501481]}, "properties": {"OBJECTID": 432652, "Municipality": 3650, "Municipality_desc": "\u05d0\u05e4\u05e8\u05ea", "Isolations": 15, "Total_Pop2017": 10676, "Iso_per_1000": 1}},
{"type": "Feature", "geometry": {"type": "Point", "coordinates": [35.1679533, 31.8620701]}, "properties": {"OBJECTID": 432653, "Municipality": 3730, "Municipality_desc": "\u05d2\u05d1\u05e2\u05ea \u05d6\u05d0\u05d1", "Isolations": 37, "Total_Pop2017": 18510, "Iso_per_1000": 1}},
{"type": "Feature", "geometry": {"type": "Point", "coordinates": [35.0145264, 32.1704712]}, "properties": {"OBJECTID": 432654, "Municipality": 3750, "Municipality_desc": "\u05d0\u05dc\u05e4\u05d9 \u05de\u05e0\u05e9\u05d4", "Isolations": 12, "Total_Pop2017": 7771, "Iso_per_1000": 1}},
{"type": "Feature", "geometry": {"type": "Point", "coordinates": [34.993131, 32.1306766]}, "properties": {"OBJECTID": 432655, "Municipality": 3760, "Municipality_desc": "\u05d0\u05d5\u05e8\u05e0\u05d9\u05ea", "Isolations": 23, "Total_Pop2017": 8822, "Iso_per_1000": 2}},
{"type": "Feature", "geometry": {"type": "Point", "coordinates": [35.1128562, 31.6989563]}, "properties": {"OBJECTID": 432656, "Municipality": 3780, "Municipality_desc": "\u05d1\u05d9\u05ea\u05e8 \u05e2\u05d9\u05dc\u05d9\u05ea", "Isolations": 48, "Total_Pop2017": 59240, "Iso_per_1000": 0}},
{"type": "Feature", "geometry": {"type": "Point", "coordinates": [35.0443115, 31.9318848]}, "properties": {"OBJECTID": 432657, "Municipality": 3797, "Municipality_desc": "\u05de\u05d5\u05d3\u05d9\u05e2\u05d9\u05df \u05e2\u05d9\u05dc\u05d9\u05ea", "Isolations": 60, "Total_Pop2017": 73808, "Iso_per_1000": 0}},
{"type": "Feature", "geometry": {"type": "Point", "coordinates": [35.0079755, 32.8022265]}, "properties": {"OBJECTID": 432658, "Municipality": 4000, "Municipality_desc": "\u05d7\u05d9\u05e4\u05d4", "Isolations": 480, "Total_Pop2017": 272584, "Iso_per_1000": 1}},
{"type": "Feature", "geometry": {"type": "Point", "coordinates": [35.7820409, 33.2079013]}, "properties": {"OBJECTID": 432659, "Municipality": 4001, "Municipality_desc": "\u05d1\u05d5\u05e7\u05e2\u05d0\u05ea\u05d0", "Isolations": 1, "Total_Pop2017": 6586, "Iso_per_1000": 0}},
{"type": "Feature", "geometry": {"type": "Point", "coordinates": [35.6961941, 32.9928334]}, "properties": {"OBJECTID": 432660, "Municipality": 4100, "Municipality_desc": "\u05e7\u05e6\u05e8\u05d9\u05df", "Isolations": 7, "Total_Pop2017": 7373, "Iso_per_1000": 0}},
{"type": "Feature", "geometry": {"type": "Point", "coordinates": [35.7719857, 33.2644275]}, "properties": {"OBJECTID": 432661, "Municipality": 4201, "Municipality_desc": "\u05de\u05d2'\u05d3\u05dc \u05e9\u05de\u05e1", "Isolations": 7, "Total_Pop2017": 11089, "Iso_per_1000": 0}},
{"type": "Feature", "geometry": {"type": "Point", "coordinates": [34.7913651, 32.0843318]}, "properties": {"OBJECTID": 432662, "Municipality": 5000, "Municipality_desc": "\u05ea\u05dc \u05d0\u05d1\u05d9\u05d1 - \u05d9\u05e4\u05d5", "Isolations": 1620, "Total_Pop2017": 450192, "Iso_per_1000": 3}},
{"type": "Feature", "geometry": {"type": "Point", "coordinates": [35.5722857, 33.090709]}, "properties": {"OBJECTID": 432663, "Municipality": 5501, "Municipality_desc": "\u05d4\u05d2\u05dc\u05d9\u05dc \u05d4\u05e2\u05dc\u05d9\u05d5\u05df", "Isolations": 12, "Total_Pop2017": 16900, "Iso_per_1000": 0}},
{"type": "Feature", "geometry": {"type": "Point", "coordinates": [35.4592638, 32.9781518]}, "properties": {"OBJECTID": 432664, "Municipality": 5502, "Municipality_desc": "\u05de\u05e8\u05d5\u05dd \u05d4\u05d2\u05dc\u05d9\u05dc", "Isolations": 18, "Total_Pop2017": 14745, "Iso_per_1000": 1}},
{"type": "Feature", "geometry": {"type": "Point", "coordinates": [35.4448443, 32.7611355]}, "properties": {"OBJECTID": 432665, "Municipality": 5503, "Municipality_desc": "\u05d4\u05d2\u05dc\u05d9\u05dc \u05d4\u05ea\u05d7\u05ea\u05d5\u05df", "Isolations": 32, "Total_Pop2017": 11754, "Iso_per_1000": 2}},
{"type": "Feature", "geometry": {"type": "Point", "coordinates": [35.1539261, 32.9871497]}, "properties": {"OBJECTID": 432666, "Municipality": 5504, "Municipality_desc": "\u05de\u05d8\u05d4 \u05d0\u05e9\u05e8", "Isolations": 56, "Total_Pop2017": 28148, "Iso_per_1000": 1}},
{"type": "Feature", "geometry": {"type": "Point", "coordinates": [35.5615764, 32.7453026]}, "properties": {"OBJECTID": 432667, "Municipality": 5506, "Municipality_desc": "\u05e2\u05de\u05e7 \u05d4\u05d9\u05e8\u05d3\u05df", "Isolations": 32, "Total_Pop2017": 13073, "Iso_per_1000": 2}},
{"type": "Feature", "geometry": {"type": "Point", "coordinates": [35.5079843, 32.4972912]}, "properties": {"OBJECTID": 432668, "Municipality": 5507, "Municipality_desc": "\u05e2\u05de\u05e7 \u05d4\u05de\u05e2\u05d9\u05d9\u05e0\u05d5\u05ea", "Isolations": 22, "Total_Pop2017": 12882, "Iso_per_1000": 1}},
{"type": "Feature", "geometry": {"type": "Point", "coordinates": [35.3895708, 32.5628228]}, "properties": {"OBJECTID": 432669, "Municipality": 5508, "Municipality_desc": "\u05d4\u05d2\u05dc\u05d1\u05d5\u05e2", "Isolations": 34, "Total_Pop2017": 29836, "Iso_per_1000": 1}},
{"type": "Feature", "geometry": {"type": "Point", "coordinates": [35.2527223, 32.6808326]}, "properties": {"OBJECTID": 432670, "Municipality": 5509, "Municipality_desc": "\u05e2\u05de\u05e7 \u05d9\u05d6\u05e8\u05e2\u05d0\u05dc", "Isolations": 45, "Total_Pop2017": 37143, "Iso_per_1000": 1}},
{"type": "Feature", "geometry": {"type": "Point", "coordinates": [35.1087042, 32.7706987]}, "properties": {"OBJECTID": 432671, "Municipality": 5512, "Municipality_desc": "\u05d6\u05d1\u05d5\u05dc\u05d5\u05df", "Isolations": 11, "Total_Pop2017": 11994, "Iso_per_1000": 0}},
{"type": "Feature", "geometry": {"type": "Point", "coordinates": [35.1290204, 32.5940782]}, "properties": {"OBJECTID": 432672, "Municipality": 5513, "Municipality_desc": "\u05de\u05d2\u05d9\u05d3\u05d5", "Isolations": 24, "Total_Pop2017": 11107, "Iso_per_1000": 2}},
{"type": "Feature", "geometry": {"type": "Point", "coordinates": [35.0291399, 32.467324]}, "properties": {"OBJECTID": 432673, "Municipality": 5514, "Municipality_desc": "\u05de\u05e0\u05e9\u05d4", "Isolations": 50, "Total_Pop2017": 17472, "Iso_per_1000": 2}},
{"type": "Feature", "geometry": {"type": "Point", "coordinates": [34.9647061, 32.637359]}, "properties": {"OBJECTID": 432674, "Municipality": 5515, "Municipality_desc": "\u05d7\u05d5\u05e3 \u05d4\u05db\u05e8\u05de\u05dc", "Isolations": 101, "Total_Pop2017": 28645, "Iso_per_1000": 3}},
{"type": "Feature", "geometry": {"type": "Point", "coordinates": [34.9402268, 32.3621023]}, "properties": {"OBJECTID": 432675, "Municipality": 5516, "Municipality_desc": "\u05e2\u05de\u05e7 \u05d7\u05e4\u05e8", "Isolations": 78, "Total_Pop2017": 37647, "Iso_per_1000": 2}},
{"type": "Feature", "geometry": {"type": "Point", "coordinates": [34.9415761, 32.2751595]}, "properties": {"OBJECTID": 432676, "Municipality": 5518, "Municipality_desc": "\u05dc\u05d1 \u05d4\u05e9\u05e8\u05d5\u05df", "Isolations": 51, "Total_Pop2017": 21541, "Iso_per_1000": 2}},
{"type": "Feature", "geometry": {"type": "Point", "coordinates": [34.8478737, 32.2288863]}, "properties": {"OBJECTID": 432677, "Municipality": 5519, "Municipality_desc": "\u05d7\u05d5\u05e3 \u05d4\u05e9\u05e8\u05d5\u05df", "Isolations": 17, "Total_Pop2017": 11163, "Iso_per_1000": 1}},
{"type": "Feature", "geometry": {"type": "Point", "coordinates": [34.9349625, 32.152416]}, "properties": {"OBJECTID": 432678, "Municipality": 5520, "Municipality_desc": "\u05d3\u05e8\u05d5\u05dd \u05d4\u05e9\u05e8\u05d5\u05df", "Isolations": 50, "Total_Pop2017": 30459, "Iso_per_1000": 1}},
{"type": "Feature", "geometry": {"type": "Point", "coordinates": [34.9536775, 31.9843283]}, "properties": {"OBJECTID": 432679, "Municipality": 5525, "Municipality_desc": "\u05d7\u05d1\u05dc \u05de\u05d5\u05d3\u05d9\u05e2\u05d9\u05df", "Isolations": 43, "Total_Pop2017": 21009, "Iso_per_1000": 2}},
{"type": "Feature", "geometry": {"type": "Point", "coordinates": [34.988501, 31.7470147]}, "properties": {"OBJECTID": 432680, "Municipality": 5526, "Municipality_desc": "\u05de\u05d8\u05d4 \u05d9\u05d4\u05d5\u05d3\u05d4", "Isolations": 146, "Total_Pop2017": 51540, "Iso_per_1000": 2}},
{"type": "Feature", "geometry": {"type": "Point", "coordinates": [34.7388071, 31.9194078]}, "properties": {"OBJECTID": 432681, "Municipality": 5527, "Municipality_desc": "\u05d2\u05df \u05e8\u05d5\u05d5\u05d4", "Isolations": 28, "Total_Pop2017": 5522, "Iso_per_1000": 5}},
{"type": "Feature", "geometry": {"type": "Point", "coordinates": [34.7913235, 31.8455398]}, "properties": {"OBJECTID": 432682, "Municipality": 5528, "Municipality_desc": "\u05d1\u05e8\u05e0\u05e8", "Isolations": 19, "Total_Pop2017": 7428, "Iso_per_1000": 2}},
{"type": "Feature", "geometry": {"type": "Point", "coordinates": [34.706613, 31.84315]}, "properties": {"OBJECTID": 432683, "Municipality": 5529, "Municipality_desc": "\u05d7\u05d1\u05dc \u05d9\u05d1\u05e0\u05d4", "Isolations": 18, "Total_Pop2017": 5428, "Iso_per_1000": 3}},
{"type": "Feature", "geometry": {"type": "Point", "coordinates": [34.8925819, 31.8718112]}, "properties": {"OBJECTID": 432684, "Municipality": 5530, "Municipality_desc": "\u05d2\u05d6\u05e8", "Isolations": 225, "Total_Pop2017": 25806, "Iso_per_1000": 8}},
{"type": "Feature", "geometry": {"type": "Point", "coordinates": [34.8180309, 31.7984322]}, "properties": {"OBJECTID": 432685, "Municipality": 5531, "Municipality_desc": "\u05e0\u05d7\u05dc \u05e9\u05d5\u05e8\u05e7", "Isolations": 6, "Total_Pop2017": 9055, "Iso_per_1000": 0}},
{"type": "Feature", "geometry": {"type": "Point", "coordinates": [34.71682, 31.7441147]}, "properties": {"OBJECTID": 432686, "Municipality": 5533, "Municipality_desc": "\u05d1\u05d0\u05e8 \u05d8\u05d5\u05d1\u05d9\u05d4", "Isolations": 30, "Total_Pop2017": 21072, "Iso_per_1000": 1}},
{"type": "Feature", "geometry": {"type": "Point", "coordinates": [34.7358653, 31.6336779]}, "properties": {"OBJECTID": 432687, "Municipality": 5534, "Municipality_desc": "\u05e9\u05e4\u05d9\u05e8", "Isolations": 27, "Total_Pop2017": 10681, "Iso_per_1000": 2}},
{"type": "Feature", "geometry": {"type": "Point", "coordinates": [34.8175893, 31.6741295]}, "properties": {"OBJECTID": 432688, "Municipality": 5535, "Municipality_desc": "\u05d9\u05d5\u05d0\u05d1", "Isolations": 19, "Total_Pop2017": 8342, "Iso_per_1000": 2}},
{"type": "Feature", "geometry": {"type": "Point", "coordinates": [34.6032192, 31.635332]}, "properties": {"OBJECTID": 432689, "Municipality": 5536, "Municipality_desc": "\u05d7\u05d5\u05e3 \u05d0\u05e9\u05e7\u05dc\u05d5\u05df", "Isolations": 63, "Total_Pop2017": 16895, "Iso_per_1000": 3}},
{"type": "Feature", "geometry": {"type": "Point", "coordinates": [34.617641, 31.510095]}, "properties": {"OBJECTID": 432690, "Municipality": 5537, "Municipality_desc": "\u05e9\u05e2\u05e8 \u05d4\u05e0\u05d2\u05d1", "Isolations": 10, "Total_Pop2017": 7332, "Iso_per_1000": 1}},
{"type": "Feature", "geometry": {"type": "Point", "coordinates": [34.4290683, 31.2269225]}, "properties": {"OBJECTID": 432691, "Municipality": 5538, "Municipality_desc": "\u05d0\u05e9\u05db\u05d5\u05dc", "Isolations": 23, "Total_Pop2017": 13717, "Iso_per_1000": 1}},
{"type": "Feature", "geometry": {"type": "Point", "coordinates": [34.5602544, 31.4224149]}, "properties": {"OBJECTID": 432692, "Municipality": 5539, "Municipality_desc": "\u05e9\u05d3\u05d5\u05ea \u05e0\u05d2\u05d1", "Isolations": 49, "Total_Pop2017": 10205, "Iso_per_1000": 4}},
{"type": "Feature", "geometry": {"type": "Point", "coordinates": [34.8569939, 31.986437]}, "properties": {"OBJECTID": 432693, "Municipality": 5540, "Municipality_desc": "\u05e2\u05de\u05e7 \u05dc\u05d5\u05d3", "Isolations": 62, "Total_Pop2017": 14844, "Iso_per_1000": 4}},
{"type": "Feature", "geometry": {"type": "Point", "coordinates": [34.7747107, 31.3429772]}, "properties": {"OBJECTID": 432694, "Municipality": 5541, "Municipality_desc": "\u05d1\u05e0\u05d9 \u05e9\u05de\u05e2\u05d5\u05df", "Isolations": 46, "Total_Pop2017": 9799, "Iso_per_1000": 4}},
{"type": "Feature", "geometry": {"type": "Point", "coordinates": [34.6246977, 31.2789739]}, "properties": {"OBJECTID": 432695, "Municipality": 5542, "Municipality_desc": "\u05de\u05e8\u05d7\u05d1\u05d9\u05dd", "Isolations": 39, "Total_Pop2017": 12657, "Iso_per_1000": 3}},
{"type": "Feature", "geometry": {"type": "Point", "coordinates": [34.7218691, 30.7777587]}, "properties": {"OBJECTID": 432696, "Municipality": 5548, "Municipality_desc": "\u05e8\u05de\u05ea \u05e0\u05d2\u05d1", "Isolations": 21, "Total_Pop2017": 6557, "Iso_per_1000": 3}},
{"type": "Feature", "geometry": {"type": "Point", "coordinates": [34.822982, 31.5363395]}, "properties": {"OBJECTID": 432697, "Municipality": 5550, "Municipality_desc": "\u05dc\u05db\u05d9\u05e9", "Isolations": 42, "Total_Pop2017": 11165, "Iso_per_1000": 3}},
{"type": "Feature", "geometry": {"type": "Point", "coordinates": [35.279598, 33.0467394]}, "properties": {"OBJECTID": 432698, "Municipality": 5552, "Municipality_desc": "\u05de\u05e2\u05dc\u05d4 \u05d9\u05d5\u05e1\u05e3", "Isolations": 36, "Total_Pop2017": 10506, "Iso_per_1000": 3}},
{"type": "Feature", "geometry": {"type": "Point", "coordinates": [35.5661447, 33.0571858]}, "properties": {"OBJECTID": 432699, "Municipality": 5555, "Municipality_desc": "\u05de\u05d1\u05d5\u05d0\u05d5\u05ea \u05d4\u05d7\u05e8\u05de\u05d5\u05df", "Isolations": 14, "Total_Pop2017": 6984, "Iso_per_1000": 2}},
{"type": "Feature", "geometry": {"type": "Point", "coordinates": [35.2758095, 32.8780456]}, "properties": {"OBJECTID": 432700, "Municipality": 5556, "Municipality_desc": "\u05de\u05e9\u05d2\u05d1", "Isolations": 62, "Total_Pop2017": 27919, "Iso_per_1000": 2}},
{"type": "Feature", "geometry": {"type": "Point", "coordinates": [35.3334284, 32.7895782]}, "properties": {"OBJECTID": 432701, "Municipality": 5565, "Municipality_desc": "\u05d0\u05dc-\u05d1\u05d8\u05d5\u05e3", "Isolations": 2, "Total_Pop2017": 8099, "Iso_per_1000": 0}},
{"type": "Feature", "geometry": {"type": "Point", "coordinates": [35.3811937, 32.6303456]}, "properties": {"OBJECTID": 432702, "Municipality": 5566, "Municipality_desc": "\u05d1\u05d5\u05e1\u05ea\u05df-\u05d0\u05dc-\u05de\u05e8\u05d2'", "Isolations": 3, "Total_Pop2017": 8293, "Iso_per_1000": 0}},
{"type": "Feature", "geometry": {"type": "Point", "coordinates": [34.9041599, 31.1222057]}, "properties": {"OBJECTID": 432703, "Municipality": 5568, "Municipality_desc": "\u05e0\u05d5\u05d5\u05d4 \u05de\u05d3\u05d1\u05e8", "Isolations": 16, "Total_Pop2017": 7675, "Iso_per_1000": 2}},
{"type": "Feature", "geometry": {"type": "Point", "coordinates": [34.9763909, 31.2775239]}, "properties": {"OBJECTID": 432704, "Municipality": 5569, "Municipality_desc": "\u05d0\u05dc \u05e7\u05e1\u05d5\u05dd", "Isolations": 2, "Total_Pop2017": 11853, "Iso_per_1000": 0}},
{"type": "Feature", "geometry": {"type": "Point", "coordinates": [35.7410467, 33.000379]}, "properties": {"OBJECTID": 432705, "Municipality": 5571, "Municipality_desc": "\u05d2\u05d5\u05dc\u05df", "Isolations": 27, "Total_Pop2017": 16924, "Iso_per_1000": 1}},
{"type": "Feature", "geometry": {"type": "Point", "coordinates": [35.321106, 32.4476929]}, "properties": {"OBJECTID": 432706, "Municipality": 5572, "Municipality_desc": "\u05e9\u05d5\u05de\u05e8\u05d5\u05df", "Isolations": 99, "Total_Pop2017": 43420, "Iso_per_1000": 2}},
{"type": "Feature", "geometry": {"type": "Point", "coordinates": [35.2229004, 31.9389038]}, "properties": {"OBJECTID": 432707, "Municipality": 5573, "Municipality_desc": "\u05de\u05d8\u05d4 \u05d1\u05e0\u05d9\u05de\u05d9\u05df", "Isolations": 76, "Total_Pop2017": 63442, "Iso_per_1000": 1}},
{"type": "Feature", "geometry": {"type": "Point", "coordinates": [35.4447021, 32.0004883]}, "properties": {"OBJECTID": 432708, "Municipality": 5575, "Municipality_desc": "\u05e2\u05e8\u05d1\u05d5\u05ea \u05d4\u05d9\u05e8\u05d3\u05df", "Isolations": 1, "Total_Pop2017": 5430, "Iso_per_1000": 0}},
{"type": "Feature", "geometry": {"type": "Point", "coordinates": [35.1713257, 31.7221069]}, "properties": {"OBJECTID": 432709, "Municipality": 5576, "Municipality_desc": "\u05d2\u05d5\u05e9 \u05e2\u05e6\u05d9\u05d5\u05df", "Isolations": 52, "Total_Pop2017": 23359, "Iso_per_1000": 2}},
{"type": "Feature", "geometry": {"type": "Point", "coordinates": [35.0333252, 31.5618896]}, "properties": {"OBJECTID": 432710, "Municipality": 5578, "Municipality_desc": "\u05d4\u05e8 \u05d7\u05d1\u05e8\u05d5\u05df", "Isolations": 33, "Total_Pop2017": 8844, "Iso_per_1000": 3}},
{"type": "Feature", "geometry": {"type": "Point", "coordinates": [35.0403653, 32.4205244]}, "properties": {"OBJECTID": 432711, "Municipality": 6000, "Municipality_desc": "\u05d1\u05d0\u05e7\u05d4 \u05d0\u05dc-\u05d2\u05e8\u05d1\u05d9\u05d4", "Isolations": 75, "Total_Pop2017": 29035, "Iso_per_1000": 2}},
{"type": "Feature", "geometry": {"type": "Point", "coordinates": [34.8358869, 32.0900965]}, "properties": {"OBJECTID": 432712, "Municipality": 6100, "Municipality_desc": "\u05d1\u05e0\u05d9 \u05d1\u05e8\u05e7", "Isolations": 226, "Total_Pop2017": 195298, "Iso_per_1000": 1}},
{"type": "Feature", "geometry": {"type": "Point", "coordinates": [34.7473626, 32.0144303]}, "properties": {"OBJECTID": 432713, "Municipality": 6200, "Municipality_desc": "\u05d1\u05ea \u05d9\u05dd", "Isolations": 187, "Total_Pop2017": 130523, "Iso_per_1000": 1}},
{"type": "Feature", "geometry": {"type": "Point", "coordinates": [34.8103965, 32.0703517]}, "properties": {"OBJECTID": 432714, "Municipality": 6300, "Municipality_desc": "\u05d2\u05d1\u05e2\u05ea\u05d9\u05d9\u05dd", "Isolations": 76, "Total_Pop2017": 55123, "Iso_per_1000": 1}},
{"type": "Feature", "geometry": {"type": "Point", "coordinates": [34.8237809, 32.1687238]}, "properties": {"OBJECTID": 432715, "Municipality": 6400, "Municipality_desc": "\u05d4\u05e8\u05e6\u05dc\u05d9\u05d4", "Isolations": 366, "Total_Pop2017": 90900, "Iso_per_1000": 4}},
{"type": "Feature", "geometry": {"type": "Point", "coordinates": [34.9126186, 32.4374398]}, "properties": {"OBJECTID": 432716, "Municipality": 6500, "Municipality_desc": "\u05d7\u05d3\u05e8\u05d4", "Isolations": 328, "Total_Pop2017": 94104, "Iso_per_1000": 3}},
{"type": "Feature", "geometry": {"type": "Point", "coordinates": [34.7834647, 32.0106492]}, "properties": {"OBJECTID": 432717, "Municipality": 6600, "Municipality_desc": "\u05d7\u05d5\u05dc\u05d5\u05df", "Isolations": 429, "Total_Pop2017": 185741, "Iso_per_1000": 2}},
{"type": "Feature", "geometry": {"type": "Point", "coordinates": [35.5265221, 32.7826516]}, "properties": {"OBJECTID": 432718, "Municipality": 6700, "Municipality_desc": "\u05d8\u05d1\u05e8\u05d9\u05d4", "Isolations": 89, "Total_Pop2017": 44353, "Iso_per_1000": 2}},
{"type": "Feature", "geometry": {"type": "Point", "coordinates": [35.1075274, 32.8060147]}, "properties": {"OBJECTID": 432719, "Municipality": 6800, "Municipality_desc": "\u05e7\u05e8\u05d9\u05ea \u05d0\u05ea\u05d0", "Isolations": 189, "Total_Pop2017": 57108, "Iso_per_1000": 3}},
{"type": "Feature", "geometry": {"type": "Point", "coordinates": [34.9178012, 32.1823638]}, "properties": {"OBJECTID": 432720, "Municipality": 6900, "Municipality_desc": "\u05db\u05e4\u05e8 \u05e1\u05d1\u05d0", "Isolations": 211, "Total_Pop2017": 97412, "Iso_per_1000": 2}},
{"type": "Feature", "geometry": {"type": "Point", "coordinates": [34.8919924, 31.954082]}, "properties": {"OBJECTID": 432721, "Municipality": 7000, "Municipality_desc": "\u05dc\u05d5\u05d3", "Isolations": 84, "Total_Pop2017": 75038, "Iso_per_1000": 1}},
{"type": "Feature", "geometry": {"type": "Point", "coordinates": [34.5683495, 31.6656585]}, "properties": {"OBJECTID": 432722, "Municipality": 7100, "Municipality_desc": "\u05d0\u05e9\u05e7\u05dc\u05d5\u05df", "Isolations": 165, "Total_Pop2017": 139032, "Iso_per_1000": 1}},
{"type": "Feature", "geometry": {"type": "Point", "coordinates": [34.7924217, 31.9222352]}, "properties": {"OBJECTID": 432723, "Municipality": 7200, "Municipality_desc": "\u05e0\u05e1 \u05e6\u05d9\u05d5\u05e0\u05d4", "Isolations": 80, "Total_Pop2017": 45714, "Iso_per_1000": 1}},
{"type": "Feature", "geometry": {"type": "Point", "coordinates": [35.2901774, 32.7039497]}, "properties": {"OBJECTID": 432724, "Municipality": 7300, "Municipality_desc": "\u05e0\u05e6\u05e8\u05ea", "Isolations": 57, "Total_Pop2017": 78252, "Iso_per_1000": 0}},
{"type": "Feature", "geometry": {"type": "Point", "coordinates": [34.8580231, 32.3055793]}, "properties": {"OBJECTID": 432725, "Municipality": 7400, "Municipality_desc": "\u05e0\u05ea\u05e0\u05d9\u05d4", "Isolations": 458, "Total_Pop2017": 213971, "Iso_per_1000": 2}},
{"type": "Feature", "geometry": {"type": "Point", "coordinates": [35.3088001, 32.864273]}, "properties": {"OBJECTID": 432726, "Municipality": 7500, "Municipality_desc": "\u05e1\u05d7'\u05e0\u05d9\u05df", "Isolations": 7, "Total_Pop2017": 32089, "Iso_per_1000": 0}},
{"type": "Feature", "geometry": {"type": "Point", "coordinates": [35.0852026, 32.9207499]}, "properties": {"OBJECTID": 432727, "Municipality": 7600, "Municipality_desc": "\u05e2\u05db\u05d5", "Isolations": 91, "Total_Pop2017": 50872, "Iso_per_1000": 1}},
{"type": "Feature", "geometry": {"type": "Point", "coordinates": [35.3059224, 32.612063]}, "properties": {"OBJECTID": 432728, "Municipality": 7700, "Municipality_desc": "\u05e2\u05e4\u05d5\u05dc\u05d4", "Isolations": 61, "Total_Pop2017": 50886, "Iso_per_1000": 1}},
{"type": "Feature", "geometry": {"type": "Point", "coordinates": [34.9732583, 32.4749137]}, "properties": {"OBJECTID": 432729, "Municipality": 7800, "Municipality_desc": "\u05e4\u05e8\u05d3\u05e1 \u05d7\u05e0\u05d4-\u05db\u05e8\u05db\u05d5\u05e8", "Isolations": 326, "Total_Pop2017": 40622, "Iso_per_1000": 8}},
{"type": "Feature", "geometry": {"type": "Point", "coordinates": [34.8854907, 32.0948512]}, "properties": {"OBJECTID": 432730, "Municipality": 7900, "Municipality_desc": "\u05e4\u05ea\u05d7 \u05ea\u05e7\u05d5\u05d5\u05d4", "Isolations": 474, "Total_Pop2017": 242478, "Iso_per_1000": 1}},
{"type": "Feature", "geometry": {"type": "Point", "coordinates": [35.5044528, 32.9560445]}, "properties": {"OBJECTID": 432731, "Municipality": 8000, "Municipality_desc": "\u05e6\u05e4\u05ea", "Isolations": 51, "Total_Pop2017": 35671, "Iso_per_1000": 1}},
{"type": "Feature", "geometry": {"type": "Point", "coordinates": [35.0829844, 32.8422929]}, "properties": {"OBJECTID": 432732, "Municipality": 8200, "Municipality_desc": "\u05e7\u05e8\u05d9\u05ea \u05de\u05d5\u05e6\u05e7\u05d9\u05df", "Isolations": 60, "Total_Pop2017": 42870, "Iso_per_1000": 1}},
{"type": "Feature", "geometry": {"type": "Point", "coordinates": [34.7787794, 31.9707147]}, "properties": {"OBJECTID": 432733, "Municipality": 8300, "Municipality_desc": "\u05e8\u05d0\u05e9\u05d5\u05df \u05dc\u05e6\u05d9\u05d5\u05df", "Isolations": 388, "Total_Pop2017": 241010, "Iso_per_1000": 1}},
{"type": "Feature", "geometry": {"type": "Point", "coordinates": [34.8095043, 31.8953912]}, "properties": {"OBJECTID": 432734, "Municipality": 8400, "Municipality_desc": "\u05e8\u05d7\u05d5\u05d1\u05d5\u05ea", "Isolations": 456, "Total_Pop2017": 137178, "Iso_per_1000": 3}},
{"type": "Feature", "geometry": {"type": "Point", "coordinates": [34.8706641, 31.9270636]}, "properties": {"OBJECTID": 432735, "Municipality": 8500, "Municipality_desc": "\u05e8\u05de\u05dc\u05d4", "Isolations": 106, "Total_Pop2017": 75246, "Iso_per_1000": 1}},
{"type": "Feature", "geometry": {"type": "Point", "coordinates": [34.8276088, 32.0640299]}, "properties": {"OBJECTID": 432736, "Municipality": 8600, "Municipality_desc": "\u05e8\u05de\u05ea \u05d2\u05df", "Isolations": 234, "Total_Pop2017": 143370, "Iso_per_1000": 1}},
{"type": "Feature", "geometry": {"type": "Point", "coordinates": [34.8666498, 32.1893305]}, "properties": {"OBJECTID": 432737, "Municipality": 8700, "Municipality_desc": "\u05e8\u05e2\u05e0\u05e0\u05d4", "Isolations": 172, "Total_Pop2017": 73979, "Iso_per_1000": 2}},
{"type": "Feature", "geometry": {"type": "Point", "coordinates": [35.1774067, 32.8020083]}, "properties": {"OBJECTID": 432738, "Municipality": 8800, "Municipality_desc": "\u05e9\u05e4\u05e8\u05e2\u05dd", "Isolations": 32, "Total_Pop2017": 40666, "Iso_per_1000": 0}},
{"type": "Feature", "geometry": {"type": "Point", "coordinates": [35.1814714, 32.8517376]}, "properties": {"OBJECTID": 432739, "Municipality": 8900, "Municipality_desc": "\u05d8\u05de\u05e8\u05d4", "Isolations": 7, "Total_Pop2017": 33792, "Iso_per_1000": 0}},
{"type": "Feature", "geometry": {"type": "Point", "coordinates": [34.7884375, 31.2569665]}, "properties": {"OBJECTID": 432740, "Municipality": 9000, "Municipality_desc": "\u05d1\u05d0\u05e8 \u05e9\u05d1\u05e2", "Isolations": 553, "Total_Pop2017": 196755, "Iso_per_1000": 2}},
{"type": "Feature", "geometry": {"type": "Point", "coordinates": [35.1018699, 33.013226]}, "properties": {"OBJECTID": 432741, "Municipality": 9100, "Municipality_desc": "\u05e0\u05d4\u05e8\u05d9\u05d4", "Isolations": 114, "Total_Pop2017": 58750, "Iso_per_1000": 1}},
{"type": "Feature", "geometry": {"type": "Point", "coordinates": [35.5004625, 32.4990455]}, "properties": {"OBJECTID": 432742, "Municipality": 9200, "Municipality_desc": "\u05d1\u05d9\u05ea \u05e9\u05d0\u05df", "Isolations": 53, "Total_Pop2017": 19058, "Iso_per_1000": 2}},
{"type": "Feature", "geometry": {"type": "Point", "coordinates": [34.9696526, 32.5666614]}, "properties": {"OBJECTID": 432743, "Municipality": 9300, "Municipality_desc": "\u05d6\u05db\u05e8\u05d5\u05df \u05d9\u05e2\u05e7\u05d1", "Isolations": 62, "Total_Pop2017": 22341, "Iso_per_1000": 2}},
{"type": "Feature", "geometry": {"type": "Point", "coordinates": [34.8854512, 32.0314415]}, "properties": {"OBJECTID": 432744, "Municipality": 9400, "Municipality_desc": "\u05d9\u05d4\u05d5\u05d3", "Isolations": 72, "Total_Pop2017": 29104, "Iso_per_1000": 2}},
{"type": "Feature", "geometry": {"type": "Point", "coordinates": [35.0959497, 32.8413135]}, "properties": {"OBJECTID": 432745, "Municipality": 9500, "Municipality_desc": "\u05e7\u05e8\u05d9\u05ea \u05d1\u05d9\u05d0\u05dc\u05d9\u05e7", "Isolations": 25, "Total_Pop2017": 39262, "Iso_per_1000": 0}},
{"type": "Feature", "geometry": {"type": "Point", "coordinates": [35.069503, 32.8503331]}, "properties": {"OBJECTID": 432746, "Municipality": 9600, "Municipality_desc": "\u05e7\u05e8\u05d9\u05ea \u05d9\u05dd", "Isolations": 32, "Total_Pop2017": 39556, "Iso_per_1000": 0}},
{"type": "Feature", "geometry": {"type": "Point", "coordinates": [34.8886515, 32.1473449]}, "properties": {"OBJECTID": 432747, "Municipality": 9700, "Municipality_desc": "\u05d4\u05d5\u05d3 \u05d4\u05e9\u05e8\u05d5\u05df", "Isolations": 124, "Total_Pop2017": 59171, "Iso_per_1000": 2}},
{"type": "Feature", "geometry": {"type": "Point", "coordinates": [34.9689984, 32.5184791]}, "properties": {"OBJECTID": 432748, "Municipality": 9800, "Municipality_desc": "\u05d1\u05e0\u05d9\u05de\u05d9\u05e0\u05d4-\u05d2\u05d1\u05e2\u05ea \u05e2\u05d3\u05d4", "Isolations": 25, "Total_Pop2017": 14383, "Iso_per_1000": 1}}
]}