{"type":"FeatureCollection","features":[
    {"type": "Feature", "geometry": {"type": "Point", "coordinates": [34.842933, 31.8408049]}, "properties": {"OBJECTID": 223236, "Municipality": 28, "Municipality_desc": "\u05de\u05d6\u05db\u05e8\u05ea \u05d1\u05ea\u05d9\u05d4", "Isolations": 1, "Total_Pop2017": 14949, "Iso_per_1000": 0}},
    {"type": "Feature", "geometry": {"type": "Point", "coordinates": [34.6248918, 31.3069002]}, "properties": {"OBJECTID": 223237, "Municipality": 31, "Municipality_desc": "\u05d0\u05d5\u05e4\u05e7\u05d9\u05dd", "Isolations": 31, "Total_Pop2017": 30185, "Iso_per_1000": 1}},
    {"type": "Feature", "geometry": {"type": "Point", "coordinates": [34.6572666, 31.8089036]}, "properties": {"OBJECTID": 223238, "Municipality": 70, "Municipality_desc": "\u05d0\u05e9\u05d3\u05d5\u05d3", "Isolations": 146, "Total_Pop2017": 225073, "Iso_per_1000": 0}},
    {"type": "Feature", "geometry": {"type": "Point", "coordinates": [34.9057225, 32.2422428]}, "properties": {"OBJECTID": 223239, "Municipality": 154, "Municipality_desc": "\u05ea\u05dc \u05de\u05d5\u05e0\u05d3", "Isolations": 5, "Total_Pop2017": 12593, "Iso_per_1000": 0}},
    {"type": "Feature", "geometry": {"type": "Point", "coordinates": [34.7026732, 31.7874688]}, "properties": {"OBJECTID": 223240, "Municipality": 166, "Municipality_desc": "\u05d2\u05df \u05d9\u05d1\u05e0\u05d4", "Isolations": 11, "Total_Pop2017": 22410, "Iso_per_1000": 0}},
    {"type": "Feature", "geometry": {"type": "Point", "coordinates": [34.9272244, 32.3220082]}, "properties": {"OBJECTID": 223241, "Municipality": 168, "Municipality_desc": "\u05db\u05e4\u05e8 \u05d9\u05d5\u05e0\u05d4", "Isolations": 5, "Total_Pop2017": 21301, "Iso_per_1000": 0}},
    {"type": "Feature", "geometry": {"type": "Point", "coordinates": [34.9091474, 32.3075915]}, "properties": {"OBJECTID": 223242, "Municipality": 171, "Municipality_desc": "\u05e4\u05e8\u05d3\u05e1\u05d9\u05d4", "Isolations": 1, "Total_Pop2017": 6027, "Iso_per_1000": 0}},
    {"type": "Feature", "geometry": {"type": "Point", "coordinates": [34.88377, 32.2679549]}, "properties": {"OBJECTID": 223243, "Municipality": 182, "Municipality_desc": "\u05d0\u05d1\u05df \u05d9\u05d4\u05d5\u05d3\u05d4", "Isolations": 18, "Total_Pop2017": 13263, "Iso_per_1000": 1}},
    {"type": "Feature", "geometry": {"type": "Point", "coordinates": [34.9130354, 32.2829329]}, "properties": {"OBJECTID": 223244, "Municipality": 195, "Municipality_desc": "\u05e7\u05d3\u05d9\u05de\u05d4-\u05e6\u05d5\u05e8\u05df", "Isolations": 4, "Total_Pop2017": 20831, "Iso_per_1000": 0}},
    {"type": "Feature", "geometry": {"type": "Point", "coordinates": [34.8740369, 32.0621998]}, "properties": {"OBJECTID": 223245, "Municipality": 229, "Municipality_desc": "\u05d2\u05e0\u05d9 \u05ea\u05e7\u05d5\u05d5\u05d4", "Isolations": 15, "Total_Pop2017": 18930, "Iso_per_1000": 0}},
    {"type": "Feature", "geometry": {"type": "Point", "coordinates": [35.0940454, 32.6497327]}, "properties": {"OBJECTID": 223246, "Municipality": 240, "Municipality_desc": "\u05d9\u05e7\u05e0\u05e2\u05dd \u05e2\u05d9\u05dc\u05d9\u05ea", "Isolations": 25, "Total_Pop2017": 22711, "Iso_per_1000": 1}},
    {"type": "Feature", "geometry": {"type": "Point", "coordinates": [34.5863833, 31.4213389]}, "properties": {"OBJECTID": 223247, "Municipality": 246, "Municipality_desc": "\u05e0\u05ea\u05d9\u05d1\u05d5\u05ea", "Isolations": 56, "Total_Pop2017": 36511, "Iso_per_1000": 1}},
    {"type": "Feature", "geometry": {"type": "Point", "coordinates": [34.8214802, 31.8617953]}, "properties": {"OBJECTID": 223248, "Municipality": 469, "Municipality_desc": "\u05e7\u05e8\u05d9\u05ea \u05e2\u05e7\u05e8\u05d5\u05df", "Isolations": 2, "Total_Pop2017": 10600, "Iso_per_1000": 0}},
    {"type": "Feature", "geometry": {"type": "Point", "coordinates": [35.1084759, 31.8068607]}, "properties": {"OBJECTID": 223249, "Municipality": 472, "Municipality_desc": "\u05d0\u05d1\u05d5 \u05d2\u05d5\u05e9", "Isolations": 1, "Total_Pop2017": 7792, "Iso_per_1000": 0}},
    {"type": "Feature", "geometry": {"type": "Point", "coordinates": [35.1616704, 32.9639159]}, "properties": {"OBJECTID": 223250, "Municipality": 473, "Municipality_desc": "\u05d0\u05d1\u05d5 \u05e1\u05e0\u05d0\u05df", "Isolations": 3, "Total_Pop2017": 13164, "Iso_per_1000": 0}},
    {"type": "Feature", "geometry": {"type": "Point", "coordinates": [35.3306539, 32.6735469]}, "properties": {"OBJECTID": 223251, "Municipality": 478, "Municipality_desc": "\u05d0\u05db\u05e1\u05d0\u05dc", "Isolations": 10, "Total_Pop2017": 14655, "Iso_per_1000": 0}},
    {"type": "Feature", "geometry": {"type": "Point", "coordinates": [35.3807043, 32.9656574]}, "properties": {"OBJECTID": 223252, "Municipality": 480, "Municipality_desc": "\u05d1\u05d9\u05ea \u05d2'\u05df", "Isolations": 7, "Total_Pop2017": 11757, "Iso_per_1000": 0}},
    {"type": "Feature", "geometry": {"type": "Point", "coordinates": [35.4119844, 32.8751056]}, "properties": {"OBJECTID": 223253, "Municipality": 481, "Municipality_desc": "\u05de\u05d2\u05d0\u05e8", "Isolations": 11, "Total_Pop2017": 22364, "Iso_per_1000": 0}},
    {"type": "Feature", "geometry": {"type": "Point", "coordinates": [35.3695084, 32.8119959]}, "properties": {"OBJECTID": 223254, "Municipality": 482, "Municipality_desc": "\u05d1\u05d5\u05e2\u05d9\u05d9\u05e0\u05d4-\u05e0\u05d5\u05d2'\u05d9\u05d3\u05d0\u05ea", "Isolations": 3, "Total_Pop2017": 9974, "Iso_per_1000": 0}},
    {"type": "Feature", "geometry": {"type": "Point", "coordinates": [35.2813448, 32.929245]}, "properties": {"OBJECTID": 223255, "Municipality": 483, "Municipality_desc": "\u05d1\u05e2\u05e0\u05d4", "Isolations": 78, "Total_Pop2017": 8355, "Iso_per_1000": 9}},
    {"type": "Feature", "geometry": {"type": "Point", "coordinates": [35.1811622, 32.9407903]}, "properties": {"OBJECTID": 223256, "Municipality": 485, "Municipality_desc": "\u05d2'\u05d5\u05dc\u05e1", "Isolations": 4, "Total_Pop2017": 6147, "Iso_per_1000": 0}},
    {"type": "Feature", "geometry": {"type": "Point", "coordinates": [35.3674137, 32.6892546]}, "properties": {"OBJECTID": 223257, "Municipality": 489, "Municipality_desc": "\u05d3\u05d1\u05d5\u05e8\u05d9\u05d4", "Isolations": 21, "Total_Pop2017": 10414, "Iso_per_1000": 2}},
    {"type": "Feature", "geometry": {"type": "Point", "coordinates": [35.2675806, 32.9408958]}, "properties": {"OBJECTID": 223258, "Municipality": 490, "Municipality_desc": "\u05d3\u05d9\u05d9\u05e8 \u05d0\u05dc-\u05d0\u05e1\u05d3", "Isolations": 325, "Total_Pop2017": 12435, "Iso_per_1000": 26}},
    {"type": "Feature", "geometry": {"type": "Point", "coordinates": [35.3683001, 32.8647155]}, "properties": {"OBJECTID": 223259, "Municipality": 492, "Municipality_desc": "\u05d3\u05d9\u05d9\u05e8 \u05d7\u05e0\u05d0", "Isolations": 2, "Total_Pop2017": 10567, "Iso_per_1000": 0}},
    {"type": "Feature", "geometry": {"type": "Point", "coordinates": [35.0512015, 32.6938391]}, "properties": {"OBJECTID": 223260, "Municipality": 494, "Municipality_desc": "\u05d3\u05d0\u05dc\u05d9\u05ea \u05d0\u05dc-\u05db\u05e8\u05de\u05dc", "Isolations": 7, "Total_Pop2017": 16993, "Iso_per_1000": 0}},
    {"type": "Feature", "geometry": {"type": "Point", "coordinates": [35.3461648, 33.0224354]}, "properties": {"OBJECTID": 223261, "Municipality": 496, "Municipality_desc": "\u05d7\u05d5\u05e8\u05e4\u05d9\u05e9", "Isolations": 3, "Total_Pop2017": 6288, "Iso_per_1000": 0}},
    {"type": "Feature", "geometry": {"type": "Point", "coordinates": [35.3810111, 32.7762805]}, "properties": {"OBJECTID": 223262, "Municipality": 498, "Municipality_desc": "\u05d8\u05d5\u05e8\u05e2\u05d0\u05df", "Isolations": 1, "Total_Pop2017": 14398, "Iso_per_1000": 0}},
    {"type": "Feature", "geometry": {"type": "Point", "coordinates": [35.2720805, 32.6831797]}, "properties": {"OBJECTID": 223263, "Municipality": 499, "Municipality_desc": "\u05d9\u05e4\u05d9\u05e2", "Isolations": 13, "Total_Pop2017": 19056, "Iso_per_1000": 0}},
    {"type": "Feature", "geometry": {"type": "Point", "coordinates": [35.2103295, 32.9570629]}, "properties": {"OBJECTID": 223264, "Municipality": 502, "Municipality_desc": "\u05d9\u05e8\u05db\u05d0", "Isolations": 4, "Total_Pop2017": 15418, "Iso_per_1000": 0}},
    {"type": "Feature", "geometry": {"type": "Point", "coordinates": [35.2060745, 32.872642]}, "properties": {"OBJECTID": 223265, "Municipality": 504, "Municipality_desc": "\u05db\u05d0\u05d1\u05d5\u05dc", "Isolations": 20, "Total_Pop2017": 12102, "Iso_per_1000": 1}},
    {"type": "Feature", "geometry": {"type": "Point", "coordinates": [35.1606115, 32.9511538]}, "properties": {"OBJECTID": 223266, "Municipality": 507, "Municipality_desc": "\u05db\u05e4\u05e8 \u05d9\u05d0\u05e1\u05d9\u05e3", "Isolations": 11, "Total_Pop2017": 10577, "Iso_per_1000": 1}},
    {"type": "Feature", "geometry": {"type": "Point", "coordinates": [35.3441974, 32.7544887]}, "properties": {"OBJECTID": 223267, "Municipality": 509, "Municipality_desc": "\u05db\u05e4\u05e8 \u05db\u05e0\u05d0", "Isolations": 21, "Total_Pop2017": 22449, "Iso_per_1000": 0}},
    {"type": "Feature", "geometry": {"type": "Point", "coordinates": [35.2608416, 32.8060803]}, "properties": {"OBJECTID": 223268, "Municipality": 510, "Municipality_desc": "\u05db\u05e4\u05e8 \u05de\u05e0\u05d3\u05d0", "Isolations": 1, "Total_Pop2017": 20003, "Iso_per_1000": 0}},
    {"type": "Feature", "geometry": {"type": "Point", "coordinates": [35.2621095, 32.7190571]}, "properties": {"OBJECTID": 223269, "Municipality": 511, "Municipality_desc": "\u05e2\u05d9\u05dc\u05d5\u05d8", "Isolations": 35, "Total_Pop2017": 8241, "Iso_per_1000": 4}},
    {"type": "Feature", "geometry": {"type": "Point", "coordinates": [35.2424503, 32.9163775]}, "properties": {"OBJECTID": 223270, "Municipality": 516, "Municipality_desc": "\u05de\u05d2'\u05d3 \u05d0\u05dc-\u05db\u05e8\u05d5\u05dd", "Isolations": 40, "Total_Pop2017": 15275, "Iso_per_1000": 2}},
    {"type": "Feature", "geometry": {"type": "Point", "coordinates": [35.3130769, 32.9349656]}, "properties": {"OBJECTID": 223271, "Municipality": 522, "Municipality_desc": "\u05e0\u05d7\u05e3", "Isolations": 18, "Total_Pop2017": 13167, "Iso_per_1000": 1}},
    {"type": "Feature", "geometry": {"type": "Point", "coordinates": [35.1793744, 32.8291581]}, "properties": {"OBJECTID": 223272, "Municipality": 529, "Municipality_desc": "\u05d0\u05e2\u05d1\u05dc\u05d9\u05df", "Isolations": 4, "Total_Pop2017": 13062, "Iso_per_1000": 0}},
    {"type": "Feature", "geometry": {"type": "Point", "coordinates": [35.4006965, 32.8416122]}, "properties": {"OBJECTID": 223273, "Municipality": 530, "Municipality_desc": "\u05e2\u05d9\u05d9\u05dc\u05d1\u05d5\u05df", "Isolations": 10, "Total_Pop2017": 5677, "Iso_per_1000": 1}},
    {"type": "Feature", "geometry": {"type": "Point", "coordinates": [35.339458, 32.8538956]}, "properties": {"OBJECTID": 223274, "Municipality": 531, "Municipality_desc": "\u05e2\u05e8\u05d0\u05d1\u05d4", "Isolations": 8, "Total_Pop2017": 25876, "Iso_per_1000": 0}},
    {"type": "Feature", "geometry": {"type": "Point", "coordinates": [35.3549286, 32.7187761]}, "properties": {"OBJECTID": 223275, "Municipality": 532, "Municipality_desc": "\u05e2\u05d9\u05df \u05de\u05d0\u05d4\u05dc", "Isolations": 6, "Total_Pop2017": 13388, "Iso_per_1000": 0}},
    {"type": "Feature", "geometry": {"type": "Point", "coordinates": [35.0632563, 32.7175881]}, "properties": {"OBJECTID": 223276, "Municipality": 534, "Municipality_desc": "\u05e2\u05e1\u05e4\u05d9\u05d0", "Isolations": 17, "Total_Pop2017": 12141, "Iso_per_1000": 1}},
    {"type": "Feature", "geometry": {"type": "Point", "coordinates": [35.3269322, 32.9727267]}, "properties": {"OBJECTID": 223277, "Municipality": 536, "Municipality_desc": "\u05e4\u05e7\u05d9\u05e2\u05d9\u05df (\u05d1\u05d5\u05e7\u05d9\u05d9\u05e2\u05d4)", "Isolations": 18, "Total_Pop2017": 5851, "Iso_per_1000": 3}},
    {"type": "Feature", "geometry": {"type": "Point", "coordinates": [34.9519897, 32.5978286]}, "properties": {"OBJECTID": 223278, "Municipality": 537, "Municipality_desc": "\u05e4\u05d5\u05e8\u05d9\u05d9\u05d3\u05d9\u05e1", "Isolations": 16, "Total_Pop2017": 13133, "Iso_per_1000": 1}},
    {"type": "Feature", "geometry": {"type": "Point", "coordinates": [35.2252698, 32.8926277]}, "properties": {"OBJECTID": 223279, "Municipality": 538, "Municipality_desc": "\u05e9\u05e2\u05d1", "Isolations": 8, "Total_Pop2017": 7191, "Iso_per_1000": 1}},
    {"type": "Feature", "geometry": {"type": "Point", "coordinates": [34.9074537, 32.5368141]}, "properties": {"OBJECTID": 223280, "Municipality": 541, "Municipality_desc": "\u05d2'\u05e1\u05e8 \u05d0-\u05d6\u05e8\u05e7\u05d0", "Isolations": 24, "Total_Pop2017": 14732, "Iso_per_1000": 1}},
    {"type": "Feature", "geometry": {"type": "Point", "coordinates": [35.305775, 32.7287043]}, "properties": {"OBJECTID": 223281, "Municipality": 542, "Municipality_desc": "\u05e8\u05d9\u05d9\u05e0\u05d4", "Isolations": 5, "Total_Pop2017": 16614, "Iso_per_1000": 0}},
    {"type": "Feature", "geometry": {"type": "Point", "coordinates": [35.3718939, 32.9331169]}, "properties": {"OBJECTID": 223282, "Municipality": 543, "Municipality_desc": "\u05e8\u05d0\u05de\u05d4", "Isolations": 2, "Total_Pop2017": 8243, "Iso_per_1000": 0}},
    {"type": "Feature", "geometry": {"type": "Point", "coordinates": [34.8076814, 32.02322]}, "properties": {"OBJECTID": 223283, "Municipality": 565, "Municipality_desc": "\u05d0\u05d6\u05d5\u05e8", "Isolations": 4, "Total_Pop2017": 11819, "Iso_per_1000": 0}},
    {"type": "Feature", "geometry": {"type": "Point", "coordinates": [34.9486772, 32.1496242]}, "properties": {"OBJECTID": 223284, "Municipality": 627, "Municipality_desc": "\u05d2'\u05dc\u05d2'\u05d5\u05dc\u05d9\u05d4", "Isolations": 9, "Total_Pop2017": 10011, "Iso_per_1000": 0}},{"type": "Feature", "geometry": {"type": "Point", "coordinates": [35.029525, 32.4019991]}, "properties": {"OBJECTID": 223285, "Municipality": 628, "Municipality_desc": "\u05d2'\u05ea", "Isolations": 32, "Total_Pop2017": 11910, "Iso_per_1000": 2}},{"type": "Feature", "geometry": {"type": "Point", "coordinates": [34.9671584, 32.1171793]}, "properties": {"OBJECTID": 223286, "Municipality": 634, "Municipality_desc": "\u05db\u05e4\u05e8 \u05e7\u05d0\u05e1\u05dd", "Isolations": 21, "Total_Pop2017": 23517, "Iso_per_1000": 0}},{"type": "Feature", "geometry": {"type": "Point", "coordinates": [35.092163, 32.5015511]}, "properties": {"OBJECTID": 223287, "Municipality": 637, "Municipality_desc": "\u05e2\u05e8\u05e2\u05e8\u05d4", "Isolations": 16, "Total_Pop2017": 19667, "Iso_per_1000": 0}},{"type": "Feature", "geometry": {"type": "Point", "coordinates": [34.977132, 32.292474]}, "properties": {"OBJECTID": 223288, "Municipality": 638, "Municipality_desc": "\u05e7\u05dc\u05e0\u05e1\u05d5\u05d5\u05d4", "Isolations": 13, "Total_Pop2017": 22740, "Iso_per_1000": 0}},{"type": "Feature", "geometry": {"type": "Point", "coordinates": [35.0478208, 32.5051833]}, "properties": {"OBJECTID": 223289, "Municipality": 654, "Municipality_desc": "\u05db\u05e4\u05e8 \u05e7\u05e8\u05e2", "Isolations": 4, "Total_Pop2017": 18820, "Iso_per_1000": 0}},{"type": "Feature", "geometry": {"type": "Point", "coordinates": [34.8479513, 31.2756395]}, "properties": {"OBJECTID": 223290, "Municipality": 666, "Municipality_desc": "\u05e2\u05d5\u05de\u05e8", "Isolations": 3, "Total_Pop2017": 8016, "Iso_per_1000": 0}},{"type": "Feature", "geometry": {"type": "Point", "coordinates": [34.8517719, 32.076993]}, "properties": {"OBJECTID": 223291, "Municipality": 681, "Municipality_desc": "\u05d2\u05d1\u05e2\u05ea \u05e9\u05de\u05d5\u05d0\u05dc", "Isolations": 16, "Total_Pop2017": 24538, "Iso_per_1000": 0}},{"type": "Feature", "geometry": {"type": "Point", "coordinates": [35.1470798, 33.0716666]}, "properties": {"OBJECTID": 223292, "Municipality": 812, "Municipality_desc": "\u05e9\u05dc\u05d5\u05de\u05d9", "Isolations": 11, "Total_Pop2017": 6478, "Iso_per_1000": 1}},{"type": "Feature", "geometry": {"type": "Point", "coordinates": [34.9193959, 30.9893922]}, "properties": {"OBJECTID": 223293, "Municipality": 831, "Municipality_desc": "\u05d9\u05e8\u05d5\u05d7\u05dd", "Isolations": 16, "Total_Pop2017": 10126, "Iso_per_1000": 1}},{"type": "Feature", "geometry": {"type": "Point", "coordinates": [35.2440083, 32.6816459]}, "properties": {"OBJECTID": 223294, "Municipality": 874, "Municipality_desc": "\u05de\u05d2\u05d3\u05dc \u05d4\u05e2\u05de\u05e7", "Isolations": 7, "Total_Pop2017": 26058, "Iso_per_1000": 0}},{"type": "Feature", "geometry": {"type": "Point", "coordinates": [35.398358, 32.6869892]}, "properties": {"OBJECTID": 223295, "Municipality": 913, "Municipality_desc": "\u05e9\u05d1\u05dc\u05d9 - \u05d0\u05d5\u05dd \u05d0\u05dc-\u05d2\u05e0\u05dd", "Isolations": 3, "Total_Pop2017": 6367, "Iso_per_1000": 0}},{"type": "Feature", "geometry": {"type": "Point", "coordinates": [35.1089347, 32.749605]}, "properties": {"OBJECTID": 223296, "Municipality": 922, "Municipality_desc": "\u05e8\u05db\u05e1\u05d9\u05dd", "Isolations": 1, "Total_Pop2017": 11841, "Iso_per_1000": 0}},{"type": "Feature", "geometry": {"type": "Point", "coordinates": [35.1831276, 32.7505207]}, "properties": {"OBJECTID": 223297, "Municipality": 978, "Municipality_desc": "\u05db\u05e2\u05d1\u05d9\u05d4-\u05d8\u05d1\u05d0\u05e9-\u05d7\u05d2'\u05d0\u05d2'\u05e8\u05d4", "Isolations": 2, "Total_Pop2017": 5780, "Iso_per_1000": 0}},{"type": "Feature", "geometry": {"type": "Point", "coordinates": [35.2231601, 32.7845299]}, "properties": {"OBJECTID": 223298, "Municipality": 998, "Municipality_desc": "\u05d1\u05d9\u05e8 \u05d0\u05dc-\u05de\u05db\u05e1\u05d5\u05e8", "Isolations": 2, "Total_Pop2017": 9866, "Iso_per_1000": 0}},{"type": "Feature", "geometry": {"type": "Point", "coordinates": [35.1505592, 31.7988716]}, "properties": {"OBJECTID": 223299, "Municipality": 1015, "Municipality_desc": "\u05de\u05d1\u05e9\u05e8\u05ea \u05e6\u05d9\u05d5\u05df", "Isolations": 8, "Total_Pop2017": 23093, "Iso_per_1000": 0}},{"type": "Feature", "geometry": {"type": "Point", "coordinates": [34.9219498, 32.5065326]}, "properties": {"OBJECTID": 223300, "Municipality": 1020, "Municipality_desc": "\u05d0\u05d5\u05e8 \u05e2\u05e7\u05d9\u05d1\u05d0", "Isolations": 1, "Total_Pop2017": 18893, "Iso_per_1000": 0}},{"type": "Feature", "geometry": {"type": "Point", "coordinates": [34.595834, 31.5287111]}, "properties": {"OBJECTID": 223301, "Municipality": 1031, "Municipality_desc": "\u05e9\u05d3\u05e8\u05d5\u05ea", "Isolations": 17, "Total_Pop2017": 25891, "Iso_per_1000": 0}},{"type": "Feature", "geometry": {"type": "Point", "coordinates": [34.748671, 31.7294204]}, "properties": {"OBJECTID": 223302, "Municipality": 1034, "Municipality_desc": "\u05e7\u05e8\u05d9\u05ea \u05de\u05dc\u05d0\u05db\u05d9", "Isolations": 40, "Total_Pop2017": 23691, "Iso_per_1000": 1}},{"type": "Feature", "geometry": {"type": "Point", "coordinates": [34.8670089, 31.248857]}, "properties": {"OBJECTID": 223303, "Municipality": 1054, "Municipality_desc": "\u05ea\u05dc \u05e9\u05d1\u05e2", "Isolations": 3, "Total_Pop2017": 19850, "Iso_per_1000": 0}},{"type": "Feature", "geometry": {"type": "Point", "coordinates": [35.0852024, 31.2419273]}, "properties": {"OBJECTID": 223304, "Municipality": 1059, "Municipality_desc": "\u05db\u05e1\u05d9\u05e4\u05d4", "Isolations": 2, "Total_Pop2017": 16957, "Iso_per_1000": 0}},{"type": "Feature", "geometry": {"type": "Point", "coordinates": [35.3464621, 32.7182999]}, "properties": {"OBJECTID": 223305, "Municipality": 1061, "Municipality_desc": "\u05e0\u05d5\u05e3 \u05d4\u05d2\u05dc\u05d9\u05dc", "Isolations": 57, "Total_Pop2017": 43811, "Iso_per_1000": 1}},{"type": "Feature", "geometry": {"type": "Point", "coordinates": [35.2762859, 33.0126856]}, "properties": {"OBJECTID": 223306, "Municipality": 1063, "Municipality_desc": "\u05de\u05e2\u05dc\u05d5\u05ea-\u05ea\u05e8\u05e9\u05d9\u05d7\u05d0", "Isolations": 16, "Total_Pop2017": 22261, "Iso_per_1000": 0}},{"type": "Feature", "geometry": {"type": "Point", "coordinates": [34.7610564, 31.7911028]}, "properties": {"OBJECTID": 223307, "Municipality": 1066, "Municipality_desc": "\u05d1\u05e0\u05d9 \u05e2\u05d9\"\u05e9", "Isolations": 5, "Total_Pop2017": 6837, "Iso_per_1000": 0}},{"type": "Feature", "geometry": {"type": "Point", "coordinates": [35.0996246, 31.8033884]}, "properties": {"OBJECTID": 223308, "Municipality": 1137, "Municipality_desc": "\u05e7\u05e8\u05d9\u05ea \u05d9\u05e2\u05e8\u05d9\u05dd", "Isolations": 5, "Total_Pop2017": 5713, "Iso_per_1000": 0}},{"type": "Feature", "geometry": {"type": "Point", "coordinates": [35.3055391, 32.9133894]}, "properties": {"OBJECTID": 223309, "Municipality": 1139, "Municipality_desc": "\u05db\u05e8\u05de\u05d9\u05d0\u05dc", "Isolations": 51, "Total_Pop2017": 46596, "Iso_per_1000": 1}},{"type": "Feature", "geometry": {"type": "Point", "coordinates": [34.7590167, 31.3901784]}, "properties": {"OBJECTID": 223310, "Municipality": 1161, "Municipality_desc": "\u05e8\u05d4\u05d8", "Isolations": 18, "Total_Pop2017": 64649, "Iso_per_1000": 0}},{"type": "Feature", "geometry": {"type": "Point", "coordinates": [35.0185668, 31.1554379]}, "properties": {"OBJECTID": 223311, "Municipality": 1192, "Municipality_desc": "\u05e2\u05e8\u05e2\u05e8\u05d4-\u05d1\u05e0\u05d2\u05d1", "Isolations": 4, "Total_Pop2017": 17465, "Iso_per_1000": 0}},{"type": "Feature", "geometry": {"type": "Point", "coordinates": [34.9899181, 31.8969751]}, "properties": {"OBJECTID": 223312, "Municipality": 1200, "Municipality_desc": "\u05de\u05d5\u05d3\u05d9\u05e2\u05d9\u05df-\u05de\u05db\u05d1\u05d9\u05dd-\u05e8\u05e2\u05d5\u05ea", "Isolations": 29, "Total_Pop2017": 87108, "Iso_per_1000": 0}},{"type": "Feature", "geometry": {"type": "Point", "coordinates": [34.9947651, 32.2212953]}, "properties": {"OBJECTID": 223313, "Municipality": 1224, "Municipality_desc": "\u05db\u05d5\u05db\u05d1 \u05d9\u05d0\u05d9\u05e8", "Isolations": 2, "Total_Pop2017": 9143, "Iso_per_1000": 0}},{"type": "Feature", "geometry": {"type": "Point", "coordinates": [35.0576135, 32.4633679]}, "properties": {"OBJECTID": 223314, "Municipality": 1247, "Municipality_desc": "\u05d7\u05e8\u05d9\u05e9", "Isolations": 11, "Total_Pop2017": 8737, "Iso_per_1000": 1}},{"type": "Feature", "geometry": {"type": "Point", "coordinates": [35.2602637, 32.9985212]}, "properties": {"OBJECTID": 223315, "Municipality": 1263, "Municipality_desc": "\u05db\u05e4\u05e8 \u05d5\u05e8\u05d3\u05d9\u05dd", "Isolations": 5, "Total_Pop2017": 5599, "Iso_per_1000": 0}},{"type": "Feature", "geometry": {"type": "Point", "coordinates": [34.9607523, 31.3280307]}, "properties": {"OBJECTID": 223316, "Municipality": 1268, "Municipality_desc": "\u05de\u05d9\u05ea\u05e8", "Isolations": 2, "Total_Pop2017": 9043, "Iso_per_1000": 0}},{"type": "Feature", "geometry": {"type": "Point", "coordinates": [34.8123458, 31.363147]}, "properties": {"OBJECTID": 223317, "Municipality": 1271, "Municipality_desc": "\u05dc\u05d4\u05d1\u05d9\u05dd", "Isolations": 8, "Total_Pop2017": 6178, "Iso_per_1000": 1}},{"type": "Feature", "geometry": {"type": "Point", "coordinates": [35.0332575, 32.3637888]}, "properties": {"OBJECTID": 223318, "Municipality": 1290, "Municipality_desc": "\u05d6\u05de\u05e8", "Isolations": 8, "Total_Pop2017": 6926, "Iso_per_1000": 1}},{"type": "Feature", "geometry": {"type": "Point", "coordinates": [35.1424004, 32.9326252]}, "properties": {"OBJECTID": 223319, "Municipality": 1292, "Municipality_desc": "\u05d2'\u05d3\u05d9\u05d9\u05d3\u05d4-\u05de\u05db\u05e8", "Isolations": 6, "Total_Pop2017": 20524, "Iso_per_1000": 0}},{"type": "Feature", "geometry": {"type": "Point", "coordinates": [35.2434097, 32.9792875]}, "properties": {"OBJECTID": 223320, "Municipality": 1295, "Municipality_desc": "\u05d9\u05d0\u05e0\u05d5\u05d7-\u05d2'\u05ea", "Isolations": 2, "Total_Pop2017": 6514, "Iso_per_1000": 0}},{"type": "Feature", "geometry": {"type": "Point", "coordinates": [35.2962352, 32.9697523]}, "properties": {"OBJECTID": 223321, "Municipality": 1296, "Municipality_desc": "\u05db\u05e1\u05e8\u05d0-\u05e1\u05de\u05d9\u05e2", "Isolations": 4, "Total_Pop2017": 8550, "Iso_per_1000": 0}},{"type": "Feature", "geometry": {"type": "Point", "coordinates": [34.9517401, 31.9992582]}, "properties": {"OBJECTID": 223322, "Municipality": 1304, "Municipality_desc": "\u05e9\u05d5\u05d4\u05dd", "Isolations": 15, "Total_Pop2017": 20041, "Iso_per_1000": 0}},{"type": "Feature", "geometry": {"type": "Point", "coordinates": [34.9564184, 32.0517719]}, "properties": {"OBJECTID": 223323, "Municipality": 1309, "Municipality_desc": "\u05d0\u05dc\u05e2\u05d3", "Isolations": 37, "Total_Pop2017": 46760, "Iso_per_1000": 0}},{"type": "Feature", "geometry": {"type": "Point", "coordinates": [35.1016977, 32.5169561]}, "properties": {"OBJECTID": 223324, "Municipality": 1326, "Municipality_desc": "\u05d1\u05e1\u05de\"\u05d4", "Isolations": 1, "Total_Pop2017": 10532, "Iso_per_1000": 0}},{"type": "Feature", "geometry": {"type": "Point", "coordinates": [35.1664457, 32.5507331]}, "properties": {"OBJECTID": 223325, "Municipality": 1327, "Municipality_desc": "\u05de\u05e2\u05dc\u05d4 \u05e2\u05d9\u05e8\u05d5\u05df", "Isolations": 4, "Total_Pop2017": 14861, "Iso_per_1000": 0}},{"type": "Feature", "geometry": {"type": "Point", "coordinates": [35.5418948, 32.9848217]}, "properties": {"OBJECTID": 223326, "Municipality": 2034, "Municipality_desc": "\u05d7\u05e6\u05d5\u05e8 \u05d4\u05d2\u05dc\u05d9\u05dc\u05d9\u05ea", "Isolations": 1, "Total_Pop2017": 9722, "Iso_per_1000": 0}},{"type": "Feature", "geometry": {"type": "Point", "coordinates": [34.9659998, 32.7651093]}, "properties": {"OBJECTID": 223327, "Municipality": 2100, "Municipality_desc": "\u05d8\u05d9\u05e8\u05ea \u05db\u05e8\u05de\u05dc", "Isolations": 3, "Total_Pop2017": 22243, "Iso_per_1000": 0}},{"type": "Feature", "geometry": {"type": "Point", "coordinates": [35.0801861, 31.0551806]}, "properties": {"OBJECTID": 223328, "Municipality": 2200, "Municipality_desc": "\u05d3\u05d9\u05de\u05d5\u05e0\u05d4", "Isolations": 23, "Total_Pop2017": 35377, "Iso_per_1000": 0}},{"type": "Feature", "geometry": {"type": "Point", "coordinates": [35.1223323, 32.7137383]}, "properties": {"OBJECTID": 223329, "Municipality": 2300, "Municipality_desc": "\u05e7\u05e8\u05d9\u05ea \u05d8\u05d1\u05e2\u05d5\u05df", "Isolations": 3, "Total_Pop2017": 15831, "Iso_per_1000": 0}},{"type": "Feature", "geometry": {"type": "Point", "coordinates": [34.8517552, 32.0283378]}, "properties": {"OBJECTID": 223330, "Municipality": 2400, "Municipality_desc": "\u05d0\u05d5\u05e8 \u05d9\u05d4\u05d5\u05d3\u05d4", "Isolations": 23, "Total_Pop2017": 34843, "Iso_per_1000": 0}},{"type": "Feature", "geometry": {"type": "Point", "coordinates": [35.0429989, 32.7656715]}, "properties": {"OBJECTID": 223331, "Municipality": 2500, "Municipality_desc": "\u05e0\u05e9\u05e8", "Isolations": 6, "Total_Pop2017": 22032, "Iso_per_1000": 0}},{"type": "Feature", "geometry": {"type": "Point", "coordinates": [34.8403765, 31.9444319]}, "properties": {"OBJECTID": 223332, "Municipality": 2530, "Municipality_desc": "\u05d1\u05d0\u05e8 \u05d9\u05e2\u05e7\u05d1", "Isolations": 8, "Total_Pop2017": 24216, "Iso_per_1000": 0}},{"type": "Feature", "geometry": {"type": "Point", "coordinates": [34.7772952, 31.8148594]}, "properties": {"OBJECTID": 223333, "Municipality": 2550, "Municipality_desc": "\u05d2\u05d3\u05e8\u05d4", "Isolations": 12, "Total_Pop2017": 24633, "Iso_per_1000": 0}},{"type": "Feature", "geometry": {"type": "Point", "coordinates": [35.2019503, 31.2614862]}, "properties": {"OBJECTID": 223334, "Municipality": 2560, "Municipality_desc": "\u05e2\u05e8\u05d3", "Isolations": 10, "Total_Pop2017": 26763, "Iso_per_1000": 0}},{"type": "Feature", "geometry": {"type": "Point", "coordinates": [34.9380892, 29.5805441]}, "properties": {"OBJECTID": 223335, "Municipality": 2600, "Municipality_desc": "\u05d0\u05d9\u05dc\u05ea", "Isolations": 25, "Total_Pop2017": 56568, "Iso_per_1000": 0}},{"type": "Feature", "geometry": {"type": "Point", "coordinates": [34.9824022, 31.7269061]}, "properties": {"OBJECTID": 223336, "Municipality": 2610, "Municipality_desc": "\u05d1\u05d9\u05ea \u05e9\u05de\u05e9", "Isolations": 81, "Total_Pop2017": 120812, "Iso_per_1000": 0}},{"type": "Feature", "geometry": {"type": "Point", "coordinates": [34.8579861, 32.0570595]}, "properties": {"OBJECTID": 223337, "Municipality": 2620, "Municipality_desc": "\u05e7\u05e8\u05d9\u05ea \u05d0\u05d5\u05e0\u05d5", "Isolations": 9, "Total_Pop2017": 37112, "Iso_per_1000": 0}},{"type": "Feature", "geometry": {"type": "Point", "coordinates": [34.7747134, 31.6070432]}, "properties": {"OBJECTID": 223338, "Municipality": 2630, "Municipality_desc": "\u05e7\u05e8\u05d9\u05ea \u05d2\u05ea", "Isolations": 39, "Total_Pop2017": 55400, "Iso_per_1000": 0}},{"type": "Feature", "geometry": {"type": "Point", "coordinates": [34.9631144, 32.0933483]}, "properties": {"OBJECTID": 223339, "Municipality": 2640, "Municipality_desc": "\u05e8\u05d0\u05e9 \u05d4\u05e2\u05d9\u05df", "Isolations": 36, "Total_Pop2017": 53965, "Iso_per_1000": 0}},{"type": "Feature", "geometry": {"type": "Point", "coordinates": [34.8344619, 32.1356517]}, "properties": {"OBJECTID": 223340, "Municipality": 2650, "Municipality_desc": "\u05e8\u05de\u05ea \u05d4\u05e9\u05e8\u05d5\u05df", "Isolations": 14, "Total_Pop2017": 44896, "Iso_per_1000": 0}},{"type": "Feature", "geometry": {"type": "Point", "coordinates": [34.7327872, 31.8742193]}, "properties": {"OBJECTID": 223341, "Municipality": 2660, "Municipality_desc": "\u05d9\u05d1\u05e0\u05d4", "Isolations": 14, "Total_Pop2017": 45555, "Iso_per_1000": 0}},{"type": "Feature", "geometry": {"type": "Point", "coordinates": [35.1516304, 32.5290166]}, "properties": {"OBJECTID": 223342, "Municipality": 2710, "Municipality_desc": "\u05d0\u05d5\u05dd \u05d0\u05dc-\u05e4\u05d7\u05dd", "Isolations": 42, "Total_Pop2017": 55324, "Iso_per_1000": 0}},{"type": "Feature", "geometry": {"type": "Point", "coordinates": [34.9613864, 32.2334689]}, "properties": {"OBJECTID": 223343, "Municipality": 2720, "Municipality_desc": "\u05d8\u05d9\u05e8\u05d4", "Isolations": 23, "Total_Pop2017": 26184, "Iso_per_1000": 0}},{"type": "Feature", "geometry": {"type": "Point", "coordinates": [34.9995815, 32.2624547]}, "properties": {"OBJECTID": 223344, "Municipality": 2730, "Municipality_desc": "\u05d8\u05d9\u05d9\u05d1\u05d4", "Isolations": 47, "Total_Pop2017": 43144, "Iso_per_1000": 1}},{"type": "Feature", "geometry": {"type": "Point", "coordinates": [35.5740487, 33.2126327]}, "properties": {"OBJECTID": 223345, "Municipality": 2800, "Municipality_desc": "\u05e7\u05e8\u05d9\u05ea \u05e9\u05de\u05d5\u05e0\u05d4", "Isolations": 4, "Total_Pop2017": 22152, "Iso_per_1000": 0}},{"type": "Feature", "geometry": {"type": "Point", "coordinates": [35.2051482, 31.7784771]}, "properties": {"OBJECTID": 223346, "Municipality": 3000, "Municipality_desc": "\u05d9\u05e8\u05d5\u05e9\u05dc\u05d9\u05dd", "Isolations": 657, "Total_Pop2017": 914559, "Iso_per_1000": 0}},{"type": "Feature", "geometry": {"type": "Point", "coordinates": [35.1890869, 32.1043091]}, "properties": {"OBJECTID": 223347, "Municipality": 3570, "Municipality_desc": "\u05d0\u05e8\u05d9\u05d0\u05dc", "Isolations": 108, "Total_Pop2017": 18251, "Iso_per_1000": 5}},{"type": "Feature", "geometry": {"type": "Point", "coordinates": [35.2235044, 31.9391297]}, "properties": {"OBJECTID": 223348, "Municipality": 3574, "Municipality_desc": "\u05d1\u05d9\u05ea \u05d0\u05dc", "Isolations": 7, "Total_Pop2017": 5767, "Iso_per_1000": 1}},{"type": "Feature", "geometry": {"type": "Point", "coordinates": [35.3308138, 31.7924445]}, "properties": {"OBJECTID": 223349, "Municipality": 3616, "Municipality_desc": "\u05de\u05e2\u05dc\u05d4 \u05d0\u05d3\u05d5\u05de\u05d9\u05dd", "Isolations": 25, "Total_Pop2017": 37469, "Iso_per_1000": 0}},{"type": "Feature", "geometry": {"type": "Point", "coordinates": [35.1003579, 32.1744606]}, "properties": {"OBJECTID": 223350, "Municipality": 3640, "Municipality_desc": "\u05e7\u05e8\u05e0\u05d9 \u05e9\u05d5\u05de\u05e8\u05d5\u05df", "Isolations": 1, "Total_Pop2017": 7906, "Iso_per_1000": 0}},{"type": "Feature", "geometry": {"type": "Point", "coordinates": [35.1492039, 31.6501481]}, "properties": {"OBJECTID": 223351, "Municipality": 3650, "Municipality_desc": "\u05d0\u05e4\u05e8\u05ea", "Isolations": 1, "Total_Pop2017": 10676, "Iso_per_1000": 0}},{"type": "Feature", "geometry": {"type": "Point", "coordinates": [35.1679533, 31.8620701]}, "properties": {"OBJECTID": 223352, "Municipality": 3730, "Municipality_desc": "\u05d2\u05d1\u05e2\u05ea \u05d6\u05d0\u05d1", "Isolations": 26, "Total_Pop2017": 18510, "Iso_per_1000": 1}},{"type": "Feature", "geometry": {"type": "Point", "coordinates": [34.993131, 32.1306766]}, "properties": {"OBJECTID": 223353, "Municipality": 3760, "Municipality_desc": "\u05d0\u05d5\u05e8\u05e0\u05d9\u05ea", "Isolations": 3, "Total_Pop2017": 8822, "Iso_per_1000": 0}},{"type": "Feature", "geometry": {"type": "Point", "coordinates": [35.1128562, 31.6989563]}, "properties": {"OBJECTID": 223354, "Municipality": 3780, "Municipality_desc": "\u05d1\u05d9\u05ea\u05e8 \u05e2\u05d9\u05dc\u05d9\u05ea", "Isolations": 105, "Total_Pop2017": 59240, "Iso_per_1000": 1}},{"type": "Feature", "geometry": {"type": "Point", "coordinates": [35.0443115, 31.9318848]}, "properties": {"OBJECTID": 223355, "Municipality": 3797, "Municipality_desc": "\u05de\u05d5\u05d3\u05d9\u05e2\u05d9\u05df \u05e2\u05d9\u05dc\u05d9\u05ea", "Isolations": 64, "Total_Pop2017": 73808, "Iso_per_1000": 0}},{"type": "Feature", "geometry": {"type": "Point", "coordinates": [35.0079755, 32.8022265]}, "properties": {"OBJECTID": 223356, "Municipality": 4000, "Municipality_desc": "\u05d7\u05d9\u05e4\u05d4", "Isolations": 89, "Total_Pop2017": 272584, "Iso_per_1000": 0}},{"type": "Feature", "geometry": {"type": "Point", "coordinates": [35.6961941, 32.9928334]}, "properties": {"OBJECTID": 223357, "Municipality": 4100, "Municipality_desc": "\u05e7\u05e6\u05e8\u05d9\u05df", "Isolations": 1, "Total_Pop2017": 7373, "Iso_per_1000": 0}},{"type": "Feature", "geometry": {"type": "Point", "coordinates": [35.7719857, 33.2644275]}, "properties": {"OBJECTID": 223358, "Municipality": 4201, "Municipality_desc": "\u05de\u05d2'\u05d3\u05dc \u05e9\u05de\u05e1", "Isolations": 1, "Total_Pop2017": 11089, "Iso_per_1000": 0}},{"type": "Feature", "geometry": {"type": "Point", "coordinates": [34.7913651, 32.0843318]}, "properties": {"OBJECTID": 223359, "Municipality": 5000, "Municipality_desc": "\u05ea\u05dc \u05d0\u05d1\u05d9\u05d1 - \u05d9\u05e4\u05d5", "Isolations": 202, "Total_Pop2017": 450192, "Iso_per_1000": 0}},{"type": "Feature", "geometry": {"type": "Point", "coordinates": [35.5722857, 33.090709]}, "properties": {"OBJECTID": 223360, "Municipality": 5501, "Municipality_desc": "\u05d4\u05d2\u05dc\u05d9\u05dc \u05d4\u05e2\u05dc\u05d9\u05d5\u05df", "Isolations": 3, "Total_Pop2017": 16900, "Iso_per_1000": 0}},{"type": "Feature", "geometry": {"type": "Point", "coordinates": [35.4592638, 32.9781518]}, "properties": {"OBJECTID": 223361, "Municipality": 5502, "Municipality_desc": "\u05de\u05e8\u05d5\u05dd \u05d4\u05d2\u05dc\u05d9\u05dc", "Isolations": 10, "Total_Pop2017": 14745, "Iso_per_1000": 0}},{"type": "Feature", "geometry": {"type": "Point", "coordinates": [35.4448443, 32.7611355]}, "properties": {"OBJECTID": 223362, "Municipality": 5503, "Municipality_desc": "\u05d4\u05d2\u05dc\u05d9\u05dc \u05d4\u05ea\u05d7\u05ea\u05d5\u05df", "Isolations": 4, "Total_Pop2017": 11754, "Iso_per_1000": 0}},{"type": "Feature", "geometry": {"type": "Point", "coordinates": [35.1539261, 32.9871497]}, "properties": {"OBJECTID": 223363, "Municipality": 5504, "Municipality_desc": "\u05de\u05d8\u05d4 \u05d0\u05e9\u05e8", "Isolations": 15, "Total_Pop2017": 28148, "Iso_per_1000": 0}},{"type": "Feature", "geometry": {"type": "Point", "coordinates": [35.5615764, 32.7453026]}, "properties": {"OBJECTID": 223364, "Municipality": 5506, "Municipality_desc": "\u05e2\u05de\u05e7 \u05d4\u05d9\u05e8\u05d3\u05df", "Isolations": 7, "Total_Pop2017": 13073, "Iso_per_1000": 0}},{"type": "Feature", "geometry": {"type": "Point", "coordinates": [35.5079843, 32.4972912]}, "properties": {"OBJECTID": 223365, "Municipality": 5507, "Municipality_desc": "\u05e2\u05de\u05e7 \u05d4\u05de\u05e2\u05d9\u05d9\u05e0\u05d5\u05ea", "Isolations": 3, "Total_Pop2017": 12882, "Iso_per_1000": 0}},{"type": "Feature", "geometry": {"type": "Point", "coordinates": [35.3895708, 32.5628228]}, "properties": {"OBJECTID": 223366, "Municipality": 5508, "Municipality_desc": "\u05d4\u05d2\u05dc\u05d1\u05d5\u05e2", "Isolations": 23, "Total_Pop2017": 29836, "Iso_per_1000": 0}},{"type": "Feature", "geometry": {"type": "Point", "coordinates": [35.2527223, 32.6808326]}, "properties": {"OBJECTID": 223367, "Municipality": 5509, "Municipality_desc": "\u05e2\u05de\u05e7 \u05d9\u05d6\u05e8\u05e2\u05d0\u05dc", "Isolations": 10, "Total_Pop2017": 37143, "Iso_per_1000": 0}},{"type": "Feature", "geometry": {"type": "Point", "coordinates": [35.1290204, 32.5940782]}, "properties": {"OBJECTID": 223368, "Municipality": 5513, "Municipality_desc": "\u05de\u05d2\u05d9\u05d3\u05d5", "Isolations": 4, "Total_Pop2017": 11107, "Iso_per_1000": 0}},{"type": "Feature", "geometry": {"type": "Point", "coordinates": [35.0291399, 32.467324]}, "properties": {"OBJECTID": 223369, "Municipality": 5514, "Municipality_desc": "\u05de\u05e0\u05e9\u05d4", "Isolations": 11, "Total_Pop2017": 17472, "Iso_per_1000": 0}},{"type": "Feature", "geometry": {"type": "Point", "coordinates": [34.9647061, 32.637359]}, "properties": {"OBJECTID": 223370, "Municipality": 5515, "Municipality_desc": "\u05d7\u05d5\u05e3 \u05d4\u05db\u05e8\u05de\u05dc", "Isolations": 15, "Total_Pop2017": 28645, "Iso_per_1000": 0}},{"type": "Feature", "geometry": {"type": "Point", "coordinates": [34.9402268, 32.3621023]}, "properties": {"OBJECTID": 223371, "Municipality": 5516, "Municipality_desc": "\u05e2\u05de\u05e7 \u05d7\u05e4\u05e8", "Isolations": 7, "Total_Pop2017": 37647, "Iso_per_1000": 0}},{"type": "Feature", "geometry": {"type": "Point", "coordinates": [34.9415761, 32.2751595]}, "properties": {"OBJECTID": 223372, "Municipality": 5518, "Municipality_desc": "\u05dc\u05d1 \u05d4\u05e9\u05e8\u05d5\u05df", "Isolations": 7, "Total_Pop2017": 21541, "Iso_per_1000": 0}},{"type": "Feature", "geometry": {"type": "Point", "coordinates": [34.8478737, 32.2288863]}, "properties": {"OBJECTID": 223373, "Municipality": 5519, "Municipality_desc": "\u05d7\u05d5\u05e3 \u05d4\u05e9\u05e8\u05d5\u05df", "Isolations": 7, "Total_Pop2017": 11163, "Iso_per_1000": 0}},{"type": "Feature", "geometry": {"type": "Point", "coordinates": [34.9349625, 32.152416]}, "properties": {"OBJECTID": 223374, "Municipality": 5520, "Municipality_desc": "\u05d3\u05e8\u05d5\u05dd \u05d4\u05e9\u05e8\u05d5\u05df", "Isolations": 4, "Total_Pop2017": 30459, "Iso_per_1000": 0}},{"type": "Feature", "geometry": {"type": "Point", "coordinates": [34.9536775, 31.9843283]}, "properties": {"OBJECTID": 223375, "Municipality": 5525, "Municipality_desc": "\u05d7\u05d1\u05dc \u05de\u05d5\u05d3\u05d9\u05e2\u05d9\u05df", "Isolations": 10, "Total_Pop2017": 21009, "Iso_per_1000": 0}},{"type": "Feature", "geometry": {"type": "Point", "coordinates": [34.988501, 31.7470147]}, "properties": {"OBJECTID": 223376, "Municipality": 5526, "Municipality_desc": "\u05de\u05d8\u05d4 \u05d9\u05d4\u05d5\u05d3\u05d4", "Isolations": 33, "Total_Pop2017": 51540, "Iso_per_1000": 0}},{"type": "Feature", "geometry": {"type": "Point", "coordinates": [34.7388071, 31.9194078]}, "properties": {"OBJECTID": 223377, "Municipality": 5527, "Municipality_desc": "\u05d2\u05df \u05e8\u05d5\u05d5\u05d4", "Isolations": 3, "Total_Pop2017": 5522, "Iso_per_1000": 0}},{"type": "Feature", "geometry": {"type": "Point", "coordinates": [34.706613, 31.84315]}, "properties": {"OBJECTID": 223378, "Municipality": 5529, "Municipality_desc": "\u05d7\u05d1\u05dc \u05d9\u05d1\u05e0\u05d4", "Isolations": 1, "Total_Pop2017": 5428, "Iso_per_1000": 0}},{"type": "Feature", "geometry": {"type": "Point", "coordinates": [34.8925819, 31.8718112]}, "properties": {"OBJECTID": 223379, "Municipality": 5530, "Municipality_desc": "\u05d2\u05d6\u05e8", "Isolations": 23, "Total_Pop2017": 25806, "Iso_per_1000": 0}},{"type": "Feature", "geometry": {"type": "Point", "coordinates": [34.8180309, 31.7984322]}, "properties": {"OBJECTID": 223380, "Municipality": 5531, "Municipality_desc": "\u05e0\u05d7\u05dc \u05e9\u05d5\u05e8\u05e7", "Isolations": 1, "Total_Pop2017": 9055, "Iso_per_1000": 0}},{"type": "Feature", "geometry": {"type": "Point", "coordinates": [34.71682, 31.7441147]}, "properties": {"OBJECTID": 223381, "Municipality": 5533, "Municipality_desc": "\u05d1\u05d0\u05e8 \u05d8\u05d5\u05d1\u05d9\u05d4", "Isolations": 31, "Total_Pop2017": 21072, "Iso_per_1000": 1}},{"type": "Feature", "geometry": {"type": "Point", "coordinates": [34.7358653, 31.6336779]}, "properties": {"OBJECTID": 223382, "Municipality": 5534, "Municipality_desc": "\u05e9\u05e4\u05d9\u05e8", "Isolations": 1, "Total_Pop2017": 10681, "Iso_per_1000": 0}},{"type": "Feature", "geometry": {"type": "Point", "coordinates": [34.8175893, 31.6741295]}, "properties": {"OBJECTID": 223383, "Municipality": 5535, "Municipality_desc": "\u05d9\u05d5\u05d0\u05d1", "Isolations": 1, "Total_Pop2017": 8342, "Iso_per_1000": 0}},{"type": "Feature", "geometry": {"type": "Point", "coordinates": [34.6032192, 31.635332]}, "properties": {"OBJECTID": 223384, "Municipality": 5536, "Municipality_desc": "\u05d7\u05d5\u05e3 \u05d0\u05e9\u05e7\u05dc\u05d5\u05df", "Isolations": 5, "Total_Pop2017": 16895, "Iso_per_1000": 0}},{"type": "Feature", "geometry": {"type": "Point", "coordinates": [34.617641, 31.510095]}, "properties": {"OBJECTID": 223385, "Municipality": 5537, "Municipality_desc": "\u05e9\u05e2\u05e8 \u05d4\u05e0\u05d2\u05d1", "Isolations": 2, "Total_Pop2017": 7332, "Iso_per_1000": 0}},{"type": "Feature", "geometry": {"type": "Point", "coordinates": [34.4290683, 31.2269225]}, "properties": {"OBJECTID": 223386, "Municipality": 5538, "Municipality_desc": "\u05d0\u05e9\u05db\u05d5\u05dc", "Isolations": 1, "Total_Pop2017": 13717, "Iso_per_1000": 0}},{"type": "Feature", "geometry": {"type": "Point", "coordinates": [34.5602544, 31.4224149]}, "properties": {"OBJECTID": 223387, "Municipality": 5539, "Municipality_desc": "\u05e9\u05d3\u05d5\u05ea \u05e0\u05d2\u05d1", "Isolations": 3, "Total_Pop2017": 10205, "Iso_per_1000": 0}},{"type": "Feature", "geometry": {"type": "Point", "coordinates": [34.8569939, 31.986437]}, "properties": {"OBJECTID": 223388, "Municipality": 5540, "Municipality_desc": "\u05e2\u05de\u05e7 \u05dc\u05d5\u05d3", "Isolations": 5, "Total_Pop2017": 14844, "Iso_per_1000": 0}},{"type": "Feature", "geometry": {"type": "Point", "coordinates": [34.7747107, 31.3429772]}, "properties": {"OBJECTID": 223389, "Municipality": 5541, "Municipality_desc": "\u05d1\u05e0\u05d9 \u05e9\u05de\u05e2\u05d5\u05df", "Isolations": 5, "Total_Pop2017": 9799, "Iso_per_1000": 0}},{"type": "Feature", "geometry": {"type": "Point", "coordinates": [34.6246977, 31.2789739]}, "properties": {"OBJECTID": 223390, "Municipality": 5542, "Municipality_desc": "\u05de\u05e8\u05d7\u05d1\u05d9\u05dd", "Isolations": 3, "Total_Pop2017": 12657, "Iso_per_1000": 0}},{"type": "Feature", "geometry": {"type": "Point", "coordinates": [34.7218691, 30.7777587]}, "properties": {"OBJECTID": 223391, "Municipality": 5548, "Municipality_desc": "\u05e8\u05de\u05ea \u05e0\u05d2\u05d1", "Isolations": 4, "Total_Pop2017": 6557, "Iso_per_1000": 0}},{"type": "Feature", "geometry": {"type": "Point", "coordinates": [34.822982, 31.5363395]}, "properties": {"OBJECTID": 223392, "Municipality": 5550, "Municipality_desc": "\u05dc\u05db\u05d9\u05e9", "Isolations": 1, "Total_Pop2017": 11165, "Iso_per_1000": 0}},{"type": "Feature", "geometry": {"type": "Point", "coordinates": [35.279598, 33.0467394]}, "properties": {"OBJECTID": 223393, "Municipality": 5552, "Municipality_desc": "\u05de\u05e2\u05dc\u05d4 \u05d9\u05d5\u05e1\u05e3", "Isolations": 4, "Total_Pop2017": 10506, "Iso_per_1000": 0}},{"type": "Feature", "geometry": {"type": "Point", "coordinates": [35.5661447, 33.0571858]}, "properties": {"OBJECTID": 223394, "Municipality": 5555, "Municipality_desc": "\u05de\u05d1\u05d5\u05d0\u05d5\u05ea \u05d4\u05d7\u05e8\u05de\u05d5\u05df", "Isolations": 1, "Total_Pop2017": 6984, "Iso_per_1000": 0}},{"type": "Feature", "geometry": {"type": "Point", "coordinates": [35.2758095, 32.8780456]}, "properties": {"OBJECTID": 223395, "Municipality": 5556, "Municipality_desc": "\u05de\u05e9\u05d2\u05d1", "Isolations": 27, "Total_Pop2017": 27919, "Iso_per_1000": 0}},{"type": "Feature", "geometry": {"type": "Point", "coordinates": [35.3334284, 32.7895782]}, "properties": {"OBJECTID": 223396, "Municipality": 5565, "Municipality_desc": "\u05d0\u05dc-\u05d1\u05d8\u05d5\u05e3", "Isolations": 4, "Total_Pop2017": 8099, "Iso_per_1000": 0}},{"type": "Feature", "geometry": {"type": "Point", "coordinates": [35.3811937, 32.6303456]}, "properties": {"OBJECTID": 223397, "Municipality": 5566, "Municipality_desc": "\u05d1\u05d5\u05e1\u05ea\u05df-\u05d0\u05dc-\u05de\u05e8\u05d2'", "Isolations": 2, "Total_Pop2017": 8293, "Iso_per_1000": 0}},{"type": "Feature", "geometry": {"type": "Point", "coordinates": [35.7410467, 33.000379]}, "properties": {"OBJECTID": 223398, "Municipality": 5571, "Municipality_desc": "\u05d2\u05d5\u05dc\u05df", "Isolations": 11, "Total_Pop2017": 16924, "Iso_per_1000": 0}},{"type": "Feature", "geometry": {"type": "Point", "coordinates": [35.321106, 32.4476929]}, "properties": {"OBJECTID": 223399, "Municipality": 5572, "Municipality_desc": "\u05e9\u05d5\u05de\u05e8\u05d5\u05df", "Isolations": 18, "Total_Pop2017": 43420, "Iso_per_1000": 0}},{"type": "Feature", "geometry": {"type": "Point", "coordinates": [35.2229004, 31.9389038]}, "properties": {"OBJECTID": 223400, "Municipality": 5573, "Municipality_desc": "\u05de\u05d8\u05d4 \u05d1\u05e0\u05d9\u05de\u05d9\u05df", "Isolations": 67, "Total_Pop2017": 63442, "Iso_per_1000": 1}},{"type": "Feature", "geometry": {"type": "Point", "coordinates": [35.4447021, 32.0004883]}, "properties": {"OBJECTID": 223401, "Municipality": 5575, "Municipality_desc": "\u05e2\u05e8\u05d1\u05d5\u05ea \u05d4\u05d9\u05e8\u05d3\u05df", "Isolations": 2, "Total_Pop2017": 5430, "Iso_per_1000": 0}},{"type": "Feature", "geometry": {"type": "Point", "coordinates": [35.1713257, 31.7221069]}, "properties": {"OBJECTID": 223402, "Municipality": 5576, "Municipality_desc": "\u05d2\u05d5\u05e9 \u05e2\u05e6\u05d9\u05d5\u05df", "Isolations": 11, "Total_Pop2017": 23359, "Iso_per_1000": 0}},{"type": "Feature", "geometry": {"type": "Point", "coordinates": [35.0333252, 31.5618896]}, "properties": {"OBJECTID": 223403, "Municipality": 5578, "Municipality_desc": "\u05d4\u05e8 \u05d7\u05d1\u05e8\u05d5\u05df", "Isolations": 4, "Total_Pop2017": 8844, "Iso_per_1000": 0}},{"type": "Feature", "geometry": {"type": "Point", "coordinates": [35.0403653, 32.4205244]}, "properties": {"OBJECTID": 223404, "Municipality": 6000, "Municipality_desc": "\u05d1\u05d0\u05e7\u05d4 \u05d0\u05dc-\u05d2\u05e8\u05d1\u05d9\u05d4", "Isolations": 28, "Total_Pop2017": 29035, "Iso_per_1000": 0}},{"type": "Feature", "geometry": {"type": "Point", "coordinates": [34.8358869, 32.0900965]}, "properties": {"OBJECTID": 223405, "Municipality": 6100, "Municipality_desc": "\u05d1\u05e0\u05d9 \u05d1\u05e8\u05e7", "Isolations": 142, "Total_Pop2017": 195298, "Iso_per_1000": 0}},{"type": "Feature", "geometry": {"type": "Point", "coordinates": [34.7473626, 32.0144303]}, "properties": {"OBJECTID": 223406, "Municipality": 6200, "Municipality_desc": "\u05d1\u05ea \u05d9\u05dd", "Isolations": 39, "Total_Pop2017": 130523, "Iso_per_1000": 0}},{"type": "Feature", "geometry": {"type": "Point", "coordinates": [34.8103965, 32.0703517]}, "properties": {"OBJECTID": 223407, "Municipality": 6300, "Municipality_desc": "\u05d2\u05d1\u05e2\u05ea\u05d9\u05d9\u05dd", "Isolations": 12, "Total_Pop2017": 55123, "Iso_per_1000": 0}},{"type": "Feature", "geometry": {"type": "Point", "coordinates": [34.8237809, 32.1687238]}, "properties": {"OBJECTID": 223408, "Municipality": 6400, "Municipality_desc": "\u05d4\u05e8\u05e6\u05dc\u05d9\u05d4", "Isolations": 26, "Total_Pop2017": 90900, "Iso_per_1000": 0}},{"type": "Feature", "geometry": {"type": "Point", "coordinates": [34.9126186, 32.4374398]}, "properties": {"OBJECTID": 223409, "Municipality": 6500, "Municipality_desc": "\u05d7\u05d3\u05e8\u05d4", "Isolations": 51, "Total_Pop2017": 94104, "Iso_per_1000": 0}},{"type": "Feature", "geometry": {"type": "Point", "coordinates": [34.7834647, 32.0106492]}, "properties": {"OBJECTID": 223410, "Municipality": 6600, "Municipality_desc": "\u05d7\u05d5\u05dc\u05d5\u05df", "Isolations": 68, "Total_Pop2017": 185741, "Iso_per_1000": 0}},{"type": "Feature", "geometry": {"type": "Point", "coordinates": [35.5265221, 32.7826516]}, "properties": {"OBJECTID": 223411, "Municipality": 6700, "Municipality_desc": "\u05d8\u05d1\u05e8\u05d9\u05d4", "Isolations": 74, "Total_Pop2017": 44353, "Iso_per_1000": 1}},{"type": "Feature", "geometry": {"type": "Point", "coordinates": [35.1075274, 32.8060147]}, "properties": {"OBJECTID": 223412, "Municipality": 6800, "Municipality_desc": "\u05e7\u05e8\u05d9\u05ea \u05d0\u05ea\u05d0", "Isolations": 13, "Total_Pop2017": 57108, "Iso_per_1000": 0}},{"type": "Feature", "geometry": {"type": "Point", "coordinates": [34.9178012, 32.1823638]}, "properties": {"OBJECTID": 223413, "Municipality": 6900, "Municipality_desc": "\u05db\u05e4\u05e8 \u05e1\u05d1\u05d0", "Isolations": 32, "Total_Pop2017": 97412, "Iso_per_1000": 0}},{"type": "Feature", "geometry": {"type": "Point", "coordinates": [34.8919924, 31.954082]}, "properties": {"OBJECTID": 223414, "Municipality": 7000, "Municipality_desc": "\u05dc\u05d5\u05d3", "Isolations": 35, "Total_Pop2017": 75038, "Iso_per_1000": 0}},{"type": "Feature", "geometry": {"type": "Point", "coordinates": [34.5683495, 31.6656585]}, "properties": {"OBJECTID": 223415, "Municipality": 7100, "Municipality_desc": "\u05d0\u05e9\u05e7\u05dc\u05d5\u05df", "Isolations": 83, "Total_Pop2017": 139032, "Iso_per_1000": 0}},{"type": "Feature", "geometry": {"type": "Point", "coordinates": [34.7924217, 31.9222352]}, "properties": {"OBJECTID": 223416, "Municipality": 7200, "Municipality_desc": "\u05e0\u05e1 \u05e6\u05d9\u05d5\u05e0\u05d4", "Isolations": 8, "Total_Pop2017": 45714, "Iso_per_1000": 0}},{"type": "Feature", "geometry": {"type": "Point", "coordinates": [35.2901774, 32.7039497]}, "properties": {"OBJECTID": 223417, "Municipality": 7300, "Municipality_desc": "\u05e0\u05e6\u05e8\u05ea", "Isolations": 26, "Total_Pop2017": 78252, "Iso_per_1000": 0}},{"type": "Feature", "geometry": {"type": "Point", "coordinates": [34.8580231, 32.3055793]}, "properties": {"OBJECTID": 223418, "Municipality": 7400, "Municipality_desc": "\u05e0\u05ea\u05e0\u05d9\u05d4", "Isolations": 92, "Total_Pop2017": 213971, "Iso_per_1000": 0}},{"type": "Feature", "geometry": {"type": "Point", "coordinates": [35.3088001, 32.864273]}, "properties": {"OBJECTID": 223419, "Municipality": 7500, "Municipality_desc": "\u05e1\u05d7'\u05e0\u05d9\u05df", "Isolations": 24, "Total_Pop2017": 32089, "Iso_per_1000": 0}},{"type": "Feature", "geometry": {"type": "Point", "coordinates": [35.0852026, 32.9207499]}, "properties": {"OBJECTID": 223420, "Municipality": 7600, "Municipality_desc": "\u05e2\u05db\u05d5", "Isolations": 20, "Total_Pop2017": 50872, "Iso_per_1000": 0}},{"type": "Feature", "geometry": {"type": "Point", "coordinates": [35.3059224, 32.612063]}, "properties": {"OBJECTID": 223421, "Municipality": 7700, "Municipality_desc": "\u05e2\u05e4\u05d5\u05dc\u05d4", "Isolations": 17, "Total_Pop2017": 50886, "Iso_per_1000": 0}},{"type": "Feature", "geometry": {"type": "Point", "coordinates": [34.9732583, 32.4749137]}, "properties": {"OBJECTID": 223422, "Municipality": 7800, "Municipality_desc": "\u05e4\u05e8\u05d3\u05e1 \u05d7\u05e0\u05d4-\u05db\u05e8\u05db\u05d5\u05e8", "Isolations": 12, "Total_Pop2017": 40622, "Iso_per_1000": 0}},{"type": "Feature", "geometry": {"type": "Point", "coordinates": [34.8854907, 32.0948512]}, "properties": {"OBJECTID": 223423, "Municipality": 7900, "Municipality_desc": "\u05e4\u05ea\u05d7 \u05ea\u05e7\u05d5\u05d5\u05d4", "Isolations": 126, "Total_Pop2017": 242478, "Iso_per_1000": 0}},{"type": "Feature", "geometry": {"type": "Point", "coordinates": [35.5044528, 32.9560445]}, "properties": {"OBJECTID": 223424, "Municipality": 8000, "Municipality_desc": "\u05e6\u05e4\u05ea", "Isolations": 4, "Total_Pop2017": 35671, "Iso_per_1000": 0}},{"type": "Feature", "geometry": {"type": "Point", "coordinates": [35.0829844, 32.8422929]}, "properties": {"OBJECTID": 223425, "Municipality": 8200, "Municipality_desc": "\u05e7\u05e8\u05d9\u05ea \u05de\u05d5\u05e6\u05e7\u05d9\u05df", "Isolations": 9, "Total_Pop2017": 42870, "Iso_per_1000": 0}},{"type": "Feature", "geometry": {"type": "Point", "coordinates": [34.7787794, 31.9707147]}, "properties": {"OBJECTID": 223426, "Municipality": 8300, "Municipality_desc": "\u05e8\u05d0\u05e9\u05d5\u05df \u05dc\u05e6\u05d9\u05d5\u05df", "Isolations": 74, "Total_Pop2017": 241010, "Iso_per_1000": 0}},{"type": "Feature", "geometry": {"type": "Point", "coordinates": [34.8095043, 31.8953912]}, "properties": {"OBJECTID": 223427, "Municipality": 8400, "Municipality_desc": "\u05e8\u05d7\u05d5\u05d1\u05d5\u05ea", "Isolations": 61, "Total_Pop2017": 137178, "Iso_per_1000": 0}},{"type": "Feature", "geometry": {"type": "Point", "coordinates": [34.8706641, 31.9270636]}, "properties": {"OBJECTID": 223428, "Municipality": 8500, "Municipality_desc": "\u05e8\u05de\u05dc\u05d4", "Isolations": 29, "Total_Pop2017": 75246, "Iso_per_1000": 0}},{"type": "Feature", "geometry": {"type": "Point", "coordinates": [34.8276088, 32.0640299]}, "properties": {"OBJECTID": 223429, "Municipality": 8600, "Municipality_desc": "\u05e8\u05de\u05ea \u05d2\u05df", "Isolations": 56, "Total_Pop2017": 143370, "Iso_per_1000": 0}},{"type": "Feature", "geometry": {"type": "Point", "coordinates": [34.8666498, 32.1893305]}, "properties": {"OBJECTID": 223430, "Municipality": 8700, "Municipality_desc": "\u05e8\u05e2\u05e0\u05e0\u05d4", "Isolations": 33, "Total_Pop2017": 73979, "Iso_per_1000": 0}},{"type": "Feature", "geometry": {"type": "Point", "coordinates": [35.1774067, 32.8020083]}, "properties": {"OBJECTID": 223431, "Municipality": 8800, "Municipality_desc": "\u05e9\u05e4\u05e8\u05e2\u05dd", "Isolations": 36, "Total_Pop2017": 40666, "Iso_per_1000": 0}},{"type": "Feature", "geometry": {"type": "Point", "coordinates": [35.1814714, 32.8517376]}, "properties": {"OBJECTID": 223432, "Municipality": 8900, "Municipality_desc": "\u05d8\u05de\u05e8\u05d4", "Isolations": 12, "Total_Pop2017": 33792, "Iso_per_1000": 0}},{"type": "Feature", "geometry": {"type": "Point", "coordinates": [34.7884375, 31.2569665]}, "properties": {"OBJECTID": 223433, "Municipality": 9000, "Municipality_desc": "\u05d1\u05d0\u05e8 \u05e9\u05d1\u05e2", "Isolations": 88, "Total_Pop2017": 196755, "Iso_per_1000": 0}},{"type": "Feature", "geometry": {"type": "Point", "coordinates": [35.1018699, 33.013226]}, "properties": {"OBJECTID": 223434, "Municipality": 9100, "Municipality_desc": "\u05e0\u05d4\u05e8\u05d9\u05d4", "Isolations": 28, "Total_Pop2017": 58750, "Iso_per_1000": 0}},{"type": "Feature", "geometry": {"type": "Point", "coordinates": [35.5004625, 32.4990455]}, "properties": {"OBJECTID": 223435, "Municipality": 9200, "Municipality_desc": "\u05d1\u05d9\u05ea \u05e9\u05d0\u05df", "Isolations": 6, "Total_Pop2017": 19058, "Iso_per_1000": 0}},{"type": "Feature", "geometry": {"type": "Point", "coordinates": [34.9696526, 32.5666614]}, "properties": {"OBJECTID": 223436, "Municipality": 9300, "Municipality_desc": "\u05d6\u05db\u05e8\u05d5\u05df \u05d9\u05e2\u05e7\u05d1", "Isolations": 9, "Total_Pop2017": 22341, "Iso_per_1000": 0}},{"type": "Feature", "geometry": {"type": "Point", "coordinates": [34.8854512, 32.0314415]}, "properties": {"OBJECTID": 223437, "Municipality": 9400, "Municipality_desc": "\u05d9\u05d4\u05d5\u05d3", "Isolations": 20, "Total_Pop2017": 29104, "Iso_per_1000": 0}},{"type": "Feature", "geometry": {"type": "Point", "coordinates": [35.0959497, 32.8413135]}, "properties": {"OBJECTID": 223438, "Municipality": 9500, "Municipality_desc": "\u05e7\u05e8\u05d9\u05ea \u05d1\u05d9\u05d0\u05dc\u05d9\u05e7", "Isolations": 7, "Total_Pop2017": 39262, "Iso_per_1000": 0}},{"type": "Feature", "geometry": {"type": "Point", "coordinates": [35.069503, 32.8503331]}, "properties": {"OBJECTID": 223439, "Municipality": 9600, "Municipality_desc": "\u05e7\u05e8\u05d9\u05ea \u05d9\u05dd", "Isolations": 8, "Total_Pop2017": 39556, "Iso_per_1000": 0}},{"type": "Feature", "geometry": {"type": "Point", "coordinates": [34.8886515, 32.1473449]}, "properties": {"OBJECTID": 223440, "Municipality": 9700, "Municipality_desc": "\u05d4\u05d5\u05d3 \u05d4\u05e9\u05e8\u05d5\u05df", "Isolations": 8, "Total_Pop2017": 59171, "Iso_per_1000": 0}},{"type": "Feature", "geometry": {"type": "Point", "coordinates": [34.9689984, 32.5184791]}, "properties": {"OBJECTID": 223441, "Municipality": 9800, "Municipality_desc": "\u05d1\u05e0\u05d9\u05de\u05d9\u05e0\u05d4-\u05d2\u05d1\u05e2\u05ea \u05e2\u05d3\u05d4", "Isolations": 5, "Total_Pop2017": 14383, "Iso_per_1000": 0}}]}